RLCC_FFT_C2/ALL0012/F0012FFT.CSV

Record Length,1.024000e+03,,          0.00000, -44.54850,
Sample Interval,4.932134e+00,,          4.93213,  -2.14850,
Trigger Point,-0.000000000000e+00,,          9.86427,   3.05150,
,,,         14.79640,   3.05150,
,,,         19.72854,   2.25150,
,,,         24.66067,  -6.14850,
Source,FFT,,         29.59280, -30.14850,
Vertical Units,dB,,         34.52494,  -9.34850,
Vertical Scale,1.000000e+01,,         39.45707,  -6.54850,
Vertical Offset,0.000000e+00,,         44.38920,  -6.14850,
Horizontal Units,Hz,,         49.32134,  -8.14850,
Horizontal Scale,5.050505e+02,,         54.25347, -20.14850,
Pt Fmt,Y,,         59.18561, -23.74850,
Yzero,-1.494850e+01,,         64.11774, -12.14850,
Probe Atten,1.000000e+00,,         69.04987, -10.94850,
Model Number,TBS1052B-EDU,,         73.98201, -10.94850,
Serial Number,C027597,,         78.91414, -14.54850,
Firmware Version,FV:v4.06,,         83.84628, -31.74850,
,,,88.77841, -21.34850,
,,,93.71054, -14.14850,
,,,98.64267, -13.74850,
,,,103.57480, -14.14850,
,,,108.50693, -20.54850,
,,,113.43906, -39.74850,
,,,118.37119, -20.14850,
,,,123.30332, -15.74850,
,,,128.23545, -15.74850,
,,,133.16758, -16.94850,
,,,138.09971, -27.34850,
,,,143.03184, -35.74850,
,,,147.96397, -20.14850,
,,,152.89610, -17.34850,
,,,157.82823, -17.34850,
,,,162.76036, -20.14850,
,,,167.69249, -36.54850,
,,,172.62462, -29.74850,
,,,177.55675, -19.34850,
,,,182.48888, -18.54850,
,,,187.42101, -18.54850,
,,,192.35314, -23.34850,
,,,197.28527, -42.94850,
,,,202.21740, -26.14850,
,,,207.14953, -20.14850,
,,,212.08166, -20.14850,
,,,217.01379, -20.54850,
,,,221.94592, -28.94850,
,,,226.87805, -48.54850,
,,,231.81018, -24.54850,
,,,236.74231, -20.94850,
,,,241.67444, -20.94850,
,,,246.60657, -22.14850,
,,,251.53870, -34.14850,
,,,256.47083, -36.54850,
,,,261.40296, -23.34850,
,,,266.33509, -21.34850,
,,,271.26722, -21.34850,
,,,276.19935, -24.14850,
,,,281.13148, -40.94850,
,,,286.06361, -30.54850,
,,,290.99574, -22.54850,
,,,295.92787, -21.74850,
,,,300.86000, -22.14850,
,,,305.79213, -27.34850,
,,,310.72426, -42.94850,
,,,315.65639, -27.34850,
,,,320.58852, -22.14850,
,,,325.52065, -22.14850,
,,,330.45278, -22.94850,
,,,335.38491, -31.74850,
,,,340.31704, -42.94850,
,,,345.24917, -25.74850,
,,,350.18130, -22.94850,
,,,355.11343, -22.94850,
,,,360.04556, -24.94850,
,,,364.97769, -38.14850,
,,,369.90982, -35.34850,
,,,374.84195, -24.54850,
,,,379.77408, -22.94850,
,,,384.70621, -22.94850,
,,,389.63834, -26.94850,
,,,394.57047, -42.94850,
,,,399.50260, -30.14850,
,,,404.43473, -23.74850,
,,,409.36686, -23.34850,
,,,414.29899, -23.34850,
,,,419.23112, -30.14850,
,,,424.16325, -44.14850,
,,,429.09538, -27.34850,
,,,434.02751, -23.74850,
,,,438.95964, -23.34850,
,,,443.89177, -24.94850,
,,,448.82390, -36.14850,
,,,453.75603, -42.94850,
,,,458.68816, -26.14850,
,,,463.62029, -23.74850,
,,,468.55242, -23.74850,
,,,473.48455, -26.14850,
,,,478.41668, -41.34850,
,,,483.34881, -33.34850,
,,,488.28094, -24.14850,
,,,493.21307, -23.74850,
,,,498.14520, -23.74850,
,,,503.07733, -29.34850,
,,,508.00946, -54.94850,
,,,512.94159, -30.14850,
,,,517.87372, -23.74850,
,,,522.80585, -23.34850,
,,,527.73798, -24.14850,
,,,532.67011, -32.54850,
,,,537.60224, -42.54850,
,,,542.53437, -26.54850,
,,,547.46650, -22.94850,
,,,552.39863, -22.94850,
,,,557.33076, -24.94850,
,,,562.26289, -37.74850,
,,,567.19502, -37.74850,
,,,572.12715, -24.94850,
,,,577.05928, -22.94850,
,,,581.99141, -22.94850,
,,,586.92354, -26.14850,
,,,591.85567, -41.34850,
,,,596.78780, -30.94850,
,,,601.71993, -23.34850,
,,,606.65206, -22.94850,
,,,611.58419, -22.94850,
,,,616.51632, -28.94850,
,,,621.44845, -52.54850,
,,,626.38058, -27.74850,
,,,631.31271, -22.54850,
,,,636.24484, -22.54850,
,,,641.17697, -23.34850,
,,,646.10910, -32.14850,
,,,651.04123, -36.94850,
,,,655.97336, -24.14850,
,,,660.90549, -21.74850,
,,,665.83762, -21.74850,
,,,670.76975, -24.14850,
,,,675.70188, -38.14850,
,,,680.63401, -32.54850,
,,,685.56614, -22.54850,
,,,690.49827, -21.34850,
,,,695.43040, -21.34850,
,,,700.36253, -25.74850,
,,,705.29466, -45.74850,
,,,710.22679, -27.74850,
,,,715.15892, -21.34850,
,,,720.09105, -20.94850,
,,,725.02318, -21.34850,
,,,729.95531, -28.94850,
,,,734.88744, -48.54850,
,,,739.81957, -24.14850,
,,,744.75170, -20.14850,
,,,749.68383, -20.14850,
,,,754.61596, -21.34850,
,,,759.54809, -32.54850,
,,,764.48022, -34.94850,
,,,769.41235, -21.34850,
,,,774.34448, -18.94850,
,,,779.27661, -19.34850,
,,,784.20874, -21.74850,
,,,789.14087, -39.34850,
,,,794.07300, -28.54850,
,,,799.00513, -19.74850,
,,,803.93726, -18.54850,
,,,808.86939, -18.94850,
,,,813.80152, -24.14850,
,,,818.73365, -42.94850,
,,,823.66578, -24.14850,
,,,828.59791, -18.14850,
,,,833.53004, -18.14850,
,,,838.46217, -18.94850,
,,,843.39430, -27.74850,
,,,848.32643, -39.34850,
,,,853.25856, -21.34850,
,,,858.19069, -17.74850,
,,,863.12282, -17.74850,
,,,868.05495, -19.74850,
,,,872.98708, -32.94850,
,,,877.91921, -31.34850,
,,,882.85134, -19.34850,
,,,887.78347, -17.74850,
,,,892.71560, -18.14850,
,,,897.64773, -21.74850,
,,,902.57986, -42.94850,
,,,907.51199, -26.94850,
,,,912.44412, -18.94850,
,,,917.37625, -18.54850,
,,,922.30838, -18.54850,
,,,927.24051, -25.34850,
,,,932.17264, -44.14850,
,,,937.10477, -23.74850,
,,,942.03690, -18.94850,
,,,946.96903, -18.94850,
,,,951.90116, -20.14850,
,,,956.83329, -30.14850,
,,,961.76542, -38.54850,
,,,966.69755, -22.14850,
,,,971.62968, -19.74850,
,,,976.56181, -19.74850,
,,,981.49394, -22.14850,
,,,986.42607, -37.34850,
,,,991.35820, -31.74850,
,,,996.29033, -21.74850,
,,,1001.22246, -20.54850,
,,,1006.15459, -20.54850,
,,,1011.08672, -24.94850,
,,,1016.01885, -45.34850,
,,,1020.95098, -28.14850,
,,,1025.88311, -21.34850,
,,,1030.81524, -21.34850,
,,,1035.74737, -21.74850,
,,,1040.67950, -28.94850,
,,,1045.61163, -42.94850,
,,,1050.54376, -25.34850,
,,,1055.47589, -21.74850,
,,,1060.40802, -22.14850,
,,,1065.34015, -23.74850,
,,,1070.27228, -35.74850,
,,,1075.20441, -38.14850,
,,,1080.13654, -24.14850,
,,,1085.06867, -22.54850,
,,,1090.00080, -22.14850,
,,,1094.93293, -25.74850,
,,,1099.86506, -42.94850,
,,,1104.79719, -32.14850,
,,,1109.72932, -23.74850,
,,,1114.66145, -22.94850,
,,,1119.59358, -23.34850,
,,,1124.52571, -28.94850,
,,,1129.45784, -52.54850,
,,,1134.38997, -28.94850,
,,,1139.32210, -23.34850,
,,,1144.25423, -22.94850,
,,,1149.18636, -24.14850,
,,,1154.11849, -32.94850,
,,,1159.05062, -42.94850,
,,,1163.98275, -26.54850,
,,,1168.91488, -23.74850,
,,,1173.84701, -23.74850,
,,,1178.77914, -25.74850,
,,,1183.71127, -40.94850,
,,,1188.64340, -37.74850,
,,,1193.57553, -25.34850,
,,,1198.50766, -24.14850,
,,,1203.43979, -23.74850,
,,,1208.37192, -28.14850,
,,,1213.30405, -46.54850,
,,,1218.23618, -32.14850,
,,,1223.16831, -24.54850,
,,,1228.10044, -24.14850,
,,,1233.03257, -24.54850,
,,,1237.96470, -30.94850,
,,,1242.89683, -46.54850,
,,,1247.82896, -28.14850,
,,,1252.76109, -24.14850,
,,,1257.69322, -24.14850,
,,,1262.62535, -25.74850,
,,,1267.55748, -36.14850,
,,,1272.48961, -42.94850,
,,,1277.42174, -26.94850,
,,,1282.35387, -24.54850,
,,,1287.28600, -24.54850,
,,,1292.21813, -27.74850,
,,,1297.15026, -44.14850,
,,,1302.08239, -35.74850,
,,,1307.01452, -26.14850,
,,,1311.94665, -24.94850,
,,,1316.87878, -24.94850,
,,,1321.81091, -29.74850,
,,,1326.74304, -49.34850,
,,,1331.67517, -32.54850,
,,,1336.60730, -26.54850,
,,,1341.53943, -26.14850,
,,,1346.47156, -26.54850,
,,,1351.40369, -34.94850,
,,,1356.33582, -54.94850,
,,,1361.26795, -30.54850,
,,,1366.20008, -26.94850,
,,,1371.13221, -26.94850,
,,,1376.06434, -28.94850,
,,,1380.99647, -41.34850,
,,,1385.92860, -42.94850,
,,,1390.86073, -30.14850,
,,,1395.79286, -28.54850,
,,,1400.72499, -28.54850,
,,,1405.65712, -31.34850,
,,,1410.58925, -45.34850,
,,,1415.52138, -37.34850,
,,,1420.45351, -30.14850,
,,,1425.38564, -29.74850,
,,,1430.31777, -30.14850,
,,,1435.24990, -36.14850,
,,,1440.18203, -52.54850,
,,,1445.11416, -36.14850,
,,,1450.04629, -31.74850,
,,,1454.97842, -31.74850,
,,,1459.91055, -32.54850,
,,,1464.84268, -42.94850,
,,,1469.77481, -52.54850,
,,,1474.70694, -34.94850,
,,,1479.63907, -32.14850,
,,,1484.57120, -32.14850,
,,,1489.50333, -35.34850,
,,,1494.43546, -48.54850,
,,,1499.36759, -49.34850,
,,,1504.29972, -36.14850,
,,,1509.23185, -34.54850,
,,,1514.16398, -34.54850,
,,,1519.09611, -38.54850,
,,,1524.02824, -52.54850,
,,,1528.96037, -45.74850,
,,,1533.89250, -37.34850,
,,,1538.82463, -37.34850,
,,,1543.75676, -37.34850,
,,,1548.68889, -45.74850,
,,,1553.62102, -54.94850,
,,,1558.55315, -41.34850,
,,,1563.48528, -36.94850,
,,,1568.41741, -37.34850,
,,,1573.34954, -39.34850,
,,,1578.28167, -48.54850,
,,,1583.21380, -52.54850,
,,,1588.14593, -42.94850,
,,,1593.07806, -39.34850,
,,,1598.01019, -38.14850,
,,,1602.94232, -39.74850,
,,,1607.87445, -49.34850,
,,,1612.80658, -45.34850,
,,,1617.73871, -42.94850,
,,,1622.67084, -41.34850,
,,,1627.60297, -41.34850,
,,,1632.53510, -44.14850,
,,,1637.46723, -54.94850,
,,,1642.39936, -48.54850,
,,,1647.33149, -41.34850,
,,,1652.26362, -42.94850,
,,,1657.19575, -42.94850,
,,,1662.12788, -54.94850,
,,,1667.06001, -54.94850,
,,,1671.99214, -45.74850,
,,,1676.92427, -42.94850,
,,,1681.85640, -42.54850,
,,,1686.78853, -45.34850,
,,,1691.72066, -54.94850,
,,,1696.65279, -54.94850,
,,,1701.58492, -49.34850,
,,,1706.51705, -45.34850,
,,,1711.44918, -42.94850,
,,,1716.38131, -49.34850,
,,,1721.31344, -54.94850,
,,,1726.24557, -54.94850,
,,,1731.17770, -49.34850,
,,,1736.10983, -48.54850,
,,,1741.04196, -45.34850,
,,,1745.97409, -49.34850,
,,,1750.90622, -52.54850,
,,,1755.83835, -45.34850,
,,,1760.77048, -44.14850,
,,,1765.70261, -46.54850,
,,,1770.63474, -48.54850,
,,,1775.56687, -54.94850,
,,,1780.49900, -52.54850,
,,,1785.43113, -45.34850,
,,,1790.36326, -43.34850,
,,,1795.29539, -43.34850,
,,,1800.22752, -45.34850,
,,,1805.15965, -54.94850,
,,,1810.09178, -49.34850,
,,,1815.02391, -45.34850,
,,,1819.95604, -45.74850,
,,,1824.88817, -45.74850,
,,,1829.82030, -49.34850,
,,,1834.75243, -52.54850,
,,,1839.68456, -52.54850,
,,,1844.61669, -45.34850,
,,,1849.54882, -45.74850,
,,,1854.48095, -49.34850,
,,,1859.41308, -54.94850,
,,,1864.34521, -54.94850,
,,,1869.27734, -52.54850,
,,,1874.20947, -52.54850,
,,,1879.14160, -49.34850,
,,,1884.07373, -54.94850,
,,,1889.00586, -54.94850,
,,,1893.93799, -52.54850,
,,,1898.87012, -54.94850,
,,,1903.80225, -49.34850,
,,,1908.73438, -49.34850,
,,,1913.66651, -49.34850,
,,,1918.59864, -54.94850,
,,,1923.53077, -54.94850,
,,,1928.46290, -52.54850,
,,,1933.39503, -52.54850,
,,,1938.32716, -49.34850,
,,,1943.25929, -54.94850,
,,,1948.19142, -52.54850,
,,,1953.12355, -54.94850,
,,,1958.05568, -54.94850,
,,,1962.98781, -54.94850,
,,,1967.91994, -54.94850,
,,,1972.85207, -54.94850,
,,,1977.78420, -52.54850,
,,,1982.71633, -54.94850,
,,,1987.64846, -48.54850,
,,,1992.58059, -48.54850,
,,,1997.51272, -48.54850,
,,,2002.44485, -52.54850,
,,,2007.37698, -54.94850,
,,,2012.30911, -54.94850,
,,,2017.24124, -54.94850,
,,,2022.17337, -54.94850,
,,,2027.10550, -54.94850,
,,,2032.03763, -54.94850,
,,,2036.96976, -54.94850,
,,,2041.90189, -52.54850,
,,,2046.83402, -48.54850,
,,,2051.76615, -52.54850,
,,,2056.69828, -54.94850,
,,,2061.63041, -54.94850,
,,,2066.56254, -52.54850,
,,,2071.49467, -52.54850,
,,,2076.42680, -52.54850,
,,,2081.35893, -49.34850,
,,,2086.29106, -54.94850,
,,,2091.22319, -54.94850,
,,,2096.15532, -54.94850,
,,,2101.08745, -54.94850,
,,,2106.01958, -54.94850,
,,,2110.95171, -54.94850,
,,,2115.88384, -54.94850,
,,,2120.81597, -54.94850,
,,,2125.74810, -54.94850,
,,,2130.68023, -52.54850,
,,,2135.61236, -52.54850,
,,,2140.54449, -52.54850,
,,,2145.47662, -54.94850,
,,,2150.40875, -54.94850,
,,,2155.34088, -54.94850,
,,,2160.27301, -54.94850,
,,,2165.20514, -54.94850,
,,,2170.13727, -54.94850,
,,,2175.06940, -54.94850,
,,,2180.00153, -54.94850,
,,,2184.93366, -52.54850,
,,,2189.86579, -54.94850,
,,,2194.79792, -54.94850,
,,,2199.73005, -54.94850,
,,,2204.66218, -54.94850,
,,,2209.59431, -54.94850,
,,,2214.52644, -54.94850,
,,,2219.45857, -49.34850,
,,,2224.39070, -49.34850,
,,,2229.32283, -52.54850,
,,,2234.25496, -52.54850,
,,,2239.18709, -54.94850,
,,,2244.11922, -54.94850,
,,,2249.05135, -54.94850,
,,,2253.98348, -54.94850,
,,,2258.91561, -54.94850,
,,,2263.84774, -54.94850,
,,,2268.77987, -54.94850,
,,,2273.71200, -54.94850,
,,,2278.64413, -54.94850,
,,,2283.57626, -54.94850,
,,,2288.50839, -52.54850,
,,,2293.44052, -52.54850,
,,,2298.37265, -54.94850,
,,,2303.30478, -54.94850,
,,,2308.23691, -54.94850,
,,,2313.16904, -54.94850,
,,,2318.10117, -54.94850,
,,,2323.03330, -52.54850,
,,,2327.96543, -52.54850,
,,,2332.89756, -54.94850,
,,,2337.82969, -54.94850,
,,,2342.76182, -54.94850,
,,,2347.69395, -54.94850,
,,,2352.62608, -54.94850,
,,,2357.55821, -52.54850,
,,,2362.49034, -48.54850,
,,,2367.42247, -49.34850,
,,,2372.35460, -49.34850,
,,,2377.28673, -54.94850,
,,,2382.21886, -54.94850,
,,,2387.15099, -54.94850,
,,,2392.08312, -54.94850,
,,,2397.01525, -54.94850,
,,,2401.94738, -52.54850,
,,,2406.87951, -54.94850,
,,,2411.81164, -54.94850,
,,,2416.74377, -52.54850,
,,,2421.67590, -54.94850,
,,,2426.60803, -54.94850,
,,,2431.54016, -54.94850,
,,,2436.47229, -52.54850,
,,,2441.40442, -52.54850,
,,,2446.33655, -54.94850,
,,,2451.26868, -54.94850,
,,,2456.20081, -54.94850,
,,,2461.13294, -54.94850,
,,,2466.06507, -54.94850,
,,,2470.99720, -54.94850,
,,,2475.92933, -54.94850,
,,,2480.86146, -54.94850,
,,,2485.79359, -52.54850,
,,,2490.72572, -48.54850,
,,,2495.65785, -48.54850,
,,,2500.58998, -54.94850,
,,,2505.52211, -52.54850,
,,,2510.45424, -54.94850,
,,,2515.38637, -54.94850,
,,,2520.31850, -54.94850,
,,,2525.25063, -54.94850,
,,,2530.18276, -54.94850,
,,,2535.11489, -54.94850,
,,,2540.04702, -54.94850,
,,,2544.97915, -54.94850,
,,,2549.91128, -49.34850,
,,,2554.84341, -54.94850,
,,,2559.77554, -54.94850,
,,,2564.70767, -54.94850,
,,,2569.63980, -49.34850,
,,,2574.57193, -52.54850,
,,,2579.50406, -52.54850,
,,,2584.43619, -54.94850,
,,,2589.36832, -54.94850,
,,,2594.30045, -49.34850,
,,,2599.23258, -52.54850,
,,,2604.16471, -54.94850,
,,,2609.09684, -54.94850,
,,,2614.02897, -54.94850,
,,,2618.96110, -49.34850,
,,,2623.89323, -49.34850,
,,,2628.82536, -52.54850,
,,,2633.75749, -52.54850,
,,,2638.68962, -54.94850,
,,,2643.62175, -52.54850,
,,,2648.55388, -54.94850,
,,,2653.48601, -54.94850,
,,,2658.41814, -54.94850,
,,,2663.35027, -54.94850,
,,,2668.28240, -54.94850,
,,,2673.21453, -54.94850,
,,,2678.14666, -54.94850,
,,,2683.07879, -54.94850,
,,,2688.01092, -54.94850,
,,,2692.94305, -54.94850,
,,,2697.87518, -54.94850,
,,,2702.80731, -54.94850,
,,,2707.73944, -52.54850,
,,,2712.67157, -52.54850,
,,,2717.60370, -54.94850,
,,,2722.53583, -49.34850,
,,,2727.46796, -52.54850,
,,,2732.40009, -48.54850,
,,,2737.33222, -49.34850,
,,,2742.26435, -49.34850,
,,,2747.19648, -54.94850,
,,,2752.12861, -54.94850,
,,,2757.06074, -54.94850,
,,,2761.99287, -54.94850,
,,,2766.92500, -54.94850,
,,,2771.85713, -54.94850,
,,,2776.78926, -54.94850,
,,,2781.72139, -54.94850,
,,,2786.65352, -54.94850,
,,,2791.58565, -54.94850,
,,,2796.51778, -54.94850,
,,,2801.44991, -54.94850,
,,,2806.38204, -54.94850,
,,,2811.31417, -54.94850,
,,,2816.24630, -54.94850,
,,,2821.17843, -52.54850,
,,,2826.11056, -54.94850,
,,,2831.04269, -52.54850,
,,,2835.97482, -54.94850,
,,,2840.90695, -54.94850,
,,,2845.83908, -54.94850,
,,,2850.77121, -52.54850,
,,,2855.70334, -54.94850,
,,,2860.63547, -54.94850,
,,,2865.56760, -54.94850,
,,,2870.49973, -54.94850,
,,,2875.43186, -54.94850,
,,,2880.36399, -54.94850,
,,,2885.29612, -54.94850,
,,,2890.22825, -54.94850,
,,,2895.16038, -54.94850,
,,,2900.09251, -54.94850,
,,,2905.02464, -54.94850,
,,,2909.95677, -54.94850,
,,,2914.88890, -54.94850,
,,,2919.82103, -54.94850,
,,,2924.75316, -54.94850,
,,,2929.68529, -52.54850,
,,,2934.61742, -54.94850,
,,,2939.54955, -54.94850,
,,,2944.48168, -54.94850,
,,,2949.41381, -54.94850,
,,,2954.34594, -54.94850,
,,,2959.27807, -54.94850,
,,,2964.21020, -54.94850,
,,,2969.14233, -54.94850,
,,,2974.07446, -54.94850,
,,,2979.00659, -54.94850,
,,,2983.93872, -54.94850,
,,,2988.87085, -54.94850,
,,,2993.80298, -54.94850,
,,,2998.73511, -54.94850,
,,,3003.66724, -54.94850,
,,,3008.59937, -52.54850,
,,,3013.53150, -54.94850,
,,,3018.46363, -54.94850,
,,,3023.39576, -54.94850,
,,,3028.32789, -54.94850,
,,,3033.26002, -54.94850,
,,,3038.19215, -54.94850,
,,,3043.12428, -54.94850,
,,,3048.05641, -54.94850,
,,,3052.98854, -54.94850,
,,,3057.92067, -54.94850,
,,,3062.85280, -54.94850,
,,,3067.78493, -54.94850,
,,,3072.71706, -54.94850,
,,,3077.64919, -54.94850,
,,,3082.58132, -54.94850,
,,,3087.51345, -54.94850,
,,,3092.44558, -54.94850,
,,,3097.37771, -54.94850,
,,,3102.30984, -54.94850,
,,,3107.24197, -54.94850,
,,,3112.17410, -54.94850,
,,,3117.10623, -54.94850,
,,,3122.03836, -54.94850,
,,,3126.97049, -54.94850,
,,,3131.90262, -54.94850,
,,,3136.83475, -54.94850,
,,,3141.76688, -52.54850,
,,,3146.69901, -54.94850,
,,,3151.63114, -52.54850,
,,,3156.56327, -54.94850,
,,,3161.49540, -54.94850,
,,,3166.42753, -52.54850,
,,,3171.35966, -52.54850,
,,,3176.29179, -54.94850,
,,,3181.22392, -54.94850,
,,,3186.15605, -52.54850,
,,,3191.08818, -54.94850,
,,,3196.02031, -54.94850,
,,,3200.95244, -49.34850,
,,,3205.88457, -49.34850,
,,,3210.81670, -54.94850,
,,,3215.74883, -54.94850,
,,,3220.68096, -54.94850,
,,,3225.61309, -54.94850,
,,,3230.54522, -54.94850,
,,,3235.47735, -54.94850,
,,,3240.40948, -52.54850,
,,,3245.34161, -52.54850,
,,,3250.27374, -54.94850,
,,,3255.20587, -54.94850,
,,,3260.13800, -54.94850,
,,,3265.07013, -54.94850,
,,,3270.00226, -54.94850,
,,,3274.93439, -52.54850,
,,,3279.86652, -54.94850,
,,,3284.79865, -54.94850,
,,,3289.73078, -52.54850,
,,,3294.66291, -52.54850,
,,,3299.59504, -54.94850,
,,,3304.52717, -54.94850,
,,,3309.45930, -54.94850,
,,,3314.39143, -54.94850,
,,,3319.32356, -54.94850,
,,,3324.25569, -54.94850,
,,,3329.18782, -54.94850,
,,,3334.11995, -54.94850,
,,,3339.05208, -52.54850,
,,,3343.98421, -54.94850,
,,,3348.91634, -54.94850,
,,,3353.84847, -54.94850,
,,,3358.78060, -54.94850,
,,,3363.71273, -54.94850,
,,,3368.64486, -54.94850,
,,,3373.57699, -54.94850,
,,,3378.50912, -54.94850,
,,,3383.44125, -54.94850,
,,,3388.37338, -54.94850,
,,,3393.30551, -54.94850,
,,,3398.23764, -52.54850,
,,,3403.16977, -52.54850,
,,,3408.10190, -54.94850,
,,,3413.03403, -54.94850,
,,,3417.96616, -52.54850,
,,,3422.89829, -52.54850,
,,,3427.83042, -54.94850,
,,,3432.76255, -54.94850,
,,,3437.69468, -54.94850,
,,,3442.62681, -54.94850,
,,,3447.55894, -54.94850,
,,,3452.49107, -54.94850,
,,,3457.42320, -52.54850,
,,,3462.35533, -48.54850,
,,,3467.28746, -52.54850,
,,,3472.21959, -54.94850,
,,,3477.15172, -54.94850,
,,,3482.08385, -54.94850,
,,,3487.01598, -54.94850,
,,,3491.94811, -54.94850,
,,,3496.88024, -52.54850,
,,,3501.81237, -54.94850,
,,,3506.74450, -54.94850,
,,,3511.67663, -54.94850,
,,,3516.60876, -52.54850,
,,,3521.54089, -54.94850,
,,,3526.47302, -54.94850,
,,,3531.40515, -54.94850,
,,,3536.33728, -54.94850,
,,,3541.26941, -54.94850,
,,,3546.20154, -54.94850,
,,,3551.13367, -54.94850,
,,,3556.06580, -54.94850,
,,,3560.99793, -54.94850,
,,,3565.93006, -48.54850,
,,,3570.86219, -54.94850,
,,,3575.79432, -54.94850,
,,,3580.72645, -52.54850,
,,,3585.65858, -54.94850,
,,,3590.59071, -54.94850,
,,,3595.52284, -49.34850,
,,,3600.45497, -52.54850,
,,,3605.38710, -54.94850,
,,,3610.31923, -54.94850,
,,,3615.25136, -54.94850,
,,,3620.18349, -54.94850,
,,,3625.11562, -52.54850,
,,,3630.04775, -52.54850,
,,,3634.97988, -54.94850,
,,,3639.91201, -54.94850,
,,,3644.84414, -54.94850,
,,,3649.77627, -54.94850,
,,,3654.70840, -54.94850,
,,,3659.64053, -54.94850,
,,,3664.57266, -54.94850,
,,,3669.50479, -54.94850,
,,,3674.43692, -52.54850,
,,,3679.36905, -54.94850,
,,,3684.30118, -54.94850,
,,,3689.23331, -54.94850,
,,,3694.16544, -54.94850,
,,,3699.09757, -54.94850,
,,,3704.02970, -54.94850,
,,,3708.96183, -54.94850,
,,,3713.89396, -54.94850,
,,,3718.82609, -54.94850,
,,,3723.75822, -54.94850,
,,,3728.69035, -54.94850,
,,,3733.62248, -54.94850,
,,,3738.55461, -54.94850,
