Unused_data/Old_oscilloscope/DS0051.CSV

Memory Length,4000,
Trigger Level,-4.000E-01,
Source,CH2,
Probe,1X,
Vertical Units,V,
Vertical Scale,1.000E+01,
Vertical Position,0.000E+00,
Horizontal Units,s,
Horizontal Scale,1.000E-03,
Horizontal Position,0.000E+00,
Horizontal Mode,Main,
Sampling Period,4.000E-06,
Firmware,V1.13.001,
Time, ,
Mode,Fast,
Waveform Data,
-30,
-30,
25,
25,
25,
25,
25,
25,
26,
25,
26,
25,
25,
25,
26,
25,
26,
26,
26,
26,
26,
26,
26,
25,
26,
25,
25,
26,
26,
26,
26,
26,
26,
26,
26,
26,
26,
25,
26,
26,
26,
26,
26,
26,
26,
26,
26,
26,
26,
26,
26,
26,
26,
26,
26,
26,
26,
26,
26,
26,
26,
26,
26,
26,
26,
26,
26,
26,
26,
26,
26,
26,
26,
27,
26,
26,
26,
26,
26,
26,
26,
26,
26,
26,
26,
26,
26,
26,
26,
26,
26,
26,
26,
26,
25,
26,
26,
26,
25,
26,
25,
26,
26,
26,
25,
25,
25,
26,
26,
26,
25,
25,
25,
26,
26,
25,
25,
25,
25,
25,
25,
25,
25,
25,
25,
25,
25,
25,
25,
25,
25,
25,
25,
25,
25,
24,
25,
25,
25,
24,
24,
25,
24,
24,
24,
24,
24,
25,
24,
25,
25,
24,
24,
24,
24,
24,
25,
25,
25,
24,
24,
24,
24,
25,
24,
24,
24,
25,
24,
24,
25,
24,
24,
25,
25,
24,
24,
24,
25,
24,
24,
25,
25,
25,
25,
25,
25,
24,
24,
25,
25,
25,
25,
25,
25,
24,
25,
25,
25,
25,
24,
25,
25,
26,
25,
25,
26,
25,
25,
25,
24,
25,
26,
25,
25,
25,
25,
25,
26,
25,
25,
25,
25,
25,
26,
25,
26,
25,
25,
26,
26,
25,
25,
25,
26,
25,
25,
25,
25,
25,
26,
26,
25,
26,
25,
25,
25,
26,
25,
25,
25,
26,
25,
25,
24,
26,
25,
25,
25,
25,
25,
25,
25,
25,
25,
24,
25,
24,
25,
25,
25,
25,
25,
25,
24,
25,
25,
25,
26,
25,
24,
25,
25,
25,
25,
24,
25,
24,
24,
25,
25,
24,
24,
24,
24,
24,
24,
24,
24,
24,
24,
24,
24,
24,
24,
23,
24,
24,
24,
24,
24,
25,
24,
24,
24,
24,
23,
24,
24,
24,
23,
24,
24,
23,
24,
24,
24,
24,
24,
24,
24,
24,
24,
23,
24,
23,
24,
24,
23,
24,
24,
24,
25,
24,
23,
23,
23,
24,
24,
24,
24,
24,
24,
24,
24,
24,
24,
24,
24,
24,
24,
24,
24,
24,
24,
24,
24,
24,
24,
24,
24,
24,
24,
24,
24,
24,
24,
24,
24,
24,
24,
24,
25,
24,
25,
25,
24,
24,
24,
25,
24,
24,
25,
25,
25,
24,
24,
24,
24,
24,
24,
24,
24,
25,
24,
25,
25,
24,
24,
24,
24,
24,
24,
24,
23,
22,
22,
22,
21,
19,
18,
18,
17,
15,
14,
13,
11,
10,
8,
7,
5,
3,
1,
0,
-1,
-3,
-5,
-6,
-8,
-10,
-12,
-14,
-16,
-18,
-19,
-22,
-24,
-25,
-27,
-29,
-31,
-34,
-34,
-37,
-38,
-40,
-41,
-43,
-45,
-46,
-48,
-50,
-51,
-53,
-54,
-55,
-56,
-57,
-58,
-59,
-61,
-62,
-62,
-63,
-63,
-64,
-65,
-65,
-66,
-66,
-66,
-67,
-67,
-67,
-67,
-67,
-67,
-67,
-67,
-66,
-66,
-66,
-65,
-65,
-64,
-64,
-63,
-62,
-62,
-60,
-59,
-58,
-57,
-57,
-55,
-54,
-53,
-52,
-51,
-50,
-48,
-47,
-46,
-45,
-44,
-42,
-41,
-39,
-38,
-37,
-35,
-34,
-33,
-32,
-30,
-29,
-27,
-26,
-25,
-24,
-22,
-21,
-20,
-18,
-18,
-17,
-16,
-15,
-14,
-13,
-12,
-11,
-10,
-9,
-9,
-8,
-7,
-7,
-6,
-5,
-4,
-5,
-4,
-4,
-3,
-3,
-3,
-3,
-3,
-3,
-3,
-3,
-2,
-2,
-3,
-3,
-3,
-4,
-4,
-4,
-5,
-6,
-5,
-6,
-6,
-7,
-7,
-8,
-9,
-10,
-10,
-11,
-12,
-12,
-13,
-14,
-15,
-16,
-17,
-18,
-18,
-18,
-20,
-20,
-21,
-22,
-23,
-24,
-25,
-26,
-26,
-27,
-28,
-29,
-30,
-31,
-32,
-32,
-33,
-34,
-34,
-35,
-36,
-36,
-37,
-37,
-38,
-38,
-39,
-40,
-40,
-40,
-41,
-42,
-42,
-42,
-42,
-42,
-42,
-43,
-43,
-44,
-43,
-44,
-43,
-44,
-44,
-44,
-43,
-45,
-44,
-43,
-44,
-43,
-43,
-43,
-43,
-43,
-42,
-42,
-42,
-42,
-41,
-41,
-41,
-40,
-39,
-40,
-39,
-39,
-38,
-38,
-38,
-37,
-37,
-36,
-36,
-35,
-35,
-34,
-34,
-34,
-33,
-33,
-32,
-32,
-32,
-31,
-30,
-30,
-30,
-29,
-29,
-29,
-27,
-27,
-27,
-26,
-26,
-26,
-26,
-25,
-25,
-25,
-25,
-24,
-24,
-24,
-23,
-23,
-23,
-22,
-22,
-22,
-22,
-22,
-22,
-22,
-22,
-22,
-22,
-21,
-22,
-21,
-22,
-22,
-21,
-22,
-21,
-21,
-21,
-22,
-21,
-22,
-22,
-22,
-22,
-21,
-22,
-22,
-22,
-23,
-23,
-22,
-22,
-23,
-23,
-23,
-23,
-24,
-23,
-24,
-24,
-24,
-25,
-24,
-25,
-25,
-25,
-25,
-26,
-26,
-26,
-25,
-26,
-26,
-26,
-26,
-26,
-27,
-27,
-26,
-27,
-28,
-28,
-28,
-28,
-28,
-28,
-28,
-27,
-29,
-29,
-29,
-28,
-29,
-29,
-29,
-29,
-29,
-30,
-30,
-30,
-30,
-31,
-29,
-30,
-30,
-30,
-30,
-30,
-30,
-30,
-30,
-30,
-30,
-30,
-30,
-30,
-30,
-31,
-30,
-30,
-31,
-30,
-30,
-31,
-31,
-31,
-30,
-31,
-30,
-31,
-31,
-31,
-31,
-31,
-32,
-31,
-31,
-31,
-32,
-31,
-31,
-31,
-31,
-32,
-31,
-31,
-32,
-31,
-32,
-32,
-31,
-31,
-31,
-31,
-31,
-32,
-32,
-32,
-32,
-32,
-32,
-31,
-32,
-32,
-32,
-32,
-32,
-31,
-31,
-32,
-31,
-32,
-32,
-32,
-31,
-31,
-31,
-31,
-30,
-31,
-30,
-31,
-31,
-31,
-32,
-31,
-30,
-31,
-31,
-30,
-30,
-30,
-30,
-30,
-30,
-29,
-29,
-30,
-29,
-29,
-29,
-29,
-29,
-29,
-29,
-28,
-28,
-28,
-27,
-28,
-27,
-27,
-27,
-27,
-26,
-26,
-26,
-26,
-26,
-26,
-26,
-26,
-26,
-26,
-25,
-25,
-25,
-25,
-25,
-25,
-25,
-24,
-24,
-24,
-24,
-24,
-24,
-24,
-24,
-24,
-23,
-23,
-24,
-24,
-24,
-24,
-24,
-23,
-23,
-23,
-23,
-24,
-24,
-24,
-23,
-24,
-23,
-24,
-23,
-23,
-24,
-24,
-24,
-24,
-24,
-24,
-24,
-25,
-25,
-24,
-25,
-25,
-25,
-26,
-25,
-25,
-26,
-26,
-26,
-26,
-26,
-26,
-27,
-26,
-28,
-27,
-28,
-28,
-28,
-29,
-29,
-29,
-29,
-29,
-30,
-30,
-30,
-30,
-30,
-30,
-30,
-31,
-30,
-32,
-31,
-32,
-32,
-32,
-32,
-32,
-33,
-33,
-33,
-33,
-33,
-33,
-33,
-33,
-33,
-34,
-34,
-34,
-34,
-34,
-34,
-34,
-34,
-34,
-34,
-34,
-34,
-34,
-33,
-34,
-33,
-34,
-34,
-34,
-34,
-33,
-34,
-33,
-33,
-33,
-33,
-33,
-33,
-32,
-32,
-32,
-32,
-31,
-31,
-31,
-32,
-31,
-30,
-30,
-30,
-30,
-30,
-29,
-29,
-29,
-29,
-29,
-29,
-27,
-28,
-27,
-27,
-27,
-27,
-26,
-26,
-26,
-26,
-25,
-25,
-25,
-25,
-24,
-24,
-24,
-24,
-24,
-24,
-24,
-24,
-23,
-24,
-23,
-23,
-23,
-23,
-23,
-22,
-22,
-23,
-22,
-22,
-22,
-22,
-22,
-22,
-22,
-22,
-22,
-22,
-22,
-22,
-22,
-22,
-22,
-22,
-22,
-22,
-22,
-23,
-23,
-23,
-23,
-24,
-23,
-23,
-24,
-24,
-24,
-24,
-24,
-24,
-25,
-25,
-25,
-25,
-26,
-25,
-26,
-26,
-26,
-26,
-26,
-26,
-26,
-26,
-27,
-28,
-27,
-29,
-29,
-29,
-29,
-29,
-29,
-30,
-30,
-29,
-29,
-30,
-30,
-30,
-30,
-31,
-31,
-31,
-31,
-32,
-31,
-31,
-32,
-32,
-32,
-32,
-33,
-32,
-32,
-32,
-32,
-33,
-33,
-33,
-33,
-33,
-33,
-33,
-33,
-33,
-33,
-32,
-33,
-32,
-33,
-32,
-32,
-33,
-33,
-32,
-32,
-32,
-31,
-32,
-31,
-31,
-30,
-31,
-31,
-31,
-30,
-31,
-30,
-30,
-29,
-30,
-30,
-30,
-30,
-29,
-29,
-28,
-29,
-28,
-28,
-27,
-27,
-27,
-26,
-26,
-27,
-26,
-26,
-26,
-26,
-26,
-26,
-25,
-26,
-25,
-25,
-25,
-25,
-25,
-24,
-24,
-24,
-24,
-23,
-24,
-24,
-24,
-24,
-24,
-23,
-23,
-23,
-23,
-23,
-23,
-23,
-23,
-23,
-23,
-23,
-23,
-23,
-23,
-23,
-23,
-23,
-23,
-23,
-23,
-23,
-23,
-23,
-23,
-24,
-23,
-24,
-24,
-24,
-24,
-24,
-24,
-25,
-24,
-24,
-25,
-24,
-25,
-25,
-25,
-26,
-25,
-25,
-26,
-25,
-26,
-26,
-26,
-26,
-26,
-26,
-26,
-26,
-27,
-27,
-27,
-27,
-27,
-28,
-28,
-28,
-28,
-28,
-29,
-29,
-29,
-29,
-29,
-29,
-29,
-29,
-29,
-29,
-30,
-30,
-30,
-30,
-30,
-30,
-30,
-30,
-30,
-30,
-30,
-30,
-30,
-30,
-30,
-30,
-30,
-30,
-30,
-30,
-30,
-30,
-30,
-30,
-30,
-30,
-30,
-30,
-29,
-30,
-29,
-29,
-29,
-29,
-30,
-29,
-29,
-30,
-29,
-29,
-29,
-29,
-28,
-28,
-28,
-28,
-28,
-27,
-27,
-27,
-27,
-27,
-27,
-27,
-27,
-27,
-27,
-27,
-26,
-26,
-26,
-26,
-26,
-26,
-26,
-26,
-25,
-26,
-26,
-25,
-25,
-25,
-25,
-25,
-25,
-25,
-25,
-25,
-24,
-25,
-25,
-24,
-25,
-25,
-25,
-24,
-24,
-24,
-24,
-24,
-24,
-24,
-24,
-25,
-23,
-24,
-24,
-24,
-24,
-24,
-24,
-24,
-24,
-24,
-24,
-25,
-24,
-24,
-24,
-25,
-24,
-25,
-24,
-24,
-25,
-24,
-24,
-24,
-25,
-25,
-24,
-25,
-25,
-25,
-25,
-25,
-25,
-25,
-25,
-25,
-25,
-25,
-26,
-25,
-25,
-26,
-25,
-26,
-26,
-26,
-26,
-26,
-26,
-26,
-26,
-26,
-26,
-26,
-26,
-27,
-27,
-27,
-26,
-27,
-27,
-26,
-26,
-27,
-27,
-27,
-27,
-27,
-27,
-27,
-27,
-27,
-28,
-27,
-28,
-27,
-27,
-27,
-27,
-28,
-27,
-28,
-27,
-28,
-28,
-28,
-27,
-27,
-27,
-27,
-27,
-27,
-27,
-27,
-27,
-27,
-28,
-28,
-27,
-27,
-27,
-27,
-27,
-27,
-26,
-27,
-27,
-27,
-27,
-26,
-27,
-27,
-26,
-27,
-26,
-26,
-26,
-26,
-26,
-26,
-26,
-26,
-26,
-26,
-26,
-26,
-26,
-26,
-26,
-26,
-26,
-26,
-25,
-26,
-26,
-25,
-25,
-26,
-25,
-25,
-25,
-25,
-26,
-25,
-25,
-25,
-25,
-25,
-25,
-25,
-25,
-25,
-25,
-24,
-24,
-25,
-25,
-25,
-24,
-24,
-25,
-25,
-24,
-24,
-25,
-25,
-25,
-25,
-25,
-24,
-24,
-25,
-25,
-25,
-25,
-24,
-25,
-25,
-24,
-24,
-24,
-25,
-25,
-25,
-25,
-24,
-24,
-24,
-25,
-25,
-24,
-24,
-25,
-25,
-25,
-24,
-25,
-25,
-25,
-26,
-25,
-25,
-25,
-25,
-25,
-25,
-26,
-25,
-25,
-25,
-26,
-26,
-25,
-25,
-25,
-25,
-25,
-25,
-26,
-26,
-25,
-25,
-26,
-26,
-25,
-26,
-25,
-26,
-26,
-26,
-26,
-26,
-26,
-26,
-26,
-26,
-26,
-25,
-26,
-26,
-26,
-26,
-26,
-26,
-25,
-26,
-26,
-26,
-26,
-26,
-26,
-26,
-26,
-26,
-26,
-26,
-26,
-26,
-26,
-26,
-26,
-25,
-26,
-25,
-26,
-26,
-26,
-26,
-26,
-26,
-26,
-26,
-26,
-25,
-26,
-26,
-25,
-25,
-26,
-26,
-26,
-25,
-26,
-26,
-25,
-26,
-26,
-26,
-25,
-25,
-25,
-25,
-25,
-25,
-25,
-25,
-25,
-25,
-25,
-25,
-25,
-25,
-25,
-25,
-25,
-25,
-25,
-25,
-25,
-25,
-24,
-25,
-24,
-24,
-25,
-24,
-25,
-25,
-25,
-24,
-24,
-25,
-24,
-24,
-24,
-25,
-24,
-25,
-25,
-24,
-24,
-24,
-24,
-24,
-23,
-24,
-24,
-24,
-24,
-23,
-24,
-24,
-24,
-24,
-25,
-24,
-25,
-24,
-24,
-24,
-24,
-24,
-24,
-24,
-24,
-24,
-24,
-25,
-24,
-24,
-24,
-24,
-25,
-24,
-24,
-25,
-24,
-24,
-24,
-24,
-24,
-24,
-24,
-25,
-24,
-24,
-24,
-24,
-25,
-24,
-24,
-25,
-25,
-24,
-24,
-25,
-24,
-25,
-25,
-25,
-25,
-24,
-25,
-25,
-25,
-25,
-24,
-25,
-25,
-25,
-25,
-25,
-25,
-25,
-25,
-24,
-25,
-25,
-25,
-25,
-25,
-25,
-25,
-25,
-25,
-25,
-25,
-25,
-25,
-25,
-25,
-25,
-25,
-25,
-25,
-25,
-25,
-25,
-25,
-25,
-25,
-26,
-24,
-25,
-25,
-25,
-24,
-25,
-25,
-25,
-25,
-24,
-25,
-25,
-25,
-25,
-25,
-25,
-25,
-25,
-25,
-25,
-24,
-25,
-24,
-25,
-24,
-25,
-25,
-25,
-24,
-24,
-24,
-24,
-24,
-24,
-24,
-24,
-24,
-24,
-24,
-24,
-24,
-24,
-24,
-24,
-24,
-25,
-24,
-24,
-24,
-24,
-25,
-24,
-24,
-25,
-24,
-24,
-24,
-24,
-24,
-24,
-24,
-24,
-23,
-24,
-23,
-24,
-24,
-23,
-24,
-24,
-23,
-24,
-24,
-24,
-23,
-24,
-24,
-23,
-24,
-23,
-23,
-24,
-24,
-24,
-24,
-24,
-23,
-23,
-24,
-23,
-23,
-23,
-23,
-23,
-23,
-23,
-24,
-23,
-23,
-23,
-23,
-24,
-23,
-24,
-24,
-24,
-23,
-23,
-24,
-24,
-23,
-23,
-23,
-24,
-24,
-23,
-24,
-24,
-24,
-24,
-24,
-24,
-24,
-23,
-24,
-24,
-24,
-24,
-24,
-24,
-23,
-24,
-24,
-24,
-24,
-24,
-24,
-24,
-24,
-24,
-24,
-24,
-24,
-24,
-24,
-24,
-24,
-24,
-24,
-25,
-25,
-24,
-24,
-24,
-24,
-25,
-24,
-24,
-24,
-24,
-24,
-24,
-24,
-24,
-24,
-24,
-24,
-24,
-25,
-24,
-23,
-22,
-22,
-22,
-22,
-20,
-19,
-19,
-18,
-17,
-15,
-14,
-13,
-12,
-10,
-8,
-7,
-5,
-4,
-2,
-1,
0,
2,
4,
6,
8,
9,
11,
13,
15,
17,
19,
20,
23,
24,
26,
28,
30,
32,
34,
36,
38,
40,
41,
43,
45,
46,
48,
49,
51,
52,
54,
55,
56,
57,
58,
59,
60,
62,
62,
63,
64,
64,
65,
66,
66,
66,
66,
66,
66,
67,
67,
67,
67,
66,
66,
66,
66,
66,
66,
65,
64,
63,
63,
62,
61,
61,
60,
59,
58,
57,
55,
55,
54,
52,
51,
50,
49,
47,
46,
45,
44,
43,
41,
40,
39,
37,
37,
34,
34,
32,
30,
28,
28,
26,
26,
24,
23,
21,
21,
19,
18,
17,
16,
15,
14,
13,
13,
11,
10,
10,
8,
8,
8,
7,
7,
5,
5,
6,
4,
4,
4,
3,
3,
3,
3,
2,
2,
2,
2,
3,
3,
3,
3,
3,
4,
4,
6,
5,
6,
6,
6,
7,
8,
8,
9,
10,
10,
11,
13,
12,
13,
14,
14,
15,
15,
17,
18,
18,
19,
20,
21,
22,
23,
23,
24,
26,
26,
27,
28,
28,
29,
30,
31,
31,
32,
34,
34,
35,
35,
35,
37,
38,
38,
39,
39,
40,
39,
41,
41,
41,
42,
42,
42,
42,
43,
43,
43,
44,
44,
44,
44,
44,
44,
44,
44,
44,
44,
44,
44,
44,
44,
43,
43,
43,
43,
43,
42,
41,
42,
42,
41,
41,
40,
41,
40,
39,
39,
39,
38,
38,
37,
36,
36,
35,
35,
35,
34,
34,
34,
33,
33,
31,
31,
31,
30,
30,
30,
29,
28,
29,
28,
28,
27,
27,
27,
26,
26,
26,
25,
25,
25,
25,
24,
24,
24,
23,
23,
23,
23,
22,
22,
23,
22,
22,
22,
22,
22,
22,
22,
21,
22,
22,
22,
22,
21,
22,
22,
22,
22,
22,
22,
22,
22,
22,
22,
22,
23,
23,
23,
23,
23,
23,
23,
23,
24,
24,
24,
24,
24,
24,
25,
25,
25,
24,
25,
25,
25,
26,
25,
26,
26,
26,
27,
26,
27,
27,
27,
27,
27,
27,
28,
27,
27,
28,
28,
28,
29,
29,
28,
28,
29,
29,
29,
29,
30,
30,
29,
29,
29,
29,
30,
30,
30,
29,
30,
30,
30,
30,
30,
30,
30,
30,
30,
30,
31,
30,
31,
30,
30,
30,
30,
31,
30,
30,
31,
31,
30,
31,
31,
31,
31,
31,
31,
30,
31,
31,
31,
31,
31,
31,
31,
31,
31,
31,
31,
31,
32,
32,
31,
32,
32,
32,
32,
32,
32,
31,
32,
32,
32,
31,
32,
32,
32,
31,
32,
32,
31,
31,
31,
31,
31,
31,
31,
31,
32,
31,
31,
32,
31,
31,
31,
31,
31,
30,
31,
30,
30,
30,
31,
30,
30,
30,
30,
30,
30,
30,
30,
30,
29,
29,
29,
28,
29,
28,
28,
28,
28,
28,
28,
27,
27,
27,
27,
26,
27,
26,
27,
27,
26,
26,
26,
26,
26,
26,
25,
25,
26,
25,
25,
25,
25,
25,
24,
24,
25,
24,
23,
24,
24,
24,
24,
24,
24,
24,
24,
24,
24,
23,
24,
23,
24,
23,
24,
24,
23,
23,
24,
24,
24,
24,
24,
24,
24,
25,
25,
24,
24,
25,
25,
25,
25,
25,
25,
25,
26,
26,
26,
26,
26,
26,
26,
27,
27,
27,
27,
28,
28,
28,
28,
28,
29,
29,
29,
30,
30,
30,
30,
30,
31,
30,
31,
31,
31,
32,
32,
32,
32,
32,
33,
33,
33,
32,
33,
33,
33,
33,
33,
33,
34,
34,
34,
34,
33,
34,
34,
34,
34,
34,
34,
33,
34,
33,
34,
33,
34,
34,
34,
34,
33,
33,
33,
33,
33,
33,
32,
32,
32,
32,
32,
32,
31,
31,
31,
31,
31,
30,
30,
30,
30,
30,
30,
29,
28,
29,
29,
28,
29,
28,
27,
27,
27,
26,
26,
26,
26,
26,
26,
26,
26,
26,
25,
25,
25,
24,
24,
24,
24,
24,
24,
23,
23,
23,
24,
23,
22,
23,
23,
23,
22,
23,
23,
22,
22,
23,
22,
22,
22,
22,
22,
22,
22,
22,
22,
22,
23,
23,
23,
23,
23,
23,
23,
23,
23,
23,
24,
24,
24,
24,
24,
24,
25,
25,
25,
25,
26,
26,
26,
26,
26,
26,
26,
27,
27,
27,
27,
28,
27,
28,
28,
28,
29,
29,
29,
29,
30,
30,
30,
30,
30,
30,
30,
31,
31,
31,
30,
31,
31,
32,
31,
32,
32,
32,
31,
32,
32,
33,
33,
32,
33,
32,
32,
32,
32,
33,
32,
32,
32,
32,
32,
33,
32,
31,
32,
32,
33,
32,
32,
31,
32,
31,
31,
31,
32,
31,
31,
30,
30,
30,
30,
30,
30,
30,
30,
29,
29,
29,
29,
29,
29,
28,
28,
28,
27,
27,
26,
27,
27,
26,
27,
26,
26,
26,
26,
26,
25,
25,
25,
25,
25,
25,
24,
24,
24,
24,
24,
24,
24,
24,
24,
24,
23,
24,
23,
23,
23,
23,
24,
23,
23,
23,
23,
22,
23,
23,
23,
23,
23,
23,
23,
24,
23,
23,
24,
24,
23,
24,
24,
24,
24,
23,
24,
24,
25,
24,
24,
24,
25,
25,
25,
25,
25,
25,
26,
26,
26,
26,
26,
26,
27,
26,
27,
27,
27,
27,
27,
27,
27,
27,
28,
28,
28,
28,
27,
28,
29,
29,
29,
29,
29,
29,
29,
29,
30,
30,
29,
30,
30,
30,
30,
30,
30,
30,
30,
30,
30,
30,
30,
30,
30,
30,
30,
30,
31,
30,
30,
30,
30,
30,
29,
30,
30,
30,
30,
30,
30,
29,
29,
29,
29,
29,
29,
29,
28,
29,
28,
29,
28,
28,
28,
28,
28,
28,
28,
28,
27,
27,
27,
27,
27,
27,
27,
26,
27,
27,
26,
26,
26,
27,
26,
26,
26,
26,
26,
26,
26,
25,
25,
26,
25,
25,
25,
25,
25,
25,
25,
25,
25,
25,
24,
25,
24,
24,
24,
24,
24,
24,
24,
24,
24,
24,
25,
25,
25,
24,
24,
25,
24,
24,
24,
24,
24,
25,
24,
24,
25,
25,
25,
25,
25,
25,
25,
24,
25,
25,
25,
25,
25,
25,
26,
26,
25,
25,
26,
26,
26,
26,
26,
26,
26,
26,
26,
26,
26,
26,
27,
26,
26,
26,
26,
27,
27,
26,
26,
27,
27,
28,
27,
27,
27,
27,
27,
27,
27,
27,
27,
27,
28,
27,
27,
28,
27,
27,
27,
28,
27,
27,
28,
27,
28,
27,
28,
27,
28,
28,
27,
28,
28,
27,
28,
27,
27,
27,
28,
27,
27,
27,
27,
27,
27,
27,
27,
27,
27,
27,
27,
27,
27,
27,
27,
27,
27,
26,
27,
26,
27,
26,
26,
26,
26,
26,
26,
26,
26,
26,
26,
26,
26,
26,
26,
26,
25,
26,
26,
26,
25,
26,
26,
26,
25,
25,
25,
25,
25,
25,
25,
25,
25,
25,
25,
25,
25,
25,
25,
25,
25,
25,
25,
25,
25,
25,
26,
25,
24,
25,
25,
24,
24,
24,
25,
24,
25,
24,
25,
25,
25,
25,
25,
25,
25,
25,
25,
25,
25,
25,
25,
25,
25,
26,
25,
26,
25,
25,
25,
25,
25,
25,
25,
25,
25,
25,
25,
25,
26,
25,
25,
25,
26,
25,
25,
25,
26,
25,
26,
25,
25,
26,
26,
26,
26,
26,
25,
26,
26,
26,
26,
26,
25,
26,
26,
26,
26,
26,
26,
26,
26,
26,
26,
26,
26,
26,
26,
26,
26,
26,
26,
26,
26,
26,
26,
26,
26,
26,
26,
26,
26,
26,
26,
26,
26,
26,
26,
26,
26,
26,
26,
26,
26,
26,
26,
26,
26,
26,
26,
26,
26,
26,
26,
25,
25,
26,
26,
26,
26,
26,
26,
26,
26,
26,
26,
25,
25,
26,
26,
26,
26,
25,
26,
25,
25,
26,
25,
25,
25,
25,
25,
25,
25,
25,
25,
25,
25,
25,
25,
24,
25,
25,
24,
25,
26,
25,
25,
24,
25,
24,
24,
24,
25,
25,
24,
24,
24,
24,
24,
25,
24,
25,
24,
24,
24,
24,
24,
25,
24,
24,
24,
25,
24,
24,
25,
24,
24,
25,
24,
24,
25,
24,
24,
24,
25,
24,
24,
25,
24,
25,
25,
24,
24,
24,
24,
24,
24,
24,
24,
24,
25,
24,
25,
24,
24,
25,
24,
25,
25,
24,
25,
25,
25,
25,
24,
25,
25,
25,
25,
25,
25,
25,
25,
25,
25,
25,
26,
25,
26,
25,
25,
25,
25,
26,
25,
25,
26,
26,
25,
25,
25,
25,
25,
25,
25,
25,
25,
25,
25,
25,
26,
25,
25,
25,
25,
25,
26,
25,
26,
25,
25,
25,
25,
25,
25,
25,
25,
24,
25,
26,
26,
25,
25,
25,
25,
25,
26,
25,
25,
24,
24,
25,
25,
25,
24,
25,
25,
24,
25,
25,
25,
25,
25,
24,
24,
24,
24,
24,
25,
24,
24,
24,
24,
24,
24,
24,
24,
24,
24,
24,
24,
24,
24,
24,
24,
24,
24,
24,
24,
24,
24,
24,
23,
24,
24,
24,
24,
24,
24,
24,
24,
24,
24,
23,
23,
24,
24,
23,
23,
23,
24,
24,
23,
24,
24,
24,
24,
24,
24,
24,
24,
24,
24,
24,
24,
23,
24,
24,
24,
24,
24,
24,
24,
24,
24,
24,
24,
24,
24,
24,
24,
25,
24,
24,
24,
24,
24,
24,
24,
24,
25,
24,
24,
24,
24,
24,
24,
24,
24,
24,
25,
24,
25,
24,
24,
24,
25,
24,
24,
24,
24,
25,
24,
24,
24,
24,
25,
25,
24,
25,
24,
25,
24,
25,
25,
25,
25,
24,
24,
25,
25,
24,
24,
24,
25,
24,
23,
23,
22,
22,
20,
20,
19,
18,
17,
16,
15,
13,
12,
11,
10,
8,
6,
5,
3,
2,
0,
-1,
-3,
-5,
-7,
-8,
-10,
-12,
-14,
-16,
-18,
-20,
-22,
-24,
-26,
-27,
-30,
-30,
-34,
-35,
-37,
-38,
-40,
-42,
-44,
-46,
-47,
-48,
-50,
-51,
-53,
-54,
-55,
-57,
-58,
-58,
-59,
-60,
-62,
-62,
-63,
-63,
-65,
-65,
-66,
-66,
-66,
-66,
-67,
-67,
-67,
-66,
-67,
-67,
-67,
-66,
-67,
-66,
-65,
-65,
-64,
-63,
-64,
-62,
-62,
-61,
-59,
-59,
-58,
-57,
-56,
-56,
-54,
-53,
-52,
-50,
-49,
-49,
-47,
-45,
-45,
-42,
-42,
-41,
-39,
-38,
-36,
-35,
-34,
-33,
-31,
-30,
-29,
-26,
-26,
-25,
-23,
-22,
-21,
-19,
-18,
-17,
-17,
-16,
-14,
-14,
-13,
-12,
-11,
-10,
-9,
-9,
-8,
-7,
-6,
-6,
-6,
-5,
-5,
-4,
-4,
-3,
-3,
-3,
-3,
-2,
-2,
-3,
-2,
-2,
-3,
-2,
-3,
-4,
-3,
-4,
-4,
-5,
-6,
-6,
-6,
-7,
-7,
-8,
-8,
-9,
-10,
-10,
-11,
-12,
-13,
-13,
-14,
-15,
-16,
-17,
-18,
-18,
-19,
-20,
-20,
-22,
-22,
-23,
-24,
-25,
-26,
-26,
-27,
-28,
-30,
-30,
-31,
-32,
-33,
-33,
-34,
-34,
-35,
-35,
-37,
-37,
-38,
-38,
-38,
-40,
-39,
-40,
-40,
-41,
-42,
-41,
-42,
-42,
-42,
-43,
-43,
-43,
-44,
-43,
-43,
-44,
-44,
-44,
-44,
-44,
-44,
-44,
-44,
-43,
-44,
-42,
-43,
-42,
-43,
-42,
-42,
-42,
-42,
-41,
-41,
-41,
-41,
-40,
-39,
-38,
-39,
-38,
-38,
-38,
-37,
-36,
-36,
-36,
-35,
-34,
-34,
-34,
-34,
-33,
-33,
-32,
-31,
-31,
-30,
-30,
-30,
-29,
-28,
-28,
-28,
-28,
-26,
-26,
-26,
-26,
-26,
-25,
-25,
-25,
-24,
-24,
-24,
-24,
-23,
-24,
-23,
-23,
-22,
-22,
-23,
-22,
-22,
-22,
-22,
-22,
-22,
-22,
-22,
-22,
-22,
-22,
-21,
-21,
-21,
-21,
-22,
-21,
-22,
-21,
-22,
-22,
-22,
-22,
-22,
-22,
-22,
-22,
-23,
-22,
-22,
-22,
-23,
-23,
-23,
-24,
-23,
-23,
-24,
-24,
-24,
-24,
-25,
-25,
-25,
-25,
-26,
-25,
-25,
-25,
-26,
-26,
-26,
-26,
-26,
-26,
-26,
-26,
-27,
-26,
-27,
-28,
-28,
-28,
-28,
-27,
-28,
-28,
-29,
-28,
-28,
-29,
-29,
-29,
-29,
-29,
-30,
-29,
-30,
-29,
-30,
-30,
-30,
-30,
-30,
-30,
-30,
-30,
-30,
-30,
-30,
-30,
-30,
-30,
-30,
-30,
-30,
-30,
-31,
-30,
-30,
-31,
-31,
-30,
-31,
-30,
-30,
-32,
-31,
-32,
-30,
-31,
-31,
-31,
-31,
-31,
