Unused_data/Old_oscilloscope/DS0039.CSV

Memory Length,4000,
Trigger Level,-4.000E-01,
Source,CH2,
Probe,1X,
Vertical Units,V,
Vertical Scale,1.000E+01,
Vertical Position,0.000E+00,
Horizontal Units,s,
Horizontal Scale,1.000E-03,
Horizontal Position,0.000E+00,
Horizontal Mode,Main,
Sampling Period,4.000E-06,
Firmware,V1.13.001,
Time, ,
Mode,Fast,
Waveform Data,
-32,
-32,
26,
26,
26,
26,
26,
26,
26,
26,
26,
26,
26,
26,
26,
26,
26,
26,
26,
26,
26,
26,
26,
25,
25,
25,
25,
25,
25,
25,
25,
25,
25,
25,
25,
25,
24,
24,
24,
24,
25,
25,
24,
24,
24,
24,
24,
24,
24,
24,
24,
24,
24,
24,
24,
24,
24,
24,
24,
24,
24,
24,
24,
24,
24,
23,
24,
23,
24,
24,
24,
24,
24,
24,
24,
24,
24,
24,
24,
24,
24,
24,
24,
24,
25,
25,
24,
25,
24,
25,
25,
24,
25,
24,
24,
25,
25,
25,
25,
25,
25,
25,
25,
26,
25,
25,
25,
25,
26,
26,
26,
26,
26,
26,
26,
26,
26,
26,
26,
26,
26,
26,
26,
26,
26,
26,
26,
26,
26,
26,
26,
26,
26,
26,
27,
26,
26,
26,
26,
26,
26,
26,
26,
27,
26,
26,
26,
26,
26,
26,
26,
27,
26,
26,
26,
26,
26,
27,
26,
26,
26,
26,
26,
26,
26,
26,
26,
26,
26,
26,
26,
26,
26,
26,
26,
26,
25,
26,
26,
25,
25,
26,
25,
25,
25,
25,
26,
25,
25,
25,
25,
25,
25,
25,
25,
25,
25,
24,
24,
25,
25,
24,
24,
25,
24,
24,
24,
24,
24,
24,
24,
25,
24,
23,
24,
24,
24,
24,
24,
24,
24,
24,
24,
24,
24,
24,
24,
24,
24,
24,
24,
24,
24,
24,
24,
23,
24,
24,
23,
24,
24,
24,
24,
23,
24,
23,
24,
24,
23,
24,
23,
24,
24,
24,
24,
24,
23,
23,
24,
24,
24,
24,
24,
23,
24,
24,
24,
24,
24,
24,
24,
24,
24,
24,
24,
24,
24,
25,
25,
24,
25,
24,
24,
25,
25,
24,
25,
25,
24,
25,
25,
25,
26,
25,
25,
25,
25,
25,
25,
25,
25,
24,
25,
26,
24,
24,
25,
25,
24,
25,
25,
25,
25,
25,
25,
25,
25,
25,
25,
26,
25,
25,
25,
26,
25,
25,
26,
25,
25,
25,
25,
25,
25,
25,
25,
25,
25,
25,
25,
25,
25,
25,
24,
26,
24,
25,
25,
25,
24,
25,
25,
24,
25,
25,
25,
25,
24,
24,
25,
25,
24,
24,
24,
24,
24,
24,
24,
24,
25,
24,
25,
24,
24,
24,
24,
24,
24,
24,
24,
24,
24,
24,
24,
24,
24,
24,
23,
24,
23,
23,
24,
24,
24,
23,
23,
24,
24,
24,
23,
23,
24,
23,
23,
23,
23,
23,
24,
23,
23,
23,
23,
22,
22,
22,
21,
20,
19,
18,
18,
17,
15,
14,
13,
12,
10,
9,
7,
6,
5,
3,
1,
0,
-2,
-4,
-6,
-7,
-9,
-11,
-13,
-15,
-17,
-18,
-21,
-23,
-25,
-27,
-28,
-30,
-31,
-34,
-35,
-38,
-39,
-40,
-42,
-43,
-46,
-46,
-48,
-49,
-50,
-51,
-53,
-53,
-55,
-56,
-57,
-57,
-58,
-58,
-59,
-60,
-61,
-61,
-61,
-62,
-62,
-62,
-62,
-62,
-62,
-62,
-62,
-62,
-61,
-61,
-61,
-60,
-59,
-60,
-59,
-58,
-57,
-56,
-56,
-55,
-54,
-54,
-53,
-52,
-50,
-50,
-49,
-48,
-46,
-46,
-45,
-43,
-42,
-42,
-41,
-40,
-39,
-37,
-37,
-36,
-34,
-34,
-33,
-32,
-31,
-30,
-29,
-28,
-27,
-26,
-25,
-24,
-23,
-23,
-22,
-22,
-21,
-21,
-20,
-19,
-19,
-18,
-17,
-17,
-17,
-17,
-16,
-16,
-16,
-16,
-16,
-15,
-15,
-16,
-15,
-15,
-14,
-15,
-14,
-15,
-15,
-15,
-15,
-15,
-15,
-16,
-16,
-16,
-16,
-16,
-17,
-17,
-17,
-17,
-18,
-18,
-18,
-18,
-18,
-19,
-20,
-19,
-20,
-20,
-21,
-21,
-21,
-21,
-22,
-21,
-22,
-22,
-23,
-23,
-23,
-23,
-23,
-23,
-24,
-24,
-25,
-24,
-25,
-25,
-25,
-25,
-25,
-25,
-26,
-26,
-26,
-26,
-26,
-25,
-26,
-26,
-26,
-26,
-26,
-26,
-26,
-26,
-26,
-26,
-26,
-26,
-26,
-26,
-26,
-26,
-26,
-26,
-26,
-26,
-26,
-26,
-26,
-27,
-26,
-27,
-27,
-27,
-27,
-27,
-27,
-28,
-27,
-28,
-28,
-27,
-29,
-29,
-29,
-29,
-29,
-29,
-30,
-30,
-30,
-30,
-31,
-31,
-31,
-31,
-32,
-32,
-33,
-33,
-34,
-34,
-34,
-34,
-34,
-35,
-35,
-35,
-36,
-36,
-36,
-37,
-37,
-37,
-37,
-38,
-37,
-38,
-38,
-38,
-38,
-39,
-39,
-39,
-40,
-40,
-39,
-40,
-40,
-40,
-40,
-40,
-40,
-40,
-40,
-40,
-40,
-41,
-40,
-40,
-40,
-39,
-40,
-39,
-40,
-39,
-39,
-38,
-38,
-38,
-37,
-37,
-37,
-37,
-37,
-36,
-35,
-35,
-34,
-34,
-34,
-33,
-33,
-33,
-32,
-31,
-31,
-30,
-30,
-29,
-29,
-28,
-27,
-27,
-26,
-26,
-26,
-25,
-24,
-23,
-24,
-23,
-22,
-22,
-21,
-21,
-20,
-20,
-20,
-19,
-18,
-18,
-18,
-17,
-17,
-17,
-17,
-16,
-16,
-16,
-15,
-16,
-16,
-14,
-15,
-15,
-15,
-14,
-15,
-14,
-15,
-14,
-14,
-14,
-14,
-14,
-14,
-15,
-15,
-15,
-16,
-16,
-16,
-16,
-17,
-17,
-18,
-18,
-18,
-18,
-19,
-19,
-19,
-20,
-21,
-21,
-22,
-22,
-23,
-23,
-24,
-25,
-25,
-25,
-26,
-26,
-27,
-27,
-28,
-29,
-29,
-30,
-30,
-31,
-32,
-32,
-32,
-34,
-34,
-34,
-34,
-36,
-36,
-36,
-36,
-37,
-37,
-38,
-38,
-38,
-38,
-39,
-39,
-39,
-39,
-40,
-40,
-40,
-41,
-41,
-41,
-41,
-42,
-41,
-41,
-41,
-41,
-41,
-41,
-41,
-41,
-41,
-41,
-40,
-41,
-41,
-40,
-39,
-40,
-39,
-39,
-39,
-39,
-38,
-38,
-38,
-38,
-38,
-37,
-37,
-36,
-36,
-35,
-35,
-34,
-34,
-34,
-33,
-33,
-33,
-32,
-32,
-32,
-31,
-30,
-30,
-30,
-29,
-29,
-29,
-27,
-27,
-27,
-26,
-26,
-26,
-25,
-25,
-25,
-25,
-24,
-24,
-23,
-24,
-23,
-23,
-22,
-22,
-22,
-22,
-22,
-21,
-21,
-22,
-21,
-21,
-20,
-20,
-21,
-21,
-20,
-20,
-20,
-20,
-20,
-20,
-20,
-19,
-20,
-20,
-21,
-20,
-20,
-20,
-20,
-20,
-21,
-21,
-21,
-21,
-21,
-21,
-21,
-22,
-21,
-22,
-22,
-22,
-22,
-22,
-23,
-23,
-23,
-23,
-23,
-24,
-24,
-25,
-25,
-25,
-25,
-25,
-25,
-26,
-26,
-26,
-26,
-26,
-27,
-26,
-27,
-28,
-27,
-29,
-29,
-29,
-28,
-30,
-30,
-29,
-29,
-30,
-30,
-30,
-30,
-30,
-31,
-30,
-31,
-32,
-31,
-32,
-32,
-32,
-32,
-32,
-32,
-32,
-32,
-32,
-32,
-32,
-33,
-33,
-32,
-32,
-33,
-33,
-33,
-33,
-33,
-34,
-33,
-33,
-33,
-33,
-34,
-33,
-33,
-33,
-33,
-33,
-33,
-32,
-33,
-33,
-33,
-33,
-33,
-33,
-33,
-32,
-33,
-33,
-32,
-32,
-33,
-32,
-33,
-32,
-32,
-32,
-32,
-32,
-32,
-32,
-31,
-31,
-32,
-31,
-31,
-31,
-30,
-31,
-30,
-30,
-30,
-30,
-30,
-30,
-30,
-29,
-29,
-29,
-29,
-29,
-29,
-28,
-29,
-29,
-28,
-28,
-29,
-27,
-28,
-27,
-27,
-27,
-27,
-27,
-26,
-26,
-27,
-26,
-26,
-26,
-26,
-26,
-26,
-25,
-26,
-26,
-25,
-26,
-25,
-25,
-24,
-25,
-25,
-25,
-25,
-25,
-24,
-25,
-24,
-24,
-24,
-24,
-24,
-24,
-24,
-24,
-24,
-24,
-24,
-24,
-23,
-24,
-23,
-24,
-24,
-24,
-24,
-23,
-24,
-23,
-23,
-23,
-24,
-24,
-23,
-24,
-24,
-24,
-24,
-23,
-24,
-24,
-24,
-24,
-24,
-24,
-25,
-25,
-25,
-25,
-25,
-25,
-25,
-25,
-26,
-26,
-26,
-26,
-26,
-26,
-26,
-26,
-26,
-26,
-27,
-27,
-27,
-27,
-28,
-28,
-28,
-28,
-28,
-29,
-29,
-29,
-29,
-29,
-29,
-29,
-29,
-29,
-30,
-29,
-30,
-30,
-30,
-31,
-30,
-31,
-31,
-31,
-31,
-30,
-31,
-31,
-31,
-32,
-31,
-32,
-32,
-31,
-32,
-32,
-32,
-33,
-33,
-32,
-32,
-32,
-32,
-32,
-32,
-31,
-32,
-31,
-32,
-31,
-32,
-31,
-31,
-32,
-31,
-32,
-31,
-31,
-31,
-31,
-32,
-31,
-31,
-31,
-31,
-30,
-31,
-31,
-30,
-30,
-30,
-29,
-30,
-29,
-29,
-29,
-29,
-29,
-29,
-27,
-28,
-28,
-27,
-27,
-27,
-27,
-27,
-27,
-27,
-27,
-26,
-26,
-26,
-26,
-26,
-26,
-26,
-25,
-25,
-25,
-25,
-25,
-25,
-25,
-25,
-25,
-24,
-24,
-25,
-24,
-24,
-24,
-24,
-24,
-23,
-24,
-23,
-23,
-24,
-23,
-24,
-24,
-24,
-23,
-23,
-23,
-23,
-23,
-23,
-23,
-23,
-24,
-23,
-23,
-24,
-24,
-23,
-24,
-24,
-23,
-24,
-24,
-23,
-24,
-24,
-24,
-24,
-25,
-24,
-24,
-24,
-24,
-25,
-25,
-25,
-25,
-25,
-25,
-25,
-25,
-26,
-26,
-26,
-26,
-26,
-26,
-26,
-26,
-26,
-27,
-27,
-26,
-26,
-27,
-27,
-28,
-27,
-27,
-27,
-28,
-27,
-28,
-29,
-27,
-28,
-28,
-28,
-29,
-29,
-29,
-29,
-29,
-29,
-29,
-29,
-29,
-29,
-29,
-29,
-30,
-29,
-30,
-29,
-29,
-30,
-30,
-30,
-30,
-29,
-29,
-29,
-29,
-30,
-29,
-30,
-30,
-29,
-29,
-30,
-30,
-29,
-29,
-30,
-30,
-29,
-29,
-29,
-29,
-30,
-30,
-29,
-29,
-29,
-29,
-29,
-29,
-28,
-28,
-28,
-28,
-28,
-28,
-27,
-28,
-27,
-27,
-27,
-27,
-27,
-27,
-27,
-27,
-27,
-27,
-26,
-27,
-26,
-26,
-26,
-26,
-26,
-26,
-26,
-26,
-26,
-26,
-25,
-26,
-26,
-25,
-26,
-26,
-25,
-25,
-26,
-25,
-25,
-25,
-25,
-25,
-25,
-25,
-25,
-24,
-25,
-24,
-24,
-24,
-24,
-25,
-24,
-24,
-25,
-25,
-25,
-24,
-25,
-24,
-24,
-24,
-24,
-24,
-24,
-24,
-24,
-24,
-24,
-24,
-24,
-24,
-25,
-24,
-24,
-25,
-25,
-24,
-24,
-24,
-24,
-24,
-24,
-25,
-24,
-25,
-24,
-24,
-24,
-25,
-25,
-24,
-25,
-25,
-25,
-25,
-25,
-25,
-25,
-25,
-25,
-25,
-25,
-26,
-25,
-26,
-26,
-26,
-26,
-26,
-26,
-26,
-26,
-26,
-26,
-26,
-26,
-26,
-26,
-26,
-26,
-26,
-26,
-27,
-27,
-26,
-27,
-26,
-26,
-27,
-26,
-26,
-27,
-27,
-27,
-27,
-27,
-27,
-27,
-27,
-27,
-27,
-27,
-27,
-26,
-28,
-27,
-28,
-27,
-27,
-27,
-27,
-27,
-27,
-27,
-27,
-27,
-28,
-27,
-27,
-27,
-26,
-27,
-27,
-27,
-27,
-26,
-26,
-27,
-27,
-27,
-27,
-27,
-27,
-27,
-27,
-27,
-27,
-26,
-27,
-26,
-26,
-27,
-26,
-26,
-26,
-26,
-26,
-26,
-26,
-26,
-26,
-26,
-26,
-26,
-26,
-26,
-26,
-26,
-26,
-26,
-26,
-26,
-25,
-25,
-25,
-25,
-25,
-25,
-25,
-26,
-25,
-25,
-25,
-25,
-25,
-24,
-24,
-25,
-25,
-24,
-25,
-24,
-25,
-25,
-24,
-25,
-24,
-25,
-24,
-24,
-24,
-24,
-24,
-24,
-24,
-24,
-24,
-24,
-24,
-24,
-24,
-24,
-24,
-24,
-24,
-24,
-24,
-24,
-24,
-23,
-24,
-24,
-24,
-24,
-24,
-24,
-24,
-24,
-24,
-25,
-24,
-24,
-25,
-24,
-24,
-24,
-24,
-24,
-24,
-24,
-25,
-24,
-25,
-24,
-24,
-25,
-24,
-25,
-25,
-25,
-25,
-24,
-25,
-25,
-25,
-25,
-25,
-25,
-25,
-25,
-25,
-25,
-25,
-25,
-25,
-25,
-25,
-26,
-25,
-26,
-26,
-26,
-26,
-26,
-25,
-26,
-25,
-26,
-26,
-26,
-26,
-26,
-26,
-26,
-26,
-26,
-26,
-26,
-26,
-26,
-26,
-26,
-26,
-26,
-26,
-26,
-26,
-26,
-26,
-26,
-26,
-26,
-26,
-26,
-26,
-26,
-26,
-26,
-26,
-26,
-26,
-26,
-26,
-26,
-26,
-26,
-26,
-26,
-26,
-26,
-26,
-25,
-26,
-26,
-25,
-26,
-26,
-25,
-26,
-25,
-25,
-25,
-25,
-25,
-25,
-25,
-25,
-25,
-25,
-25,
-25,
-24,
-25,
-25,
-25,
-25,
-25,
-24,
-24,
-25,
-24,
-25,
-25,
-24,
-24,
-24,
-24,
-24,
-24,
-24,
-24,
-24,
-25,
-24,
-24,
-24,
-24,
-24,
-23,
-24,
-23,
-23,
-24,
-24,
-24,
-24,
-24,
-23,
-24,
-24,
-24,
-24,
-24,
-24,
-23,
-23,
-23,
-24,
-23,
-23,
-23,
-24,
-23,
-23,
-23,
-23,
-23,
-24,
-23,
-23,
-24,
-24,
-24,
-24,
-24,
-24,
-23,
-23,
-23,
-24,
-23,
-24,
-24,
-24,
-24,
-24,
-24,
-24,
-23,
-24,
-24,
-24,
-24,
-24,
-24,
-24,
-24,
-24,
-24,
-24,
-24,
-24,
-24,
-24,
-24,
-24,
-24,
-25,
-24,
-25,
-24,
-24,
-24,
-25,
-25,
-24,
-24,
-25,
-24,
-24,
-25,
-25,
-25,
-24,
-24,
-25,
-24,
-24,
-25,
-25,
-25,
-25,
-25,
-25,
-25,
-25,
-25,
-25,
-24,
-24,
-25,
-25,
-24,
-25,
-25,
-25,
-24,
-25,
-25,
-25,
-25,
-25,
-25,
-25,
-25,
-24,
-25,
-25,
-25,
-24,
-25,
-25,
-25,
-25,
-25,
-25,
-24,
-25,
-24,
-25,
-24,
-25,
-24,
-24,
-25,
-24,
-24,
-25,
-25,
-25,
-24,
-24,
-24,
-24,
-24,
-24,
-24,
-24,
-24,
-24,
-25,
-23,
-24,
-23,
-24,
-24,
-24,
-23,
-24,
-24,
-24,
-23,
-24,
-24,
-24,
-24,
-23,
-23,
-23,
-23,
-23,
-23,
-24,
-24,
-24,
-23,
-23,
-23,
-23,
-23,
-23,
-24,
-24,
-23,
-23,
-23,
-23,
-23,
-23,
-23,
-23,
-23,
-23,
-23,
-22,
-23,
-22,
-22,
-21,
-20,
-19,
-19,
-18,
-17,
-16,
-14,
-13,
-12,
-10,
-9,
-7,
-6,
-4,
-2,
-1,
1,
2,
4,
6,
7,
10,
11,
13,
15,
17,
19,
21,
22,
24,
26,
28,
30,
31,
33,
35,
37,
38,
41,
42,
43,
44,
46,
48,
48,
50,
51,
52,
54,
55,
55,
57,
57,
58,
59,
59,
60,
61,
61,
62,
62,
62,
62,
62,
62,
62,
62,
62,
62,
61,
61,
61,
60,
60,
59,
59,
58,
58,
57,
56,
56,
55,
54,
53,
52,
51,
50,
50,
48,
47,
46,
45,
44,
43,
42,
41,
40,
39,
38,
38,
35,
35,
34,
33,
31,
31,
30,
30,
29,
27,
27,
26,
25,
24,
23,
22,
22,
21,
20,
20,
19,
19,
18,
18,
18,
17,
17,
16,
17,
16,
15,
15,
15,
15,
14,
15,
15,
14,
15,
14,
15,
15,
15,
15,
15,
16,
15,
16,
15,
16,
16,
16,
16,
17,
17,
18,
18,
18,
18,
18,
19,
19,
19,
20,
21,
21,
20,
21,
21,
21,
22,
22,
22,
23,
23,
23,
23,
23,
24,
24,
24,
25,
25,
25,
25,
25,
25,
25,
26,
25,
26,
26,
26,
26,
26,
26,
26,
26,
26,
26,
26,
26,
26,
26,
26,
26,
26,
26,
26,
27,
27,
26,
26,
26,
26,
26,
26,
27,
27,
27,
26,
27,
26,
27,
27,
27,
27,
28,
27,
29,
28,
28,
28,
29,
29,
29,
29,
30,
30,
30,
30,
30,
30,
30,
32,
31,
32,
32,
33,
33,
33,
33,
34,
34,
34,
35,
34,
36,
35,
36,
36,
37,
37,
37,
37,
38,
38,
38,
39,
38,
39,
39,
39,
40,
40,
40,
39,
40,
39,
40,
40,
41,
40,
40,
40,
40,
40,
40,
40,
40,
40,
39,
40,
39,
39,
39,
38,
38,
38,
38,
38,
37,
36,
37,
36,
35,
34,
35,
34,
34,
33,
33,
33,
32,
31,
30,
30,
30,
30,
28,
28,
27,
27,
26,
26,
26,
24,
25,
24,
23,
23,
22,
22,
21,
21,
20,
20,
19,
19,
19,
18,
18,
18,
18,
17,
16,
16,
16,
15,
15,
15,
15,
14,
15,
15,
15,
15,
14,
14,
15,
15,
14,
15,
15,
14,
14,
15,
15,
15,
16,
16,
16,
16,
17,
18,
17,
18,
18,
19,
18,
19,
19,
20,
21,
21,
21,
22,
23,
23,
23,
24,
25,
25,
26,
26,
27,
28,
28,
28,
29,
30,
30,
31,
31,
31,
33,
32,
34,
34,
34,
35,
35,
35,
37,
37,
37,
38,
38,
38,
39,
39,
39,
39,
40,
40,
40,
40,
40,
40,
41,
41,
42,
41,
41,
42,
41,
41,
41,
41,
41,
41,
41,
41,
40,
41,
40,
40,
40,
39,
39,
39,
39,
39,
38,
38,
38,
37,
37,
37,
37,
36,
35,
35,
34,
34,
34,
33,
33,
32,
32,
32,
31,
30,
31,
30,
30,
29,
29,
28,
27,
27,
27,
26,
26,
26,
26,
26,
25,
25,
25,
24,
24,
24,
23,
23,
23,
22,
22,
22,
22,
21,
21,
21,
20,
21,
21,
21,
20,
20,
20,
21,
19,
20,
20,
20,
19,
19,
20,
20,
20,
20,
20,
20,
20,
21,
20,
20,
21,
21,
21,
21,
22,
21,
22,
22,
22,
22,
22,
22,
23,
23,
23,
23,
23,
24,
24,
24,
25,
25,
25,
26,
26,
26,
26,
26,
26,
27,
27,
27,
27,
28,
28,
28,
28,
28,
29,
28,
29,
29,
30,
29,
30,
30,
30,
31,
31,
31,
30,
31,
31,
31,
32,
32,
32,
31,
32,
32,
31,
32,
32,
33,
32,
33,
33,
32,
33,
32,
33,
33,
33,
33,
32,
33,
33,
33,
33,
33,
34,
33,
33,
33,
33,
33,
33,
32,
33,
33,
33,
33,
32,
33,
32,
32,
32,
33,
32,
32,
32,
31,
31,
32,
32,
32,
31,
31,
31,
31,
31,
31,
31,
30,
31,
31,
30,
30,
30,
30,
30,
30,
30,
29,
30,
29,
29,
29,
29,
29,
28,
28,
29,
28,
28,
28,
28,
28,
28,
27,
27,
27,
26,
27,
27,
27,
27,
26,
26,
26,
25,
26,
26,
26,
26,
25,
25,
25,
25,
25,
25,
25,
24,
25,
25,
24,
25,
24,
24,
24,
24,
24,
24,
24,
24,
24,
23,
24,
24,
23,
23,
24,
23,
23,
24,
23,
24,
24,
24,
24,
24,
23,
23,
23,
24,
24,
24,
24,
25,
24,
24,
24,
24,
25,
24,
25,
25,
25,
24,
25,
26,
25,
26,
26,
26,
26,
26,
26,
26,
26,
26,
27,
28,
27,
27,
27,
27,
27,
28,
28,
28,
28,
28,
28,
29,
29,
29,
29,
29,
30,
30,
30,
30,
30,
30,
30,
30,
30,
30,
31,
30,
31,
31,
31,
31,
31,
31,
32,
31,
32,
32,
31,
33,
31,
31,
31,
31,
32,
32,
31,
32,
31,
32,
31,
31,
32,
32,
31,
31,
32,
31,
31,
31,
31,
32,
31,
31,
31,
30,
30,
30,
30,
30,
30,
30,
30,
29,
29,
30,
29,
29,
29,
29,
28,
29,
28,
28,
28,
28,
27,
27,
27,
27,
27,
27,
27,
26,
26,
26,
26,
26,
26,
26,
26,
25,
26,
26,
25,
24,
25,
25,
25,
25,
25,
24,
24,
24,
24,
24,
24,
24,
24,
24,
24,
23,
23,
23,
23,
23,
24,
23,
24,
23,
24,
24,
23,
24,
24,
23,
23,
23,
24,
24,
23,
24,
23,
24,
24,
24,
24,
24,
24,
24,
24,
24,
24,
25,
25,
25,
25,
25,
25,
25,
26,
25,
26,
26,
26,
26,
26,
26,
26,
26,
26,
26,
27,
27,
27,
27,
27,
27,
27,
27,
27,
28,
29,
28,
28,
28,
28,
28,
29,
28,
29,
29,
29,
28,
29,
29,
28,
28,
30,
30,
29,
29,
30,
29,
29,
29,
29,
29,
29,
30,
30,
29,
30,
30,
29,
29,
29,
30,
29,
30,
29,
30,
29,
29,
29,
29,
29,
29,
30,
28,
29,
29,
29,
29,
29,
28,
29,
29,
28,
29,
28,
28,
28,
28,
28,
28,
28,
28,
28,
27,
27,
27,
27,
27,
27,
27,
27,
27,
27,
26,
26,
26,
26,
26,
26,
26,
26,
26,
26,
26,
26,
26,
25,
26,
26,
25,
26,
26,
25,
25,
25,
25,
26,
25,
25,
25,
25,
25,
25,
24,
25,
24,
25,
24,
24,
25,
24,
25,
24,
24,
24,
24,
24,
25,
24,
24,
24,
24,
25,
24,
25,
24,
24,
24,
25,
24,
24,
25,
25,
25,
25,
25,
25,
24,
25,
25,
24,
25,
25,
25,
25,
25,
25,
25,
25,
25,
25,
26,
26,
25,
26,
25,
26,
26,
26,
26,
26,
26,
26,
26,
26,
26,
26,
26,
26,
26,
26,
26,
26,
26,
26,
27,
26,
26,
27,
26,
27,
27,
27,
27,
27,
27,
27,
27,
27,
27,
27,
27,
27,
27,
27,
27,
27,
27,
28,
27,
27,
28,
28,
27,
27,
28,
27,
27,
27,
27,
27,
27,
28,
27,
27,
27,
28,
27,
28,
27,
27,
27,
27,
27,
27,
27,
27,
27,
27,
28,
27,
27,
27,
27,
27,
27,
27,
26,
26,
27,
27,
26,
27,
26,
26,
27,
26,
26,
26,
26,
26,
26,
26,
26,
26,
26,
26,
26,
25,
26,
26,
26,
26,
25,
25,
26,
25,
26,
25,
25,
25,
25,
25,
25,
25,
24,
24,
24,
25,
25,
24,
25,
24,
25,
24,
24,
24,
24,
24,
24,
24,
24,
24,
24,
24,
24,
24,
24,
24,
24,
24,
23,
24,
23,
24,
24,
24,
24,
24,
24,
24,
24,
24,
23,
24,
24,
24,
24,
25,
24,
24,
24,
24,
25,
25,
25,
24,
24,
25,
25,
25,
25,
24,
24,
25,
25,
25,
25,
25,
25,
25,
25,
26,
25,
25,
25,
25,
26,
26,
25,
26,
26,
25,
26,
26,
26,
26,
26,
26,
26,
26,
26,
26,
26,
26,
26,
26,
26,
26,
26,
26,
26,
26,
26,
26,
26,
26,
26,
26,
26,
26,
26,
26,
26,
26,
26,
26,
26,
26,
26,
26,
26,
26,
26,
26,
26,
26,
26,
26,
26,
26,
26,
26,
26,
26,
26,
26,
26,
26,
25,
26,
26,
25,
26,
26,
25,
25,
25,
26,
25,
26,
25,
25,
26,
25,
25,
25,
25,
25,
25,
25,
25,
25,
25,
24,
25,
25,
24,
25,
25,
24,
24,
24,
24,
25,
24,
24,
25,
24,
24,
24,
24,
24,
24,
24,
24,
24,
23,
23,
24,
24,
24,
24,
24,
24,
23,
23,
23,
24,
24,
24,
24,
24,
23,
24,
24,
24,
23,
24,
23,
23,
24,
24,
24,
24,
24,
23,
24,
24,
24,
24,
24,
24,
24,
23,
24,
24,
24,
24,
24,
24,
24,
24,
24,
25,
24,
23,
24,
24,
24,
23,
24,
24,
25,
24,
25,
24,
24,
24,
25,
24,
25,
25,
25,
24,
25,
24,
25,
25,
24,
25,
25,
24,
25,
25,
25,
25,
24,
25,
25,
25,
25,
25,
25,
25,
25,
25,
25,
25,
25,
25,
26,
25,
25,
25,
25,
25,
25,
25,
25,
25,
25,
26,
25,
25,
26,
25,
25,
25,
24,
25,
25,
26,
24,
25,
25,
25,
25,
24,
24,
25,
25,
25,
25,
24,
25,
25,
24,
24,
24,
25,
24,
25,
24,
24,
24,
25,
25,
25,
24,
24,
24,
24,
24,
24,
24,
24,
24,
24,
25,
24,
24,
24,
24,
24,
24,
24,
24,
24,
23,
24,
23,
24,
23,
23,
24,
23,
23,
23,
24,
24,
23,
23,
23,
24,
24,
24,
24,
23,
24,
24,
24,
24,
23,
24,
23,
23,
24,
23,
23,
23,
22,
22,
22,
21,
20,
19,
18,
17,
16,
15,
14,
12,
12,
10,
8,
7,
6,
4,
2,
1,
-1,
-2,
-4,
-6,
-8,
-10,
-11,
-14,
-15,
-17,
-19,
-21,
-23,
-25,
-26,
-28,
-30,
-33,
-34,
-35,
-37,
-39,
-41,
-42,
-43,
-45,
-46,
-48,
-49,
-50,
-52,
-53,
-53,
-54,
-56,
-56,
-58,
-58,
-58,
-60,
-61,
-60,
-61,
-62,
-62,
-62,
-62,
-62,
-62,
-62,
-62,
-62,
-62,
-61,
-61,
-61,
-60,
-59,
-59,
-58,
-58,
-58,
-56,
-56,
-55,
-55,
-53,
-53,
-52,
-50,
-50,
-49,
-48,
-47,
-46,
-45,
-43,
-42,
-41,
-41,
-40,
-38,
-38,
-36,
-35,
-35,
-34,
-32,
-32,
-30,
-29,
-29,
-28,
-27,
-26,
-25,
-25,
-23,
-23,
-22,
-22,
-21,
-20,
-20,
-19,
-18,
-18,
-18,
-17,
-17,
-17,
-16,
-16,
-16,
-15,
-15,
-15,
-15,
-15,
-15,
-15,
-15,
-14,
-14,
-15,
-15,
-15,
-15,
-16,
-16,
-15,
-15,
-16,
-16,
-16,
-17,
-17,
-17,
-17,
-18,
-18,
-18,
-18,
-18,
-19,
-19,
-20,
-20,
-20,
-20,
-21,
-21,
-22,
-21,
-21,
-22,
-22,
-23,
-23,
-23,
-23,
-23,
-24,
-24,
-24,
-24,
-24,
-24,
-25,
-25,
-25,
-25,
-26,
-25,
-25,
-26,
-26,
-26,
-26,
-26,
-25,
-26,
-25,
-26,
-26,
-26,
-26,
-26,
-26,
-26,
-26,
-26,
-26,
-26,
-26,
-26,
-26,
-26,
-26,
-26,
-27,
-26,
-26,
-26,
-27,
-26,
-27,
-26,
-27,
-27,
-27,
-28,
-27,
-28,
-29,
-28,
-29,
-29,
-29,
-29,
-30,
-29,
-30,
-30,
-30,
-31,
-31,
-31,
-32,
-32,
-32,
-33,
-32,
-33,
-34,
-34,
-34,
-34,
-34,
-35,
-35,
-35,
-36,
-36,
-36,
-37,
-37,
-36,
-38,
-38,
-38,
-38,
-38,
-38,
-38,
-39,
-39,
-39,
-39,
-39,
-39,
-40,
-40,
-40,
-40,
-40,
-40,
-40,
-40,
-40,
-40,
-40,
-40,
-39,
-40,
-39,
-39,
-39,
-39,
-38,
-39,
-38,
-38,
-38,
-37,
-37,
-36,
-36,
-35,
-35,
-35,
-34,
-34,
-33,
-33,
-32,
-32,
-32,
-31,
-30,
-30,
-29,
-29,
-28,
-27,
-27,
-26,
-26,
-26,
-25,
-24,
-24,
-24,
-23,
-23,
-22,
-21,
-21,
-21,
-20,
-19,
-19,
-18,
-18,
-18,
-17,
-17,
-18,
-17,
-16,
-16,
-16,
-16,
-15,
-15,
-15,
-14,
-14,
-14,
-14,
-14,
-14,
-14,
-14,
-14,
-14,
-14,
-14,
-14,
-15,
-15,
-14,
-15,
-15,
-16,
-16,
-16,
-17,
-17,
-17,
-18,
-18,
-18,
-19,
-19,
-19,
-19,
-20,
-21,
-21,
-22,
-23,
-23,
-23,
-24,
-25,
-25,
-26,
-26,
-27,
-27,
-27,
-28,
-29,
-30,
-30,
-30,
