RLCC_FFT_C2/ALL0011/F0011FFT.CSV

Record Length,1.024000e+03,,          0.00000, -38.54850,
Sample Interval,4.932134e+00,,          4.93213,  -4.14850,
Trigger Point,-0.000000000000e+00,,          9.86427,   1.05150,
,,,         14.79640,   1.05150,
,,,         19.72854,   0.25150,
,,,         24.66067,  -7.74850,
Source,FFT,,         29.59280, -32.14850,
Vertical Units,dB,,         34.52494, -10.94850,
Vertical Scale,1.000000e+01,,         39.45707,  -8.54850,
Vertical Offset,0.000000e+00,,         44.38920,  -8.54850,
Horizontal Units,Hz,,         49.32134, -10.54850,
Horizontal Scale,5.050505e+02,,         54.25347, -24.94850,
Pt Fmt,Y,,         59.18561, -27.34850,
Yzero,-1.494850e+01,,         64.11774, -13.74850,
Probe Atten,1.000000e+00,,         69.04987, -12.54850,
Model Number,TBS1052B-EDU,,         73.98201, -12.54850,
Serial Number,C027597,,         78.91414, -16.54850,
Firmware Version,FV:v4.06,,         83.84628, -34.54850,
,,,88.77841, -23.34850,
,,,93.71054, -16.14850,
,,,98.64267, -15.74850,
,,,103.57480, -15.74850,
,,,108.50693, -22.54850,
,,,113.43906, -42.54850,
,,,118.37119, -22.14850,
,,,123.30332, -17.74850,
,,,128.23545, -17.74850,
,,,133.16758, -18.54850,
,,,138.09971, -28.54850,
,,,143.03184, -35.34850,
,,,147.96397, -21.34850,
,,,152.89610, -19.34850,
,,,157.82823, -19.34850,
,,,162.76036, -22.14850,
,,,167.69249, -37.74850,
,,,172.62462, -30.94850,
,,,177.55675, -21.34850,
,,,182.48888, -20.14850,
,,,187.42101, -20.54850,
,,,192.35314, -25.34850,
,,,197.28527, -42.94850,
,,,202.21740, -28.14850,
,,,207.14953, -22.14850,
,,,212.08166, -21.74850,
,,,217.01379, -22.14850,
,,,221.94592, -29.74850,
,,,226.87805, -43.34850,
,,,231.81018, -26.14850,
,,,236.74231, -22.94850,
,,,241.67444, -22.94850,
,,,246.60657, -24.14850,
,,,251.53870, -36.94850,
,,,256.47083, -39.74850,
,,,261.40296, -25.34850,
,,,266.33509, -23.34850,
,,,271.26722, -23.34850,
,,,276.19935, -26.54850,
,,,281.13148, -43.34850,
,,,286.06361, -32.94850,
,,,290.99574, -24.94850,
,,,295.92787, -24.14850,
,,,300.86000, -24.14850,
,,,305.79213, -29.74850,
,,,310.72426, -45.74850,
,,,315.65639, -30.14850,
,,,320.58852, -24.94850,
,,,325.52065, -24.94850,
,,,330.45278, -25.34850,
,,,335.38491, -35.34850,
,,,340.31704, -42.54850,
,,,345.24917, -28.14850,
,,,350.18130, -25.74850,
,,,355.11343, -25.34850,
,,,360.04556, -27.74850,
,,,364.97769, -40.94850,
,,,369.90982, -37.34850,
,,,374.84195, -26.94850,
,,,379.77408, -25.74850,
,,,384.70621, -25.74850,
,,,389.63834, -29.74850,
,,,394.57047, -46.54850,
,,,399.50260, -32.54850,
,,,404.43473, -26.14850,
,,,409.36686, -26.14850,
,,,414.29899, -26.14850,
,,,419.23112, -32.54850,
,,,424.16325, -46.54850,
,,,429.09538, -30.14850,
,,,434.02751, -26.14850,
,,,438.95964, -26.14850,
,,,443.89177, -27.34850,
,,,448.82390, -37.74850,
,,,453.75603, -41.34850,
,,,458.68816, -28.94850,
,,,463.62029, -26.54850,
,,,468.55242, -26.14850,
,,,473.48455, -28.94850,
,,,478.41668, -41.34850,
,,,483.34881, -36.14850,
,,,488.28094, -27.34850,
,,,493.21307, -26.54850,
,,,498.14520, -26.94850,
,,,503.07733, -31.74850,
,,,508.00946, -45.74850,
,,,512.94159, -32.54850,
,,,517.87372, -26.54850,
,,,522.80585, -26.54850,
,,,527.73798, -27.34850,
,,,532.67011, -34.94850,
,,,537.60224, -45.34850,
,,,542.53437, -29.74850,
,,,547.46650, -26.94850,
,,,552.39863, -26.94850,
,,,557.33076, -28.94850,
,,,562.26289, -42.94850,
,,,567.19502, -41.34850,
,,,572.12715, -28.54850,
,,,577.05928, -26.94850,
,,,581.99141, -26.54850,
,,,586.92354, -30.14850,
,,,591.85567, -52.54850,
,,,596.78780, -36.14850,
,,,601.71993, -28.14850,
,,,606.65206, -27.34850,
,,,611.58419, -27.74850,
,,,616.51632, -33.74850,
,,,621.44845, -52.54850,
,,,626.38058, -31.74850,
,,,631.31271, -26.94850,
,,,636.24484, -26.14850,
,,,641.17697, -27.74850,
,,,646.10910, -36.14850,
,,,651.04123, -44.14850,
,,,655.97336, -29.74850,
,,,660.90549, -26.54850,
,,,665.83762, -26.54850,
,,,670.76975, -28.94850,
,,,675.70188, -41.34850,
,,,680.63401, -36.94850,
,,,685.56614, -27.34850,
,,,690.49827, -26.14850,
,,,695.43040, -26.14850,
,,,700.36253, -30.54850,
,,,705.29466, -44.14850,
,,,710.22679, -32.14850,
,,,715.15892, -26.14850,
,,,720.09105, -26.14850,
,,,725.02318, -26.54850,
,,,729.95531, -34.14850,
,,,734.88744, -52.54850,
,,,739.81957, -30.54850,
,,,744.75170, -26.14850,
,,,749.68383, -26.14850,
,,,754.61596, -26.94850,
,,,759.54809, -37.74850,
,,,764.48022, -39.34850,
,,,769.41235, -27.34850,
,,,774.34448, -25.34850,
,,,779.27661, -25.74850,
,,,784.20874, -28.54850,
,,,789.14087, -45.34850,
,,,794.07300, -35.34850,
,,,799.00513, -25.74850,
,,,803.93726, -24.94850,
,,,808.86939, -24.94850,
,,,813.80152, -30.54850,
,,,818.73365, -48.54850,
,,,823.66578, -30.14850,
,,,828.59791, -24.94850,
,,,833.53004, -24.14850,
,,,838.46217, -24.94850,
,,,843.39430, -34.14850,
,,,848.32643, -44.14850,
,,,853.25856, -26.94850,
,,,858.19069, -23.74850,
,,,863.12282, -23.74850,
,,,868.05495, -25.34850,
,,,872.98708, -37.74850,
,,,877.91921, -35.74850,
,,,882.85134, -24.54850,
,,,887.78347, -22.94850,
,,,892.71560, -22.94850,
,,,897.64773, -26.54850,
,,,902.57986, -42.94850,
,,,907.51199, -30.54850,
,,,912.44412, -22.94850,
,,,917.37625, -22.54850,
,,,922.30838, -22.94850,
,,,927.24051, -28.94850,
,,,932.17264, -42.94850,
,,,937.10477, -26.14850,
,,,942.03690, -22.14850,
,,,946.96903, -22.14850,
,,,951.90116, -22.94850,
,,,956.83329, -33.74850,
,,,961.76542, -38.14850,
,,,966.69755, -23.34850,
,,,971.62968, -20.94850,
,,,976.56181, -20.94850,
,,,981.49394, -23.74850,
,,,986.42607, -39.74850,
,,,991.35820, -31.34850,
,,,996.29033, -21.34850,
,,,1001.22246, -20.54850,
,,,1006.15459, -20.54850,
,,,1011.08672, -24.94850,
,,,1016.01885, -42.94850,
,,,1020.95098, -25.74850,
,,,1025.88311, -19.74850,
,,,1030.81524, -19.34850,
,,,1035.74737, -20.14850,
,,,1040.67950, -27.74850,
,,,1045.61163, -41.34850,
,,,1050.54376, -22.54850,
,,,1055.47589, -18.94850,
,,,1060.40802, -18.94850,
,,,1065.34015, -20.14850,
,,,1070.27228, -31.74850,
,,,1075.20441, -32.94850,
,,,1080.13654, -20.14850,
,,,1085.06867, -18.14850,
,,,1090.00080, -18.54850,
,,,1094.93293, -21.34850,
,,,1099.86506, -36.94850,
,,,1104.79719, -26.54850,
,,,1109.72932, -18.94850,
,,,1114.66145, -18.14850,
,,,1119.59358, -18.54850,
,,,1124.52571, -24.14850,
,,,1129.45784, -42.94850,
,,,1134.38997, -23.74850,
,,,1139.32210, -18.54850,
,,,1144.25423, -18.54850,
,,,1149.18636, -19.34850,
,,,1154.11849, -28.54850,
,,,1159.05062, -38.14850,
,,,1163.98275, -21.74850,
,,,1168.91488, -18.94850,
,,,1173.84701, -18.94850,
,,,1178.77914, -21.34850,
,,,1183.71127, -35.74850,
,,,1188.64340, -32.94850,
,,,1193.57553, -20.94850,
,,,1198.50766, -19.34850,
,,,1203.43979, -19.34850,
,,,1208.37192, -23.74850,
,,,1213.30405, -42.54850,
,,,1218.23618, -27.34850,
,,,1223.16831, -20.54850,
,,,1228.10044, -20.14850,
,,,1233.03257, -20.14850,
,,,1237.96470, -27.34850,
,,,1242.89683, -44.14850,
,,,1247.82896, -24.54850,
,,,1252.76109, -20.94850,
,,,1257.69322, -20.54850,
,,,1262.62535, -21.74850,
,,,1267.55748, -32.94850,
,,,1272.48961, -38.94850,
,,,1277.42174, -23.34850,
,,,1282.35387, -21.34850,
,,,1287.28600, -21.34850,
,,,1292.21813, -23.74850,
,,,1297.15026, -40.94850,
,,,1302.08239, -31.74850,
,,,1307.01452, -22.14850,
,,,1311.94665, -21.34850,
,,,1316.87878, -21.74850,
,,,1321.81091, -26.94850,
,,,1326.74304, -48.54850,
,,,1331.67517, -28.14850,
,,,1336.60730, -21.74850,
,,,1341.53943, -21.74850,
,,,1346.47156, -22.54850,
,,,1351.40369, -30.54850,
,,,1356.33582, -42.54850,
,,,1361.26795, -25.34850,
,,,1366.20008, -22.14850,
,,,1371.13221, -22.14850,
,,,1376.06434, -24.14850,
,,,1380.99647, -38.54850,
,,,1385.92860, -38.14850,
,,,1390.86073, -24.14850,
,,,1395.79286, -22.54850,
,,,1400.72499, -22.54850,
,,,1405.65712, -26.14850,
,,,1410.58925, -48.54850,
,,,1415.52138, -31.34850,
,,,1420.45351, -23.34850,
,,,1425.38564, -22.54850,
,,,1430.31777, -22.94850,
,,,1435.24990, -28.54850,
,,,1440.18203, -44.14850,
,,,1445.11416, -27.34850,
,,,1450.04629, -22.94850,
,,,1454.97842, -22.94850,
,,,1459.91055, -24.14850,
,,,1464.84268, -33.34850,
,,,1469.77481, -41.34850,
,,,1474.70694, -26.14850,
,,,1479.63907, -23.74850,
,,,1484.57120, -23.74850,
,,,1489.50333, -26.14850,
,,,1494.43546, -39.34850,
,,,1499.36759, -35.74850,
,,,1504.29972, -25.74850,
,,,1509.23185, -24.54850,
,,,1514.16398, -24.94850,
,,,1519.09611, -28.94850,
,,,1524.02824, -48.54850,
,,,1528.96037, -33.34850,
,,,1533.89250, -26.54850,
,,,1538.82463, -26.14850,
,,,1543.75676, -26.54850,
,,,1548.68889, -34.54850,
,,,1553.62102, -49.34850,
,,,1558.55315, -31.74850,
,,,1563.48528, -27.34850,
,,,1568.41741, -26.94850,
,,,1573.34954, -28.54850,
,,,1578.28167, -40.14850,
,,,1583.21380, -44.14850,
,,,1588.14593, -30.54850,
,,,1593.07806, -28.94850,
,,,1598.01019, -28.54850,
,,,1602.94232, -31.34850,
,,,1607.87445, -45.34850,
,,,1612.80658, -39.34850,
,,,1617.73871, -30.94850,
,,,1622.67084, -29.74850,
,,,1627.60297, -30.14850,
,,,1632.53510, -34.94850,
,,,1637.46723, -52.54850,
,,,1642.39936, -37.34850,
,,,1647.33149, -31.34850,
,,,1652.26362, -31.74850,
,,,1657.19575, -32.14850,
,,,1662.12788, -40.94850,
,,,1667.06001, -54.94850,
,,,1671.99214, -37.34850,
,,,1676.92427, -32.94850,
,,,1681.85640, -33.74850,
,,,1686.78853, -35.74850,
,,,1691.72066, -54.94850,
,,,1696.65279, -52.54850,
,,,1701.58492, -36.54850,
,,,1706.51705, -35.74850,
,,,1711.44918, -35.74850,
,,,1716.38131, -39.74850,
,,,1721.31344, -52.54850,
,,,1726.24557, -45.74850,
,,,1731.17770, -36.94850,
,,,1736.10983, -36.94850,
,,,1741.04196, -38.14850,
,,,1745.97409, -42.54850,
,,,1750.90622, -54.94850,
,,,1755.83835, -41.34850,
,,,1760.77048, -36.94850,
,,,1765.70261, -36.94850,
,,,1770.63474, -38.14850,
,,,1775.56687, -45.74850,
,,,1780.49900, -49.34850,
,,,1785.43113, -41.34850,
,,,1790.36326, -39.74850,
,,,1795.29539, -39.74850,
,,,1800.22752, -42.94850,
,,,1805.15965, -48.54850,
,,,1810.09178, -52.54850,
,,,1815.02391, -41.34850,
,,,1819.95604, -41.34850,
,,,1824.88817, -39.74850,
,,,1829.82030, -43.34850,
,,,1834.75243, -54.94850,
,,,1839.68456, -48.54850,
,,,1844.61669, -42.54850,
,,,1849.54882, -40.94850,
,,,1854.48095, -42.94850,
,,,1859.41308, -48.54850,
,,,1864.34521, -54.94850,
,,,1869.27734, -48.54850,
,,,1874.20947, -45.34850,
,,,1879.14160, -45.34850,
,,,1884.07373, -45.34850,
,,,1889.00586, -49.34850,
,,,1893.93799, -54.94850,
,,,1898.87012, -48.54850,
,,,1903.80225, -44.14850,
,,,1908.73438, -45.34850,
,,,1913.66651, -49.34850,
,,,1918.59864, -54.94850,
,,,1923.53077, -52.54850,
,,,1928.46290, -45.34850,
,,,1933.39503, -45.34850,
,,,1938.32716, -45.34850,
,,,1943.25929, -54.94850,
,,,1948.19142, -54.94850,
,,,1953.12355, -49.34850,
,,,1958.05568, -48.54850,
,,,1962.98781, -44.14850,
,,,1967.91994, -42.94850,
,,,1972.85207, -48.54850,
,,,1977.78420, -48.54850,
,,,1982.71633, -48.54850,
,,,1987.64846, -45.34850,
,,,1992.58059, -48.54850,
,,,1997.51272, -52.54850,
,,,2002.44485, -54.94850,
,,,2007.37698, -52.54850,
,,,2012.30911, -45.34850,
,,,2017.24124, -45.34850,
,,,2022.17337, -45.34850,
,,,2027.10550, -48.54850,
,,,2032.03763, -54.94850,
,,,2036.96976, -54.94850,
,,,2041.90189, -48.54850,
,,,2046.83402, -48.54850,
,,,2051.76615, -49.34850,
,,,2056.69828, -54.94850,
,,,2061.63041, -54.94850,
,,,2066.56254, -54.94850,
,,,2071.49467, -54.94850,
,,,2076.42680, -54.94850,
,,,2081.35893, -52.54850,
,,,2086.29106, -54.94850,
,,,2091.22319, -52.54850,
,,,2096.15532, -52.54850,
,,,2101.08745, -49.34850,
,,,2106.01958, -49.34850,
,,,2110.95171, -54.94850,
,,,2115.88384, -54.94850,
,,,2120.81597, -54.94850,
,,,2125.74810, -52.54850,
,,,2130.68023, -52.54850,
,,,2135.61236, -54.94850,
,,,2140.54449, -49.34850,
,,,2145.47662, -48.54850,
,,,2150.40875, -49.34850,
,,,2155.34088, -48.54850,
,,,2160.27301, -48.54850,
,,,2165.20514, -45.34850,
,,,2170.13727, -48.54850,
,,,2175.06940, -54.94850,
,,,2180.00153, -54.94850,
,,,2184.93366, -52.54850,
,,,2189.86579, -48.54850,
,,,2194.79792, -52.54850,
,,,2199.73005, -54.94850,
,,,2204.66218, -52.54850,
,,,2209.59431, -54.94850,
,,,2214.52644, -54.94850,
,,,2219.45857, -54.94850,
,,,2224.39070, -54.94850,
,,,2229.32283, -52.54850,
,,,2234.25496, -54.94850,
,,,2239.18709, -48.54850,
,,,2244.11922, -54.94850,
,,,2249.05135, -54.94850,
,,,2253.98348, -54.94850,
,,,2258.91561, -52.54850,
,,,2263.84774, -54.94850,
,,,2268.77987, -54.94850,
,,,2273.71200, -54.94850,
,,,2278.64413, -54.94850,
,,,2283.57626, -54.94850,
,,,2288.50839, -54.94850,
,,,2293.44052, -54.94850,
,,,2298.37265, -54.94850,
,,,2303.30478, -54.94850,
,,,2308.23691, -49.34850,
,,,2313.16904, -54.94850,
,,,2318.10117, -54.94850,
,,,2323.03330, -54.94850,
,,,2327.96543, -54.94850,
,,,2332.89756, -52.54850,
,,,2337.82969, -52.54850,
,,,2342.76182, -54.94850,
,,,2347.69395, -54.94850,
,,,2352.62608, -52.54850,
,,,2357.55821, -52.54850,
,,,2362.49034, -52.54850,
,,,2367.42247, -54.94850,
,,,2372.35460, -54.94850,
,,,2377.28673, -52.54850,
,,,2382.21886, -54.94850,
,,,2387.15099, -54.94850,
,,,2392.08312, -52.54850,
,,,2397.01525, -54.94850,
,,,2401.94738, -49.34850,
,,,2406.87951, -45.74850,
,,,2411.81164, -45.74850,
,,,2416.74377, -45.74850,
,,,2421.67590, -45.74850,
,,,2426.60803, -48.54850,
,,,2431.54016, -49.34850,
,,,2436.47229, -52.54850,
,,,2441.40442, -54.94850,
,,,2446.33655, -52.54850,
,,,2451.26868, -54.94850,
,,,2456.20081, -52.54850,
,,,2461.13294, -54.94850,
,,,2466.06507, -54.94850,
,,,2470.99720, -54.94850,
,,,2475.92933, -54.94850,
,,,2480.86146, -54.94850,
,,,2485.79359, -52.54850,
,,,2490.72572, -54.94850,
,,,2495.65785, -52.54850,
,,,2500.58998, -52.54850,
,,,2505.52211, -54.94850,
,,,2510.45424, -54.94850,
,,,2515.38637, -48.54850,
,,,2520.31850, -52.54850,
,,,2525.25063, -48.54850,
,,,2530.18276, -54.94850,
,,,2535.11489, -48.54850,
,,,2540.04702, -54.94850,
,,,2544.97915, -54.94850,
,,,2549.91128, -54.94850,
,,,2554.84341, -54.94850,
,,,2559.77554, -52.54850,
,,,2564.70767, -54.94850,
,,,2569.63980, -54.94850,
,,,2574.57193, -54.94850,
,,,2579.50406, -54.94850,
,,,2584.43619, -54.94850,
,,,2589.36832, -54.94850,
,,,2594.30045, -54.94850,
,,,2599.23258, -52.54850,
,,,2604.16471, -54.94850,
,,,2609.09684, -52.54850,
,,,2614.02897, -52.54850,
,,,2618.96110, -52.54850,
,,,2623.89323, -54.94850,
,,,2628.82536, -54.94850,
,,,2633.75749, -54.94850,
,,,2638.68962, -54.94850,
,,,2643.62175, -54.94850,
,,,2648.55388, -54.94850,
,,,2653.48601, -54.94850,
,,,2658.41814, -54.94850,
,,,2663.35027, -54.94850,
,,,2668.28240, -54.94850,
,,,2673.21453, -52.54850,
,,,2678.14666, -54.94850,
,,,2683.07879, -54.94850,
,,,2688.01092, -52.54850,
,,,2692.94305, -48.54850,
,,,2697.87518, -52.54850,
,,,2702.80731, -54.94850,
,,,2707.73944, -49.34850,
,,,2712.67157, -52.54850,
,,,2717.60370, -54.94850,
,,,2722.53583, -54.94850,
,,,2727.46796, -49.34850,
,,,2732.40009, -54.94850,
,,,2737.33222, -54.94850,
,,,2742.26435, -54.94850,
,,,2747.19648, -54.94850,
,,,2752.12861, -54.94850,
,,,2757.06074, -54.94850,
,,,2761.99287, -54.94850,
,,,2766.92500, -54.94850,
,,,2771.85713, -54.94850,
,,,2776.78926, -54.94850,
,,,2781.72139, -54.94850,
,,,2786.65352, -54.94850,
,,,2791.58565, -49.34850,
,,,2796.51778, -54.94850,
,,,2801.44991, -54.94850,
,,,2806.38204, -49.34850,
,,,2811.31417, -49.34850,
,,,2816.24630, -49.34850,
,,,2821.17843, -54.94850,
,,,2826.11056, -52.54850,
,,,2831.04269, -54.94850,
,,,2835.97482, -54.94850,
,,,2840.90695, -54.94850,
,,,2845.83908, -54.94850,
,,,2850.77121, -54.94850,
,,,2855.70334, -54.94850,
,,,2860.63547, -54.94850,
,,,2865.56760, -54.94850,
,,,2870.49973, -52.54850,
,,,2875.43186, -54.94850,
,,,2880.36399, -54.94850,
,,,2885.29612, -54.94850,
,,,2890.22825, -52.54850,
,,,2895.16038, -54.94850,
,,,2900.09251, -52.54850,
,,,2905.02464, -54.94850,
,,,2909.95677, -54.94850,
,,,2914.88890, -54.94850,
,,,2919.82103, -54.94850,
,,,2924.75316, -54.94850,
,,,2929.68529, -54.94850,
,,,2934.61742, -54.94850,
,,,2939.54955, -52.54850,
,,,2944.48168, -52.54850,
,,,2949.41381, -52.54850,
,,,2954.34594, -54.94850,
,,,2959.27807, -54.94850,
,,,2964.21020, -54.94850,
,,,2969.14233, -54.94850,
,,,2974.07446, -54.94850,
,,,2979.00659, -54.94850,
,,,2983.93872, -54.94850,
,,,2988.87085, -52.54850,
,,,2993.80298, -54.94850,
,,,2998.73511, -54.94850,
,,,3003.66724, -54.94850,
,,,3008.59937, -54.94850,
,,,3013.53150, -54.94850,
,,,3018.46363, -52.54850,
,,,3023.39576, -54.94850,
,,,3028.32789, -54.94850,
,,,3033.26002, -54.94850,
,,,3038.19215, -54.94850,
,,,3043.12428, -54.94850,
,,,3048.05641, -52.54850,
,,,3052.98854, -54.94850,
,,,3057.92067, -54.94850,
,,,3062.85280, -54.94850,
,,,3067.78493, -54.94850,
,,,3072.71706, -54.94850,
,,,3077.64919, -54.94850,
,,,3082.58132, -52.54850,
,,,3087.51345, -52.54850,
,,,3092.44558, -54.94850,
,,,3097.37771, -49.34850,
,,,3102.30984, -52.54850,
,,,3107.24197, -52.54850,
,,,3112.17410, -54.94850,
,,,3117.10623, -54.94850,
,,,3122.03836, -54.94850,
,,,3126.97049, -54.94850,
,,,3131.90262, -54.94850,
,,,3136.83475, -54.94850,
,,,3141.76688, -54.94850,
,,,3146.69901, -54.94850,
,,,3151.63114, -52.54850,
,,,3156.56327, -54.94850,
,,,3161.49540, -52.54850,
,,,3166.42753, -54.94850,
,,,3171.35966, -54.94850,
,,,3176.29179, -54.94850,
,,,3181.22392, -54.94850,
,,,3186.15605, -54.94850,
,,,3191.08818, -54.94850,
,,,3196.02031, -52.54850,
,,,3200.95244, -54.94850,
,,,3205.88457, -52.54850,
,,,3210.81670, -54.94850,
,,,3215.74883, -52.54850,
,,,3220.68096, -54.94850,
,,,3225.61309, -54.94850,
,,,3230.54522, -52.54850,
,,,3235.47735, -48.54850,
,,,3240.40948, -49.34850,
,,,3245.34161, -54.94850,
,,,3250.27374, -54.94850,
,,,3255.20587, -54.94850,
,,,3260.13800, -54.94850,
,,,3265.07013, -54.94850,
,,,3270.00226, -54.94850,
,,,3274.93439, -54.94850,
,,,3279.86652, -54.94850,
,,,3284.79865, -54.94850,
,,,3289.73078, -52.54850,
,,,3294.66291, -54.94850,
,,,3299.59504, -52.54850,
,,,3304.52717, -52.54850,
,,,3309.45930, -54.94850,
,,,3314.39143, -52.54850,
,,,3319.32356, -54.94850,
,,,3324.25569, -54.94850,
,,,3329.18782, -54.94850,
,,,3334.11995, -54.94850,
,,,3339.05208, -54.94850,
,,,3343.98421, -54.94850,
,,,3348.91634, -54.94850,
,,,3353.84847, -54.94850,
,,,3358.78060, -54.94850,
,,,3363.71273, -54.94850,
,,,3368.64486, -54.94850,
,,,3373.57699, -54.94850,
,,,3378.50912, -54.94850,
,,,3383.44125, -54.94850,
,,,3388.37338, -54.94850,
,,,3393.30551, -54.94850,
,,,3398.23764, -54.94850,
,,,3403.16977, -54.94850,
,,,3408.10190, -54.94850,
,,,3413.03403, -54.94850,
,,,3417.96616, -54.94850,
,,,3422.89829, -54.94850,
,,,3427.83042, -54.94850,
,,,3432.76255, -54.94850,
,,,3437.69468, -54.94850,
,,,3442.62681, -54.94850,
,,,3447.55894, -54.94850,
,,,3452.49107, -54.94850,
,,,3457.42320, -54.94850,
,,,3462.35533, -54.94850,
,,,3467.28746, -54.94850,
,,,3472.21959, -54.94850,
,,,3477.15172, -54.94850,
,,,3482.08385, -54.94850,
,,,3487.01598, -54.94850,
,,,3491.94811, -54.94850,
,,,3496.88024, -54.94850,
,,,3501.81237, -54.94850,
,,,3506.74450, -54.94850,
,,,3511.67663, -54.94850,
,,,3516.60876, -54.94850,
,,,3521.54089, -54.94850,
,,,3526.47302, -54.94850,
,,,3531.40515, -52.54850,
,,,3536.33728, -54.94850,
,,,3541.26941, -54.94850,
,,,3546.20154, -54.94850,
,,,3551.13367, -54.94850,
,,,3556.06580, -52.54850,
,,,3560.99793, -52.54850,
,,,3565.93006, -52.54850,
,,,3570.86219, -54.94850,
,,,3575.79432, -54.94850,
,,,3580.72645, -54.94850,
,,,3585.65858, -52.54850,
,,,3590.59071, -54.94850,
,,,3595.52284, -54.94850,
,,,3600.45497, -54.94850,
,,,3605.38710, -54.94850,
,,,3610.31923, -52.54850,
,,,3615.25136, -54.94850,
,,,3620.18349, -54.94850,
,,,3625.11562, -54.94850,
,,,3630.04775, -48.54850,
,,,3634.97988, -52.54850,
,,,3639.91201, -54.94850,
,,,3644.84414, -54.94850,
,,,3649.77627, -54.94850,
,,,3654.70840, -54.94850,
,,,3659.64053, -52.54850,
,,,3664.57266, -54.94850,
,,,3669.50479, -54.94850,
,,,3674.43692, -54.94850,
,,,3679.36905, -48.54850,
,,,3684.30118, -52.54850,
,,,3689.23331, -52.54850,
,,,3694.16544, -52.54850,
,,,3699.09757, -54.94850,
,,,3704.02970, -52.54850,
,,,3708.96183, -54.94850,
,,,3713.89396, -52.54850,
,,,3718.82609, -52.54850,
,,,3723.75822, -49.34850,
,,,3728.69035, -54.94850,
,,,3733.62248, -54.94850,
,,,3738.55461, -54.94850,
