RLCC_FFT_C1/ALL0003/F0003FFT.CSV

Record Length,1.024000e+03,,          0.00000,   4.61030,
Sample Interval,4.932134e+00,,          4.93213,  13.41030,
Trigger Point,-0.000000000000e+00,,          9.86427,  15.01030,
,,,         14.79640,  15.81030,
,,,         19.72854,  11.41030,
,,,         24.66067,   7.01030,
Source,FFT,,         29.59280,   3.41030,
Vertical Units,dB,,         34.52494,   2.21030,
Vertical Scale,1.000000e+01,,         39.45707,   4.61030,
Vertical Offset,0.000000e+00,,         44.38920,   5.01030,
Horizontal Units,Hz,,         49.32134,   1.41030,
Horizontal Scale,5.050505e+02,,         54.25347,  -1.78970,
Pt Fmt,Y,,         59.18561,  -2.58970,
Yzero,-6.989700e+00,,         64.11774,  -1.78970,
Probe Atten,1.000000e+00,,         69.04987,   0.21030,
Model Number,TBS1052B-EDU,,         73.98201,  -0.18970,
Serial Number,C027597,,         78.91414,  -4.18970,
Firmware Version,FV:v4.06,,         83.84628,  -6.58970,
,,,88.77841,  -5.38970,
,,,93.71054,  -4.58970,
,,,98.64267,  -2.58970,
,,,103.57480,  -3.78970,
,,,108.50693,  -8.58970,
,,,113.43906,  -9.78970,
,,,118.37119,  -6.98970,
,,,123.30332,  -6.18970,
,,,128.23545,  -4.98970,
,,,133.16758,  -6.98970,
,,,138.09971, -11.78970,
,,,143.03184, -11.38970,
,,,147.96397,  -8.58970,
,,,152.89610,  -7.78970,
,,,157.82823,  -6.98970,
,,,162.76036,  -9.78970,
,,,167.69249, -14.18970,
,,,172.62462, -11.78970,
,,,177.55675,  -9.38970,
,,,182.48888,  -9.38970,
,,,187.42101,  -8.98970,
,,,192.35314, -12.98970,
,,,197.28527, -16.58970,
,,,202.21740, -12.58970,
,,,207.14953, -10.58970,
,,,212.08166, -10.58970,
,,,217.01379, -10.98970,
,,,221.94592, -15.78970,
,,,226.87805, -17.78970,
,,,231.81018, -12.98970,
,,,236.74231, -11.78970,
,,,241.67444, -11.78970,
,,,246.60657, -12.98970,
,,,251.53870, -18.58970,
,,,256.47083, -18.18970,
,,,261.40296, -13.78970,
,,,266.33509, -13.38970,
,,,271.26722, -13.38970,
,,,276.19935, -15.38970,
,,,281.13148, -20.58970,
,,,286.06361, -18.58970,
,,,290.99574, -14.58970,
,,,295.92787, -14.58970,
,,,300.86000, -14.98970,
,,,305.79213, -17.78970,
,,,310.72426, -21.78970,
,,,315.65639, -18.18970,
,,,320.58852, -14.98970,
,,,325.52065, -16.58970,
,,,330.45278, -16.98970,
,,,335.38491, -20.98970,
,,,340.31704, -22.98970,
,,,345.24917, -18.18970,
,,,350.18130, -15.78970,
,,,355.11343, -17.78970,
,,,360.04556, -18.58970,
,,,364.97769, -22.58970,
,,,369.90982, -22.98970,
,,,374.84195, -18.58970,
,,,379.77408, -17.38970,
,,,384.70621, -18.98970,
,,,389.63834, -20.18970,
,,,394.57047, -23.78970,
,,,399.50260, -22.58970,
,,,404.43473, -18.58970,
,,,409.36686, -18.18970,
,,,414.29899, -20.58970,
,,,419.23112, -22.18970,
,,,424.16325, -25.38970,
,,,429.09538, -22.98970,
,,,434.02751, -19.38970,
,,,438.95964, -20.18970,
,,,443.89177, -21.78970,
,,,448.82390, -23.78970,
,,,453.75603, -25.38970,
,,,458.68816, -22.18970,
,,,463.62029, -19.78970,
,,,468.55242, -21.38970,
,,,473.48455, -23.78970,
,,,478.41668, -26.18970,
,,,483.34881, -25.78970,
,,,488.28094, -22.58970,
,,,493.21307, -20.98970,
,,,498.14520, -22.98970,
,,,503.07733, -24.98970,
,,,508.00946, -26.18970,
,,,512.94159, -25.78970,
,,,517.87372, -23.38970,
,,,522.80585, -21.78970,
,,,527.73798, -24.98970,
,,,532.67011, -26.58970,
,,,537.60224, -27.78970,
,,,542.53437, -26.98970,
,,,547.46650, -23.78970,
,,,552.39863, -23.78970,
,,,557.33076, -27.38970,
,,,562.26289, -29.38970,
,,,567.19502, -28.18970,
,,,572.12715, -26.18970,
,,,577.05928, -24.18970,
,,,581.99141, -25.78970,
,,,586.92354, -29.38970,
,,,591.85567, -30.58970,
,,,596.78780, -28.18970,
,,,601.71993, -27.38970,
,,,606.65206, -24.98970,
,,,611.58419, -26.58970,
,,,616.51632, -31.78970,
,,,621.44845, -32.18970,
,,,626.38058, -28.18970,
,,,631.31271, -25.78970,
,,,636.24484, -25.78970,
,,,641.17697, -28.18970,
,,,646.10910, -31.78970,
,,,651.04123, -30.98970,
,,,655.97336, -27.38970,
,,,660.90549, -26.98970,
,,,665.83762, -25.78970,
,,,670.76975, -29.38970,
,,,675.70188, -33.38970,
,,,680.63401, -31.38970,
,,,685.56614, -28.18970,
,,,690.49827, -26.98970,
,,,695.43040, -27.38970,
,,,700.36253, -30.58970,
,,,705.29466, -31.78970,
,,,710.22679, -28.58970,
,,,715.15892, -27.38970,
,,,720.09105, -27.38970,
,,,725.02318, -28.18970,
,,,729.95531, -33.38970,
,,,734.88744, -33.38970,
,,,739.81957, -28.98970,
,,,744.75170, -27.78970,
,,,749.68383, -29.38970,
,,,754.61596, -30.58970,
,,,759.54809, -35.38970,
,,,764.48022, -34.98970,
,,,769.41235, -30.18970,
,,,774.34448, -30.98970,
,,,779.27661, -30.58970,
,,,784.20874, -33.38970,
,,,789.14087, -44.58970,
,,,794.07300, -34.98970,
,,,799.00513, -30.18970,
,,,803.93726, -31.38970,
,,,808.86939, -31.78970,
,,,813.80152, -35.38970,
,,,818.73365, -40.58970,
,,,823.66578, -34.98970,
,,,828.59791, -30.98970,
,,,833.53004, -31.78970,
,,,838.46217, -31.78970,
,,,843.39430, -37.78970,
,,,848.32643, -40.58970,
,,,853.25856, -34.58970,
,,,858.19069, -30.98970,
,,,863.12282, -31.78970,
,,,868.05495, -33.38970,
,,,872.98708, -40.58970,
,,,877.91921, -38.58970,
,,,882.85134, -31.38970,
,,,887.78347, -31.38970,
,,,892.71560, -31.78970,
,,,897.64773, -33.38970,
,,,902.57986, -37.38970,
,,,907.51199, -36.18970,
,,,912.44412, -30.18970,
,,,917.37625, -30.98970,
,,,922.30838, -31.78970,
,,,927.24051, -33.38970,
,,,932.17264, -34.58970,
,,,937.10477, -32.98970,
,,,942.03690, -31.78970,
,,,946.96903, -31.78970,
,,,951.90116, -33.38970,
,,,956.83329, -34.98970,
,,,961.76542, -34.98970,
,,,966.69755, -33.38970,
,,,971.62968, -32.98970,
,,,976.56181, -34.98970,
,,,981.49394, -35.38970,
,,,986.42607, -37.38970,
,,,991.35820, -33.38970,
,,,996.29033, -32.98970,
,,,1001.22246, -31.78970,
,,,1006.15459, -37.78970,
,,,1011.08672, -41.38970,
,,,1016.01885, -40.58970,
,,,1020.95098, -38.58970,
,,,1025.88311, -34.58970,
,,,1030.81524, -33.38970,
,,,1035.74737, -41.38970,
,,,1040.67950, -41.38970,
,,,1045.61163, -40.58970,
,,,1050.54376, -36.18970,
,,,1055.47589, -34.98970,
,,,1060.40802, -34.98970,
,,,1065.34015, -40.58970,
,,,1070.27228, -40.58970,
,,,1075.20441, -36.18970,
,,,1080.13654, -34.98970,
,,,1085.06867, -33.38970,
,,,1090.00080, -35.38970,
,,,1094.93293, -35.38970,
,,,1099.86506, -37.38970,
,,,1104.79719, -33.38970,
,,,1109.72932, -33.38970,
,,,1114.66145, -33.38970,
,,,1119.59358, -35.38970,
,,,1124.52571, -37.78970,
,,,1129.45784, -37.78970,
,,,1134.38997, -40.58970,
,,,1139.32210, -35.38970,
,,,1144.25423, -33.38970,
,,,1149.18636, -37.78970,
,,,1154.11849, -40.58970,
,,,1159.05062, -37.38970,
,,,1163.98275, -36.18970,
,,,1168.91488, -33.38970,
,,,1173.84701, -33.38970,
,,,1178.77914, -37.38970,
,,,1183.71127, -41.38970,
,,,1188.64340, -37.78970,
,,,1193.57553, -35.38970,
,,,1198.50766, -33.38970,
,,,1203.43979, -34.98970,
,,,1208.37192, -40.58970,
,,,1213.30405, -37.38970,
,,,1218.23618, -34.98970,
,,,1223.16831, -33.38970,
,,,1228.10044, -34.98970,
,,,1233.03257, -36.18970,
,,,1237.96470, -44.58970,
,,,1242.89683, -41.38970,
,,,1247.82896, -37.38970,
,,,1252.76109, -37.78970,
,,,1257.69322, -33.38970,
,,,1262.62535, -37.38970,
,,,1267.55748, -41.38970,
,,,1272.48961, -37.38970,
,,,1277.42174, -34.58970,
,,,1282.35387, -41.38970,
,,,1287.28600, -38.58970,
,,,1292.21813, -46.98970,
,,,1297.15026, -46.98970,
,,,1302.08239, -37.78970,
,,,1307.01452, -37.78970,
,,,1311.94665, -40.58970,
,,,1316.87878, -38.58970,
,,,1321.81091, -44.58970,
,,,1326.74304, -46.98970,
,,,1331.67517, -41.38970,
,,,1336.60730, -41.38970,
,,,1341.53943, -46.98970,
,,,1346.47156, -41.38970,
,,,1351.40369, -46.98970,
,,,1356.33582, -44.58970,
,,,1361.26795, -40.58970,
,,,1366.20008, -37.38970,
,,,1371.13221, -37.38970,
,,,1376.06434, -40.58970,
,,,1380.99647, -44.58970,
,,,1385.92860, -44.58970,
,,,1390.86073, -37.38970,
,,,1395.79286, -38.58970,
,,,1400.72499, -38.58970,
,,,1405.65712, -36.18970,
,,,1410.58925, -46.98970,
,,,1415.52138, -46.98970,
,,,1420.45351, -41.38970,
,,,1425.38564, -36.18970,
,,,1430.31777, -38.58970,
,,,1435.24990, -37.38970,
,,,1440.18203, -40.58970,
,,,1445.11416, -38.58970,
,,,1450.04629, -37.38970,
,,,1454.97842, -40.58970,
,,,1459.91055, -44.58970,
,,,1464.84268, -44.58970,
,,,1469.77481, -40.58970,
,,,1474.70694, -40.58970,
,,,1479.63907, -37.38970,
,,,1484.57120, -41.38970,
,,,1489.50333, -46.98970,
,,,1494.43546, -46.98970,
,,,1499.36759, -40.58970,
,,,1504.29972, -41.38970,
,,,1509.23185, -40.58970,
,,,1514.16398, -46.98970,
,,,1519.09611, -46.98970,
,,,1524.02824, -44.58970,
,,,1528.96037, -40.58970,
,,,1533.89250, -37.78970,
,,,1538.82463, -35.38970,
,,,1543.75676, -37.38970,
,,,1548.68889, -40.58970,
,,,1553.62102, -40.58970,
,,,1558.55315, -40.58970,
,,,1563.48528, -37.78970,
,,,1568.41741, -38.58970,
,,,1573.34954, -40.58970,
,,,1578.28167, -38.58970,
,,,1583.21380, -41.38970,
,,,1588.14593, -41.38970,
,,,1593.07806, -40.58970,
,,,1598.01019, -41.38970,
,,,1602.94232, -44.58970,
,,,1607.87445, -46.98970,
,,,1612.80658, -41.38970,
,,,1617.73871, -41.38970,
,,,1622.67084, -40.58970,
,,,1627.60297, -40.58970,
,,,1632.53510, -44.58970,
,,,1637.46723, -44.58970,
,,,1642.39936, -37.38970,
,,,1647.33149, -37.78970,
,,,1652.26362, -41.38970,
,,,1657.19575, -41.38970,
,,,1662.12788, -46.98970,
,,,1667.06001, -46.98970,
,,,1671.99214, -44.58970,
,,,1676.92427, -46.98970,
,,,1681.85640, -40.58970,
,,,1686.78853, -41.38970,
,,,1691.72066, -46.98970,
,,,1696.65279, -40.58970,
,,,1701.58492, -46.98970,
,,,1706.51705, -44.58970,
,,,1711.44918, -41.38970,
,,,1716.38131, -44.58970,
,,,1721.31344, -41.38970,
,,,1726.24557, -46.98970,
,,,1731.17770, -41.38970,
,,,1736.10983, -40.58970,
,,,1741.04196, -44.58970,
,,,1745.97409, -46.98970,
,,,1750.90622, -46.98970,
,,,1755.83835, -46.98970,
,,,1760.77048, -46.98970,
,,,1765.70261, -46.98970,
,,,1770.63474, -46.98970,
,,,1775.56687, -46.98970,
,,,1780.49900, -46.98970,
,,,1785.43113, -46.98970,
,,,1790.36326, -44.58970,
,,,1795.29539, -44.58970,
,,,1800.22752, -46.98970,
,,,1805.15965, -46.98970,
,,,1810.09178, -46.98970,
,,,1815.02391, -46.98970,
,,,1819.95604, -46.98970,
,,,1824.88817, -46.98970,
,,,1829.82030, -46.98970,
,,,1834.75243, -46.98970,
,,,1839.68456, -44.58970,
,,,1844.61669, -44.58970,
,,,1849.54882, -46.98970,
,,,1854.48095, -46.98970,
,,,1859.41308, -46.98970,
,,,1864.34521, -46.98970,
,,,1869.27734, -46.98970,
,,,1874.20947, -44.58970,
,,,1879.14160, -46.98970,
,,,1884.07373, -44.58970,
,,,1889.00586, -41.38970,
,,,1893.93799, -46.98970,
,,,1898.87012, -46.98970,
,,,1903.80225, -46.98970,
,,,1908.73438, -46.98970,
,,,1913.66651, -46.98970,
,,,1918.59864, -46.98970,
,,,1923.53077, -44.58970,
,,,1928.46290, -46.98970,
,,,1933.39503, -44.58970,
,,,1938.32716, -46.98970,
,,,1943.25929, -44.58970,
,,,1948.19142, -46.98970,
,,,1953.12355, -46.98970,
,,,1958.05568, -46.98970,
,,,1962.98781, -46.98970,
,,,1967.91994, -46.98970,
,,,1972.85207, -46.98970,
,,,1977.78420, -44.58970,
,,,1982.71633, -44.58970,
,,,1987.64846, -44.58970,
,,,1992.58059, -46.98970,
,,,1997.51272, -41.38970,
,,,2002.44485, -46.98970,
,,,2007.37698, -46.98970,
,,,2012.30911, -46.98970,
,,,2017.24124, -46.98970,
,,,2022.17337, -46.98970,
,,,2027.10550, -46.98970,
,,,2032.03763, -44.58970,
,,,2036.96976, -46.98970,
,,,2041.90189, -46.98970,
,,,2046.83402, -46.98970,
,,,2051.76615, -44.58970,
,,,2056.69828, -44.58970,
,,,2061.63041, -41.38970,
,,,2066.56254, -41.38970,
,,,2071.49467, -40.58970,
,,,2076.42680, -46.98970,
,,,2081.35893, -46.98970,
,,,2086.29106, -41.38970,
,,,2091.22319, -41.38970,
,,,2096.15532, -40.58970,
,,,2101.08745, -40.58970,
,,,2106.01958, -44.58970,
,,,2110.95171, -44.58970,
,,,2115.88384, -44.58970,
,,,2120.81597, -46.98970,
,,,2125.74810, -44.58970,
,,,2130.68023, -46.98970,
,,,2135.61236, -46.98970,
,,,2140.54449, -46.98970,
,,,2145.47662, -46.98970,
,,,2150.40875, -44.58970,
,,,2155.34088, -40.58970,
,,,2160.27301, -41.38970,
,,,2165.20514, -41.38970,
,,,2170.13727, -44.58970,
,,,2175.06940, -41.38970,
,,,2180.00153, -46.98970,
,,,2184.93366, -44.58970,
,,,2189.86579, -40.58970,
,,,2194.79792, -44.58970,
,,,2199.73005, -46.98970,
,,,2204.66218, -41.38970,
,,,2209.59431, -46.98970,
,,,2214.52644, -41.38970,
,,,2219.45857, -41.38970,
,,,2224.39070, -41.38970,
,,,2229.32283, -46.98970,
,,,2234.25496, -46.98970,
,,,2239.18709, -44.58970,
,,,2244.11922, -41.38970,
,,,2249.05135, -41.38970,
,,,2253.98348, -46.98970,
,,,2258.91561, -41.38970,
,,,2263.84774, -37.38970,
,,,2268.77987, -41.38970,
,,,2273.71200, -44.58970,
,,,2278.64413, -46.98970,
,,,2283.57626, -46.98970,
,,,2288.50839, -46.98970,
,,,2293.44052, -44.58970,
,,,2298.37265, -44.58970,
,,,2303.30478, -44.58970,
,,,2308.23691, -44.58970,
,,,2313.16904, -44.58970,
,,,2318.10117, -46.98970,
,,,2323.03330, -46.98970,
,,,2327.96543, -46.98970,
,,,2332.89756, -46.98970,
,,,2337.82969, -46.98970,
,,,2342.76182, -46.98970,
,,,2347.69395, -46.98970,
,,,2352.62608, -46.98970,
,,,2357.55821, -44.58970,
,,,2362.49034, -44.58970,
,,,2367.42247, -44.58970,
,,,2372.35460, -40.58970,
,,,2377.28673, -41.38970,
,,,2382.21886, -44.58970,
,,,2387.15099, -46.98970,
,,,2392.08312, -46.98970,
,,,2397.01525, -46.98970,
,,,2401.94738, -46.98970,
,,,2406.87951, -44.58970,
,,,2411.81164, -44.58970,
,,,2416.74377, -44.58970,
,,,2421.67590, -46.98970,
,,,2426.60803, -46.98970,
,,,2431.54016, -46.98970,
,,,2436.47229, -44.58970,
,,,2441.40442, -46.98970,
,,,2446.33655, -46.98970,
,,,2451.26868, -46.98970,
,,,2456.20081, -46.98970,
,,,2461.13294, -46.98970,
,,,2466.06507, -44.58970,
,,,2470.99720, -46.98970,
,,,2475.92933, -46.98970,
,,,2480.86146, -44.58970,
,,,2485.79359, -44.58970,
,,,2490.72572, -46.98970,
,,,2495.65785, -44.58970,
,,,2500.58998, -46.98970,
,,,2505.52211, -46.98970,
,,,2510.45424, -41.38970,
,,,2515.38637, -46.98970,
,,,2520.31850, -44.58970,
,,,2525.25063, -46.98970,
,,,2530.18276, -41.38970,
,,,2535.11489, -46.98970,
,,,2540.04702, -46.98970,
,,,2544.97915, -46.98970,
,,,2549.91128, -46.98970,
,,,2554.84341, -46.98970,
,,,2559.77554, -46.98970,
,,,2564.70767, -46.98970,
,,,2569.63980, -44.58970,
,,,2574.57193, -44.58970,
,,,2579.50406, -44.58970,
,,,2584.43619, -44.58970,
,,,2589.36832, -44.58970,
,,,2594.30045, -44.58970,
,,,2599.23258, -44.58970,
,,,2604.16471, -46.98970,
,,,2609.09684, -44.58970,
,,,2614.02897, -40.58970,
,,,2618.96110, -40.58970,
,,,2623.89323, -46.98970,
,,,2628.82536, -46.98970,
,,,2633.75749, -44.58970,
,,,2638.68962, -44.58970,
,,,2643.62175, -46.98970,
,,,2648.55388, -46.98970,
,,,2653.48601, -44.58970,
,,,2658.41814, -44.58970,
,,,2663.35027, -40.58970,
,,,2668.28240, -44.58970,
,,,2673.21453, -44.58970,
,,,2678.14666, -46.98970,
,,,2683.07879, -41.38970,
,,,2688.01092, -41.38970,
,,,2692.94305, -41.38970,
,,,2697.87518, -41.38970,
,,,2702.80731, -40.58970,
,,,2707.73944, -46.98970,
,,,2712.67157, -44.58970,
,,,2717.60370, -40.58970,
,,,2722.53583, -44.58970,
,,,2727.46796, -46.98970,
,,,2732.40009, -46.98970,
,,,2737.33222, -46.98970,
,,,2742.26435, -46.98970,
,,,2747.19648, -46.98970,
,,,2752.12861, -46.98970,
,,,2757.06074, -46.98970,
,,,2761.99287, -46.98970,
,,,2766.92500, -46.98970,
,,,2771.85713, -46.98970,
,,,2776.78926, -46.98970,
,,,2781.72139, -46.98970,
,,,2786.65352, -46.98970,
,,,2791.58565, -44.58970,
,,,2796.51778, -46.98970,
,,,2801.44991, -46.98970,
,,,2806.38204, -40.58970,
,,,2811.31417, -46.98970,
,,,2816.24630, -44.58970,
,,,2821.17843, -44.58970,
,,,2826.11056, -44.58970,
,,,2831.04269, -46.98970,
,,,2835.97482, -46.98970,
,,,2840.90695, -46.98970,
,,,2845.83908, -46.98970,
,,,2850.77121, -46.98970,
,,,2855.70334, -40.58970,
,,,2860.63547, -46.98970,
,,,2865.56760, -44.58970,
,,,2870.49973, -46.98970,
,,,2875.43186, -46.98970,
,,,2880.36399, -44.58970,
,,,2885.29612, -46.98970,
,,,2890.22825, -46.98970,
,,,2895.16038, -46.98970,
,,,2900.09251, -46.98970,
,,,2905.02464, -46.98970,
,,,2909.95677, -46.98970,
,,,2914.88890, -46.98970,
,,,2919.82103, -46.98970,
,,,2924.75316, -46.98970,
,,,2929.68529, -46.98970,
,,,2934.61742, -46.98970,
,,,2939.54955, -46.98970,
,,,2944.48168, -46.98970,
,,,2949.41381, -46.98970,
,,,2954.34594, -46.98970,
,,,2959.27807, -46.98970,
,,,2964.21020, -46.98970,
,,,2969.14233, -46.98970,
,,,2974.07446, -46.98970,
,,,2979.00659, -46.98970,
,,,2983.93872, -44.58970,
,,,2988.87085, -44.58970,
,,,2993.80298, -44.58970,
,,,2998.73511, -44.58970,
,,,3003.66724, -46.98970,
,,,3008.59937, -44.58970,
,,,3013.53150, -44.58970,
,,,3018.46363, -46.98970,
,,,3023.39576, -41.38970,
,,,3028.32789, -44.58970,
,,,3033.26002, -44.58970,
,,,3038.19215, -44.58970,
,,,3043.12428, -44.58970,
,,,3048.05641, -44.58970,
,,,3052.98854, -46.98970,
,,,3057.92067, -46.98970,
,,,3062.85280, -46.98970,
,,,3067.78493, -44.58970,
,,,3072.71706, -46.98970,
,,,3077.64919, -46.98970,
,,,3082.58132, -46.98970,
,,,3087.51345, -46.98970,
,,,3092.44558, -46.98970,
,,,3097.37771, -46.98970,
,,,3102.30984, -46.98970,
,,,3107.24197, -46.98970,
,,,3112.17410, -46.98970,
,,,3117.10623, -46.98970,
,,,3122.03836, -46.98970,
,,,3126.97049, -46.98970,
,,,3131.90262, -44.58970,
,,,3136.83475, -46.98970,
,,,3141.76688, -46.98970,
,,,3146.69901, -46.98970,
,,,3151.63114, -46.98970,
,,,3156.56327, -46.98970,
,,,3161.49540, -44.58970,
,,,3166.42753, -46.98970,
,,,3171.35966, -46.98970,
,,,3176.29179, -46.98970,
,,,3181.22392, -46.98970,
,,,3186.15605, -46.98970,
,,,3191.08818, -46.98970,
,,,3196.02031, -46.98970,
,,,3200.95244, -46.98970,
,,,3205.88457, -44.58970,
,,,3210.81670, -44.58970,
,,,3215.74883, -46.98970,
,,,3220.68096, -46.98970,
,,,3225.61309, -46.98970,
,,,3230.54522, -46.98970,
,,,3235.47735, -46.98970,
,,,3240.40948, -46.98970,
,,,3245.34161, -46.98970,
,,,3250.27374, -46.98970,
,,,3255.20587, -46.98970,
,,,3260.13800, -46.98970,
,,,3265.07013, -46.98970,
,,,3270.00226, -46.98970,
,,,3274.93439, -44.58970,
,,,3279.86652, -46.98970,
,,,3284.79865, -46.98970,
,,,3289.73078, -46.98970,
,,,3294.66291, -46.98970,
,,,3299.59504, -46.98970,
,,,3304.52717, -46.98970,
,,,3309.45930, -46.98970,
,,,3314.39143, -46.98970,
,,,3319.32356, -44.58970,
,,,3324.25569, -44.58970,
,,,3329.18782, -46.98970,
,,,3334.11995, -44.58970,
,,,3339.05208, -46.98970,
,,,3343.98421, -44.58970,
,,,3348.91634, -44.58970,
,,,3353.84847, -46.98970,
,,,3358.78060, -46.98970,
,,,3363.71273, -46.98970,
,,,3368.64486, -46.98970,
,,,3373.57699, -46.98970,
,,,3378.50912, -46.98970,
,,,3383.44125, -44.58970,
,,,3388.37338, -46.98970,
,,,3393.30551, -46.98970,
,,,3398.23764, -46.98970,
,,,3403.16977, -46.98970,
,,,3408.10190, -44.58970,
,,,3413.03403, -46.98970,
,,,3417.96616, -44.58970,
,,,3422.89829, -40.58970,
,,,3427.83042, -44.58970,
,,,3432.76255, -46.98970,
,,,3437.69468, -46.98970,
,,,3442.62681, -44.58970,
,,,3447.55894, -46.98970,
,,,3452.49107, -46.98970,
,,,3457.42320, -46.98970,
,,,3462.35533, -46.98970,
,,,3467.28746, -41.38970,
,,,3472.21959, -46.98970,
,,,3477.15172, -44.58970,
,,,3482.08385, -46.98970,
,,,3487.01598, -44.58970,
,,,3491.94811, -44.58970,
,,,3496.88024, -44.58970,
,,,3501.81237, -44.58970,
,,,3506.74450, -44.58970,
,,,3511.67663, -46.98970,
,,,3516.60876, -46.98970,
,,,3521.54089, -46.98970,
,,,3526.47302, -46.98970,
,,,3531.40515, -44.58970,
,,,3536.33728, -44.58970,
,,,3541.26941, -46.98970,
,,,3546.20154, -46.98970,
,,,3551.13367, -46.98970,
,,,3556.06580, -46.98970,
,,,3560.99793, -46.98970,
,,,3565.93006, -46.98970,
,,,3570.86219, -46.98970,
,,,3575.79432, -46.98970,
,,,3580.72645, -46.98970,
,,,3585.65858, -46.98970,
,,,3590.59071, -46.98970,
,,,3595.52284, -44.58970,
,,,3600.45497, -46.98970,
,,,3605.38710, -46.98970,
,,,3610.31923, -44.58970,
,,,3615.25136, -41.38970,
,,,3620.18349, -46.98970,
,,,3625.11562, -46.98970,
,,,3630.04775, -46.98970,
,,,3634.97988, -46.98970,
,,,3639.91201, -44.58970,
,,,3644.84414, -46.98970,
,,,3649.77627, -46.98970,
,,,3654.70840, -44.58970,
,,,3659.64053, -46.98970,
,,,3664.57266, -46.98970,
,,,3669.50479, -46.98970,
,,,3674.43692, -44.58970,
,,,3679.36905, -46.98970,
,,,3684.30118, -46.98970,
,,,3689.23331, -46.98970,
,,,3694.16544, -46.98970,
,,,3699.09757, -46.98970,
,,,3704.02970, -46.98970,
,,,3708.96183, -46.98970,
,,,3713.89396, -41.38970,
,,,3718.82609, -46.98970,
,,,3723.75822, -46.98970,
,,,3728.69035, -46.98970,
,,,3733.62248, -46.98970,
,,,3738.55461, -46.98970,
