furier_c2/ALL0001/F0001FFT.CSV

Record Length,1.024000e+03,,          0.00000, -54.94850,
Sample Interval,4.932134e+00,,          4.93213,   1.45150,
Trigger Point,-0.000000000000e+00,,          9.86427,   6.65150,
,,,         14.79640,   7.05150,
,,,         19.72854,   6.25150,
,,,         24.66067,  -2.14850,
Source,FFT,,         29.59280, -24.54850,
Vertical Units,dB,,         34.52494,  -5.34850,
Vertical Scale,1.000000e+01,,         39.45707,  -2.54850,
Vertical Offset,0.000000e+00,,         44.38920,  -2.54850,
Horizontal Units,Hz,,         49.32134,  -4.54850,
Horizontal Scale,5.050505e+02,,         54.25347, -16.94850,
Pt Fmt,Y,,         59.18561, -20.54850,
Yzero,-1.494850e+01,,         64.11774,  -8.14850,
Probe Atten,1.000000e+00,,         69.04987,  -6.94850,
Model Number,TBS1052B-EDU,,         73.98201,  -6.94850,
Serial Number,C027597,,         78.91414, -10.54850,
Firmware Version,FV:v4.06,,         83.84628, -29.34850,
,,,88.77841, -17.74850,
,,,93.71054, -10.14850,
,,,98.64267,  -9.74850,
,,,103.57480,  -9.74850,
,,,108.50693, -16.54850,
,,,113.43906, -35.74850,
,,,118.37119, -16.14850,
,,,123.30332, -11.74850,
,,,128.23545, -11.74850,
,,,133.16758, -12.54850,
,,,138.09971, -23.34850,
,,,143.03184, -30.94850,
,,,147.96397, -15.34850,
,,,152.89610, -12.94850,
,,,157.82823, -12.94850,
,,,162.76036, -15.34850,
,,,167.69249, -30.14850,
,,,172.62462, -24.94850,
,,,177.55675, -14.94850,
,,,182.48888, -14.14850,
,,,187.42101, -14.14850,
,,,192.35314, -18.94850,
,,,197.28527, -38.14850,
,,,202.21740, -21.34850,
,,,207.14953, -15.34850,
,,,212.08166, -14.94850,
,,,217.01379, -15.34850,
,,,221.94592, -23.34850,
,,,226.87805, -38.14850,
,,,231.81018, -19.34850,
,,,236.74231, -15.74850,
,,,241.67444, -15.74850,
,,,246.60657, -17.34850,
,,,251.53870, -29.34850,
,,,256.47083, -30.94850,
,,,261.40296, -17.74850,
,,,266.33509, -16.14850,
,,,271.26722, -15.74850,
,,,276.19935, -18.94850,
,,,281.13148, -37.34850,
,,,286.06361, -25.74850,
,,,290.99574, -16.94850,
,,,295.92787, -16.14850,
,,,300.86000, -16.54850,
,,,305.79213, -21.74850,
,,,310.72426, -40.94850,
,,,315.65639, -21.74850,
,,,320.58852, -16.54850,
,,,325.52065, -16.54850,
,,,330.45278, -17.34850,
,,,335.38491, -26.94850,
,,,340.31704, -36.54850,
,,,345.24917, -19.34850,
,,,350.18130, -16.54850,
,,,355.11343, -16.14850,
,,,360.04556, -18.14850,
,,,364.97769, -31.34850,
,,,369.90982, -28.54850,
,,,374.84195, -17.74850,
,,,379.77408, -16.54850,
,,,384.70621, -16.54850,
,,,389.63834, -20.14850,
,,,394.57047, -37.34850,
,,,399.50260, -23.74850,
,,,404.43473, -16.94850,
,,,409.36686, -16.54850,
,,,414.29899, -16.54850,
,,,419.23112, -23.34850,
,,,424.16325, -39.74850,
,,,429.09538, -20.94850,
,,,434.02751, -16.54850,
,,,438.95964, -16.54850,
,,,443.89177, -17.74850,
,,,448.82390, -28.14850,
,,,453.75603, -33.74850,
,,,458.68816, -18.94850,
,,,463.62029, -16.94850,
,,,468.55242, -16.94850,
,,,473.48455, -19.34850,
,,,478.41668, -34.54850,
,,,483.34881, -28.14850,
,,,488.28094, -18.54850,
,,,493.21307, -17.34850,
,,,498.14520, -17.74850,
,,,503.07733, -22.54850,
,,,508.00946, -40.94850,
,,,512.94159, -24.54850,
,,,517.87372, -18.54850,
,,,522.80585, -18.54850,
,,,527.73798, -18.94850,
,,,532.67011, -26.94850,
,,,537.60224, -41.34850,
,,,542.53437, -23.34850,
,,,547.46650, -19.74850,
,,,552.39863, -19.74850,
,,,557.33076, -20.94850,
,,,562.26289, -32.54850,
,,,567.19502, -34.94850,
,,,572.12715, -22.94850,
,,,577.05928, -21.34850,
,,,581.99141, -20.94850,
,,,586.92354, -24.54850,
,,,591.85567, -42.54850,
,,,596.78780, -31.34850,
,,,601.71993, -23.34850,
,,,606.65206, -22.54850,
,,,611.58419, -22.94850,
,,,616.51632, -28.54850,
,,,621.44845, -45.74850,
,,,626.38058, -28.94850,
,,,631.31271, -24.14850,
,,,636.24484, -24.14850,
,,,641.17697, -24.94850,
,,,646.10910, -34.14850,
,,,651.04123, -42.94850,
,,,655.97336, -28.14850,
,,,660.90549, -25.34850,
,,,665.83762, -25.74850,
,,,670.76975, -27.74850,
,,,675.70188, -41.34850,
,,,680.63401, -40.94850,
,,,685.56614, -28.54850,
,,,690.49827, -26.94850,
,,,695.43040, -26.94850,
,,,700.36253, -30.94850,
,,,705.29466, -45.34850,
,,,710.22679, -34.94850,
,,,715.15892, -27.74850,
,,,720.09105, -28.14850,
,,,725.02318, -28.54850,
,,,729.95531, -36.14850,
,,,734.88744, -54.94850,
,,,739.81957, -34.14850,
,,,744.75170, -28.94850,
,,,749.68383, -28.54850,
,,,754.61596, -30.14850,
,,,759.54809, -41.34850,
,,,764.48022, -45.34850,
,,,769.41235, -32.14850,
,,,774.34448, -30.14850,
,,,779.27661, -29.74850,
,,,784.20874, -32.14850,
,,,789.14087, -45.74850,
,,,794.07300, -39.74850,
,,,799.00513, -31.74850,
,,,803.93726, -30.94850,
,,,808.86939, -30.94850,
,,,813.80152, -35.74850,
,,,818.73365, -52.54850,
,,,823.66578, -38.54850,
,,,828.59791, -32.54850,
,,,833.53004, -32.54850,
,,,838.46217, -32.54850,
,,,843.39430, -39.74850,
,,,848.32643, -45.34850,
,,,853.25856, -34.54850,
,,,858.19069, -32.54850,
,,,863.12282, -32.94850,
,,,868.05495, -34.54850,
,,,872.98708, -48.54850,
,,,877.91921, -49.34850,
,,,882.85134, -35.34850,
,,,887.78347, -33.74850,
,,,892.71560, -32.94850,
,,,897.64773, -37.34850,
,,,902.57986, -49.34850,
,,,907.51199, -43.34850,
,,,912.44412, -34.54850,
,,,917.37625, -33.74850,
,,,922.30838, -33.74850,
,,,927.24051, -41.34850,
,,,932.17264, -54.94850,
,,,937.10477, -39.74850,
,,,942.03690, -35.34850,
,,,946.96903, -36.14850,
,,,951.90116, -36.94850,
,,,956.83329, -44.14850,
,,,961.76542, -48.54850,
,,,966.69755, -36.94850,
,,,971.62968, -34.94850,
,,,976.56181, -34.94850,
,,,981.49394, -36.94850,
,,,986.42607, -52.54850,
,,,991.35820, -46.54850,
,,,996.29033, -37.74850,
,,,1001.22246, -36.94850,
,,,1006.15459, -36.94850,
,,,1011.08672, -40.94850,
,,,1016.01885, -54.94850,
,,,1020.95098, -44.14850,
,,,1025.88311, -37.74850,
,,,1030.81524, -38.14850,
,,,1035.74737, -38.14850,
,,,1040.67950, -45.34850,
,,,1045.61163, -54.94850,
,,,1050.54376, -42.54850,
,,,1055.47589, -38.14850,
,,,1060.40802, -38.94850,
,,,1065.34015, -39.34850,
,,,1070.27228, -49.34850,
,,,1075.20441, -52.54850,
,,,1080.13654, -40.14850,
,,,1085.06867, -38.14850,
,,,1090.00080, -37.74850,
,,,1094.93293, -40.54850,
,,,1099.86506, -49.34850,
,,,1104.79719, -48.54850,
,,,1109.72932, -38.94850,
,,,1114.66145, -37.34850,
,,,1119.59358, -37.74850,
,,,1124.52571, -40.94850,
,,,1129.45784, -48.54850,
,,,1134.38997, -40.94850,
,,,1139.32210, -37.34850,
,,,1144.25423, -38.14850,
,,,1149.18636, -38.94850,
,,,1154.11849, -45.74850,
,,,1159.05062, -52.54850,
,,,1163.98275, -40.14850,
,,,1168.91488, -38.94850,
,,,1173.84701, -38.14850,
,,,1178.77914, -39.34850,
,,,1183.71127, -46.54850,
,,,1188.64340, -48.54850,
,,,1193.57553, -38.54850,
,,,1198.50766, -38.54850,
,,,1203.43979, -39.34850,
,,,1208.37192, -42.94850,
,,,1213.30405, -54.94850,
,,,1218.23618, -52.54850,
,,,1223.16831, -39.34850,
,,,1228.10044, -40.14850,
,,,1233.03257, -38.14850,
,,,1237.96470, -44.14850,
,,,1242.89683, -54.94850,
,,,1247.82896, -44.14850,
,,,1252.76109, -39.34850,
,,,1257.69322, -40.14850,
,,,1262.62535, -40.54850,
,,,1267.55748, -52.54850,
,,,1272.48961, -52.54850,
,,,1277.42174, -41.34850,
,,,1282.35387, -37.74850,
,,,1287.28600, -38.14850,
,,,1292.21813, -40.14850,
,,,1297.15026, -52.54850,
,,,1302.08239, -54.94850,
,,,1307.01452, -42.94850,
,,,1311.94665, -42.94850,
,,,1316.87878, -40.54850,
,,,1321.81091, -46.54850,
,,,1326.74304, -52.54850,
,,,1331.67517, -45.34850,
,,,1336.60730, -40.54850,
,,,1341.53943, -40.54850,
,,,1346.47156, -40.54850,
,,,1351.40369, -48.54850,
,,,1356.33582, -48.54850,
,,,1361.26795, -42.54850,
,,,1366.20008, -39.34850,
,,,1371.13221, -39.34850,
,,,1376.06434, -40.14850,
,,,1380.99647, -48.54850,
,,,1385.92860, -52.54850,
,,,1390.86073, -41.34850,
,,,1395.79286, -38.94850,
,,,1400.72499, -38.94850,
,,,1405.65712, -42.94850,
,,,1410.58925, -52.54850,
,,,1415.52138, -45.74850,
,,,1420.45351, -39.74850,
,,,1425.38564, -38.14850,
,,,1430.31777, -39.34850,
,,,1435.24990, -42.94850,
,,,1440.18203, -52.54850,
,,,1445.11416, -45.34850,
,,,1450.04629, -39.34850,
,,,1454.97842, -39.34850,
,,,1459.91055, -39.34850,
,,,1464.84268, -45.74850,
,,,1469.77481, -54.94850,
,,,1474.70694, -42.94850,
,,,1479.63907, -38.94850,
,,,1484.57120, -38.94850,
,,,1489.50333, -38.94850,
,,,1494.43546, -52.54850,
,,,1499.36759, -48.54850,
,,,1504.29972, -40.14850,
,,,1509.23185, -38.94850,
,,,1514.16398, -37.74850,
,,,1519.09611, -40.94850,
,,,1524.02824, -54.94850,
,,,1528.96037, -48.54850,
,,,1533.89250, -40.14850,
,,,1538.82463, -40.14850,
,,,1543.75676, -39.34850,
,,,1548.68889, -46.54850,
,,,1553.62102, -54.94850,
,,,1558.55315, -44.14850,
,,,1563.48528, -39.34850,
,,,1568.41741, -39.34850,
,,,1573.34954, -40.54850,
,,,1578.28167, -48.54850,
,,,1583.21380, -54.94850,
,,,1588.14593, -41.34850,
,,,1593.07806, -40.54850,
,,,1598.01019, -40.54850,
,,,1602.94232, -44.14850,
,,,1607.87445, -54.94850,
,,,1612.80658, -54.94850,
,,,1617.73871, -40.14850,
,,,1622.67084, -38.54850,
,,,1627.60297, -39.34850,
,,,1632.53510, -42.94850,
,,,1637.46723, -54.94850,
,,,1642.39936, -48.54850,
,,,1647.33149, -39.34850,
,,,1652.26362, -39.34850,
,,,1657.19575, -38.14850,
,,,1662.12788, -42.54850,
,,,1667.06001, -45.34850,
,,,1671.99214, -40.54850,
,,,1676.92427, -39.34850,
,,,1681.85640, -38.94850,
,,,1686.78853, -42.54850,
,,,1691.72066, -54.94850,
,,,1696.65279, -52.54850,
,,,1701.58492, -45.34850,
,,,1706.51705, -44.14850,
,,,1711.44918, -44.14850,
,,,1716.38131, -45.34850,
,,,1721.31344, -52.54850,
,,,1726.24557, -48.54850,
,,,1731.17770, -42.54850,
,,,1736.10983, -42.54850,
,,,1741.04196, -42.54850,
,,,1745.97409, -48.54850,
,,,1750.90622, -54.94850,
,,,1755.83835, -54.94850,
,,,1760.77048, -44.14850,
,,,1765.70261, -44.14850,
,,,1770.63474, -46.54850,
,,,1775.56687, -49.34850,
,,,1780.49900, -54.94850,
,,,1785.43113, -48.54850,
,,,1790.36326, -42.94850,
,,,1795.29539, -44.14850,
,,,1800.22752, -44.14850,
,,,1805.15965, -52.54850,
,,,1810.09178, -52.54850,
,,,1815.02391, -48.54850,
,,,1819.95604, -45.34850,
,,,1824.88817, -42.94850,
,,,1829.82030, -48.54850,
,,,1834.75243, -52.54850,
,,,1839.68456, -52.54850,
,,,1844.61669, -48.54850,
,,,1849.54882, -54.94850,
,,,1854.48095, -52.54850,
,,,1859.41308, -54.94850,
,,,1864.34521, -54.94850,
,,,1869.27734, -54.94850,
,,,1874.20947, -45.74850,
,,,1879.14160, -45.74850,
,,,1884.07373, -48.54850,
,,,1889.00586, -54.94850,
,,,1893.93799, -54.94850,
,,,1898.87012, -54.94850,
,,,1903.80225, -52.54850,
,,,1908.73438, -48.54850,
,,,1913.66651, -54.94850,
,,,1918.59864, -54.94850,
,,,1923.53077, -54.94850,
,,,1928.46290, -54.94850,
,,,1933.39503, -54.94850,
,,,1938.32716, -54.94850,
,,,1943.25929, -54.94850,
,,,1948.19142, -54.94850,
,,,1953.12355, -54.94850,
,,,1958.05568, -52.54850,
,,,1962.98781, -52.54850,
,,,1967.91994, -52.54850,
,,,1972.85207, -52.54850,
,,,1977.78420, -54.94850,
,,,1982.71633, -52.54850,
,,,1987.64846, -52.54850,
,,,1992.58059, -54.94850,
,,,1997.51272, -54.94850,
,,,2002.44485, -54.94850,
,,,2007.37698, -54.94850,
,,,2012.30911, -54.94850,
,,,2017.24124, -54.94850,
,,,2022.17337, -52.54850,
,,,2027.10550, -54.94850,
,,,2032.03763, -54.94850,
,,,2036.96976, -54.94850,
,,,2041.90189, -54.94850,
,,,2046.83402, -52.54850,
,,,2051.76615, -54.94850,
,,,2056.69828, -54.94850,
,,,2061.63041, -54.94850,
,,,2066.56254, -54.94850,
,,,2071.49467, -52.54850,
,,,2076.42680, -52.54850,
,,,2081.35893, -52.54850,
,,,2086.29106, -52.54850,
,,,2091.22319, -52.54850,
,,,2096.15532, -52.54850,
,,,2101.08745, -54.94850,
,,,2106.01958, -54.94850,
,,,2110.95171, -54.94850,
,,,2115.88384, -52.54850,
,,,2120.81597, -54.94850,
,,,2125.74810, -54.94850,
,,,2130.68023, -54.94850,
,,,2135.61236, -48.54850,
,,,2140.54449, -54.94850,
,,,2145.47662, -49.34850,
,,,2150.40875, -48.54850,
,,,2155.34088, -48.54850,
,,,2160.27301, -49.34850,
,,,2165.20514, -52.54850,
,,,2170.13727, -52.54850,
,,,2175.06940, -54.94850,
,,,2180.00153, -54.94850,
,,,2184.93366, -54.94850,
,,,2189.86579, -54.94850,
,,,2194.79792, -54.94850,
,,,2199.73005, -52.54850,
,,,2204.66218, -54.94850,
,,,2209.59431, -54.94850,
,,,2214.52644, -54.94850,
,,,2219.45857, -54.94850,
,,,2224.39070, -54.94850,
,,,2229.32283, -54.94850,
,,,2234.25496, -52.54850,
,,,2239.18709, -54.94850,
,,,2244.11922, -54.94850,
,,,2249.05135, -54.94850,
,,,2253.98348, -52.54850,
,,,2258.91561, -54.94850,
,,,2263.84774, -54.94850,
,,,2268.77987, -54.94850,
,,,2273.71200, -54.94850,
,,,2278.64413, -54.94850,
,,,2283.57626, -52.54850,
,,,2288.50839, -54.94850,
,,,2293.44052, -52.54850,
,,,2298.37265, -54.94850,
,,,2303.30478, -49.34850,
,,,2308.23691, -54.94850,
,,,2313.16904, -54.94850,
,,,2318.10117, -54.94850,
,,,2323.03330, -52.54850,
,,,2327.96543, -54.94850,
,,,2332.89756, -54.94850,
,,,2337.82969, -54.94850,
,,,2342.76182, -54.94850,
,,,2347.69395, -54.94850,
,,,2352.62608, -54.94850,
,,,2357.55821, -54.94850,
,,,2362.49034, -54.94850,
,,,2367.42247, -54.94850,
,,,2372.35460, -54.94850,
,,,2377.28673, -54.94850,
,,,2382.21886, -54.94850,
,,,2387.15099, -54.94850,
,,,2392.08312, -54.94850,
,,,2397.01525, -54.94850,
,,,2401.94738, -54.94850,
,,,2406.87951, -54.94850,
,,,2411.81164, -54.94850,
,,,2416.74377, -54.94850,
,,,2421.67590, -54.94850,
,,,2426.60803, -52.54850,
,,,2431.54016, -54.94850,
,,,2436.47229, -52.54850,
,,,2441.40442, -54.94850,
,,,2446.33655, -54.94850,
,,,2451.26868, -54.94850,
,,,2456.20081, -54.94850,
,,,2461.13294, -52.54850,
,,,2466.06507, -49.34850,
,,,2470.99720, -54.94850,
,,,2475.92933, -54.94850,
,,,2480.86146, -54.94850,
,,,2485.79359, -54.94850,
,,,2490.72572, -48.54850,
,,,2495.65785, -52.54850,
,,,2500.58998, -52.54850,
,,,2505.52211, -52.54850,
,,,2510.45424, -54.94850,
,,,2515.38637, -49.34850,
,,,2520.31850, -52.54850,
,,,2525.25063, -52.54850,
,,,2530.18276, -54.94850,
,,,2535.11489, -54.94850,
,,,2540.04702, -54.94850,
,,,2544.97915, -54.94850,
,,,2549.91128, -54.94850,
,,,2554.84341, -54.94850,
,,,2559.77554, -54.94850,
,,,2564.70767, -54.94850,
,,,2569.63980, -54.94850,
,,,2574.57193, -54.94850,
,,,2579.50406, -54.94850,
,,,2584.43619, -54.94850,
,,,2589.36832, -54.94850,
,,,2594.30045, -54.94850,
,,,2599.23258, -54.94850,
,,,2604.16471, -54.94850,
,,,2609.09684, -54.94850,
,,,2614.02897, -54.94850,
,,,2618.96110, -52.54850,
,,,2623.89323, -49.34850,
,,,2628.82536, -52.54850,
,,,2633.75749, -52.54850,
,,,2638.68962, -52.54850,
,,,2643.62175, -54.94850,
,,,2648.55388, -54.94850,
,,,2653.48601, -54.94850,
,,,2658.41814, -54.94850,
,,,2663.35027, -54.94850,
,,,2668.28240, -54.94850,
,,,2673.21453, -52.54850,
,,,2678.14666, -52.54850,
,,,2683.07879, -54.94850,
,,,2688.01092, -54.94850,
,,,2692.94305, -54.94850,
,,,2697.87518, -54.94850,
,,,2702.80731, -54.94850,
,,,2707.73944, -54.94850,
,,,2712.67157, -54.94850,
,,,2717.60370, -54.94850,
,,,2722.53583, -54.94850,
,,,2727.46796, -54.94850,
,,,2732.40009, -54.94850,
,,,2737.33222, -54.94850,
,,,2742.26435, -54.94850,
,,,2747.19648, -52.54850,
,,,2752.12861, -54.94850,
,,,2757.06074, -54.94850,
,,,2761.99287, -54.94850,
,,,2766.92500, -54.94850,
,,,2771.85713, -54.94850,
,,,2776.78926, -52.54850,
,,,2781.72139, -54.94850,
,,,2786.65352, -54.94850,
,,,2791.58565, -52.54850,
,,,2796.51778, -52.54850,
,,,2801.44991, -48.54850,
,,,2806.38204, -54.94850,
,,,2811.31417, -54.94850,
,,,2816.24630, -52.54850,
,,,2821.17843, -52.54850,
,,,2826.11056, -54.94850,
,,,2831.04269, -54.94850,
,,,2835.97482, -54.94850,
,,,2840.90695, -49.34850,
,,,2845.83908, -54.94850,
,,,2850.77121, -54.94850,
,,,2855.70334, -52.54850,
,,,2860.63547, -52.54850,
,,,2865.56760, -54.94850,
,,,2870.49973, -52.54850,
,,,2875.43186, -54.94850,
,,,2880.36399, -52.54850,
,,,2885.29612, -54.94850,
,,,2890.22825, -54.94850,
,,,2895.16038, -54.94850,
,,,2900.09251, -54.94850,
,,,2905.02464, -54.94850,
,,,2909.95677, -54.94850,
,,,2914.88890, -54.94850,
,,,2919.82103, -54.94850,
,,,2924.75316, -54.94850,
,,,2929.68529, -54.94850,
,,,2934.61742, -54.94850,
,,,2939.54955, -52.54850,
,,,2944.48168, -52.54850,
,,,2949.41381, -54.94850,
,,,2954.34594, -54.94850,
,,,2959.27807, -54.94850,
,,,2964.21020, -54.94850,
,,,2969.14233, -54.94850,
,,,2974.07446, -54.94850,
,,,2979.00659, -52.54850,
,,,2983.93872, -54.94850,
,,,2988.87085, -52.54850,
,,,2993.80298, -54.94850,
,,,2998.73511, -54.94850,
,,,3003.66724, -54.94850,
,,,3008.59937, -52.54850,
,,,3013.53150, -52.54850,
,,,3018.46363, -54.94850,
,,,3023.39576, -54.94850,
,,,3028.32789, -54.94850,
,,,3033.26002, -54.94850,
,,,3038.19215, -54.94850,
,,,3043.12428, -54.94850,
,,,3048.05641, -54.94850,
,,,3052.98854, -52.54850,
,,,3057.92067, -54.94850,
,,,3062.85280, -52.54850,
,,,3067.78493, -54.94850,
,,,3072.71706, -54.94850,
,,,3077.64919, -54.94850,
,,,3082.58132, -54.94850,
,,,3087.51345, -49.34850,
,,,3092.44558, -49.34850,
,,,3097.37771, -54.94850,
,,,3102.30984, -52.54850,
,,,3107.24197, -52.54850,
,,,3112.17410, -54.94850,
,,,3117.10623, -54.94850,
,,,3122.03836, -54.94850,
,,,3126.97049, -52.54850,
,,,3131.90262, -54.94850,
,,,3136.83475, -54.94850,
,,,3141.76688, -54.94850,
,,,3146.69901, -54.94850,
,,,3151.63114, -54.94850,
,,,3156.56327, -54.94850,
,,,3161.49540, -54.94850,
,,,3166.42753, -54.94850,
,,,3171.35966, -54.94850,
,,,3176.29179, -52.54850,
,,,3181.22392, -54.94850,
,,,3186.15605, -54.94850,
,,,3191.08818, -54.94850,
,,,3196.02031, -54.94850,
,,,3200.95244, -54.94850,
,,,3205.88457, -54.94850,
,,,3210.81670, -54.94850,
,,,3215.74883, -54.94850,
,,,3220.68096, -54.94850,
,,,3225.61309, -54.94850,
,,,3230.54522, -54.94850,
,,,3235.47735, -52.54850,
,,,3240.40948, -54.94850,
,,,3245.34161, -54.94850,
,,,3250.27374, -54.94850,
,,,3255.20587, -54.94850,
,,,3260.13800, -54.94850,
,,,3265.07013, -54.94850,
,,,3270.00226, -54.94850,
,,,3274.93439, -52.54850,
,,,3279.86652, -48.54850,
,,,3284.79865, -49.34850,
,,,3289.73078, -52.54850,
,,,3294.66291, -54.94850,
,,,3299.59504, -54.94850,
,,,3304.52717, -54.94850,
,,,3309.45930, -54.94850,
,,,3314.39143, -54.94850,
,,,3319.32356, -54.94850,
,,,3324.25569, -54.94850,
,,,3329.18782, -54.94850,
,,,3334.11995, -52.54850,
,,,3339.05208, -54.94850,
,,,3343.98421, -52.54850,
,,,3348.91634, -54.94850,
,,,3353.84847, -52.54850,
,,,3358.78060, -54.94850,
,,,3363.71273, -54.94850,
,,,3368.64486, -54.94850,
,,,3373.57699, -54.94850,
,,,3378.50912, -54.94850,
,,,3383.44125, -54.94850,
,,,3388.37338, -54.94850,
,,,3393.30551, -54.94850,
,,,3398.23764, -54.94850,
,,,3403.16977, -54.94850,
,,,3408.10190, -54.94850,
,,,3413.03403, -54.94850,
,,,3417.96616, -54.94850,
,,,3422.89829, -54.94850,
,,,3427.83042, -52.54850,
,,,3432.76255, -52.54850,
,,,3437.69468, -54.94850,
,,,3442.62681, -54.94850,
,,,3447.55894, -54.94850,
,,,3452.49107, -54.94850,
,,,3457.42320, -52.54850,
,,,3462.35533, -48.54850,
,,,3467.28746, -48.54850,
,,,3472.21959, -54.94850,
,,,3477.15172, -54.94850,
,,,3482.08385, -52.54850,
,,,3487.01598, -54.94850,
,,,3491.94811, -54.94850,
,,,3496.88024, -52.54850,
,,,3501.81237, -54.94850,
,,,3506.74450, -54.94850,
,,,3511.67663, -54.94850,
,,,3516.60876, -54.94850,
,,,3521.54089, -54.94850,
,,,3526.47302, -54.94850,
,,,3531.40515, -54.94850,
,,,3536.33728, -54.94850,
,,,3541.26941, -54.94850,
,,,3546.20154, -54.94850,
,,,3551.13367, -54.94850,
,,,3556.06580, -49.34850,
,,,3560.99793, -48.54850,
,,,3565.93006, -52.54850,
,,,3570.86219, -54.94850,
,,,3575.79432, -54.94850,
,,,3580.72645, -54.94850,
,,,3585.65858, -52.54850,
,,,3590.59071, -54.94850,
,,,3595.52284, -54.94850,
,,,3600.45497, -54.94850,
,,,3605.38710, -52.54850,
,,,3610.31923, -52.54850,
,,,3615.25136, -48.54850,
,,,3620.18349, -52.54850,
,,,3625.11562, -54.94850,
,,,3630.04775, -54.94850,
,,,3634.97988, -54.94850,
,,,3639.91201, -54.94850,
,,,3644.84414, -54.94850,
,,,3649.77627, -52.54850,
,,,3654.70840, -52.54850,
,,,3659.64053, -54.94850,
,,,3664.57266, -54.94850,
,,,3669.50479, -54.94850,
,,,3674.43692, -54.94850,
,,,3679.36905, -54.94850,
,,,3684.30118, -54.94850,
,,,3689.23331, -54.94850,
,,,3694.16544, -54.94850,
,,,3699.09757, -52.54850,
,,,3704.02970, -45.74850,
,,,3708.96183, -49.34850,
,,,3713.89396, -52.54850,
,,,3718.82609, -54.94850,
,,,3723.75822, -54.94850,
,,,3728.69035, -54.94850,
,,,3733.62248, -54.94850,
,,,3738.55461, -54.94850,
