RLCC_FFT_C2/ALL0006/F0006FFT.CSV

Record Length,1.024000e+03,,          0.00000, -46.54850,
Sample Interval,4.932134e+00,,          4.93213,  -0.14850,
Trigger Point,-0.000000000000e+00,,          9.86427,   5.05150,
,,,         14.79640,   5.45150,
,,,         19.72854,   4.25150,
,,,         24.66067,  -4.14850,
Source,FFT,,         29.59280, -28.54850,
Vertical Units,dB,,         34.52494,  -7.34850,
Vertical Scale,1.000000e+01,,         39.45707,  -4.54850,
Vertical Offset,0.000000e+00,,         44.38920,  -4.54850,
Horizontal Units,Hz,,         49.32134,  -6.54850,
Horizontal Scale,5.050505e+02,,         54.25347, -19.34850,
Pt Fmt,Y,,         59.18561, -22.54850,
Yzero,-1.494850e+01,,         64.11774,  -9.74850,
Probe Atten,1.000000e+00,,         69.04987,  -8.54850,
Model Number,TBS1052B-EDU,,         73.98201,  -8.54850,
Serial Number,C027597,,         78.91414, -12.54850,
Firmware Version,FV:v4.06,,         83.84628, -30.14850,
,,,88.77841, -19.34850,
,,,93.71054, -11.74850,
,,,98.64267, -11.34850,
,,,103.57480, -11.34850,
,,,108.50693, -17.74850,
,,,113.43906, -35.34850,
,,,118.37119, -17.74850,
,,,123.30332, -13.34850,
,,,128.23545, -12.94850,
,,,133.16758, -14.14850,
,,,138.09971, -24.14850,
,,,143.03184, -32.14850,
,,,147.96397, -16.94850,
,,,152.89610, -14.54850,
,,,157.82823, -14.54850,
,,,162.76036, -17.34850,
,,,167.69249, -32.94850,
,,,172.62462, -26.94850,
,,,177.55675, -16.54850,
,,,182.48888, -15.74850,
,,,187.42101, -15.74850,
,,,192.35314, -20.14850,
,,,197.28527, -38.14850,
,,,202.21740, -22.94850,
,,,207.14953, -16.54850,
,,,212.08166, -16.54850,
,,,217.01379, -16.94850,
,,,221.94592, -24.94850,
,,,226.87805, -38.94850,
,,,231.81018, -20.54850,
,,,236.74231, -16.94850,
,,,241.67444, -16.94850,
,,,246.60657, -18.54850,
,,,251.53870, -29.74850,
,,,256.47083, -31.34850,
,,,261.40296, -18.94850,
,,,266.33509, -17.34850,
,,,271.26722, -17.34850,
,,,276.19935, -20.54850,
,,,281.13148, -38.54850,
,,,286.06361, -27.34850,
,,,290.99574, -18.54850,
,,,295.92787, -17.74850,
,,,300.86000, -17.74850,
,,,305.79213, -23.34850,
,,,310.72426, -42.54850,
,,,315.65639, -22.94850,
,,,320.58852, -17.74850,
,,,325.52065, -17.74850,
,,,330.45278, -18.54850,
,,,335.38491, -27.74850,
,,,340.31704, -37.74850,
,,,345.24917, -20.14850,
,,,350.18130, -17.34850,
,,,355.11343, -17.34850,
,,,360.04556, -19.34850,
,,,364.97769, -32.94850,
,,,369.90982, -29.34850,
,,,374.84195, -18.94850,
,,,379.77408, -17.34850,
,,,384.70621, -17.34850,
,,,389.63834, -21.34850,
,,,394.57047, -39.34850,
,,,399.50260, -24.94850,
,,,404.43473, -17.74850,
,,,409.36686, -17.34850,
,,,414.29899, -17.74850,
,,,419.23112, -24.54850,
,,,424.16325, -41.34850,
,,,429.09538, -21.74850,
,,,434.02751, -17.34850,
,,,438.95964, -17.34850,
,,,443.89177, -18.14850,
,,,448.82390, -28.94850,
,,,453.75603, -32.94850,
,,,458.68816, -19.34850,
,,,463.62029, -17.34850,
,,,468.55242, -17.34850,
,,,473.48455, -19.74850,
,,,478.41668, -35.74850,
,,,483.34881, -28.54850,
,,,488.28094, -18.94850,
,,,493.21307, -17.74850,
,,,498.14520, -18.14850,
,,,503.07733, -22.94850,
,,,508.00946, -45.74850,
,,,512.94159, -24.94850,
,,,517.87372, -18.54850,
,,,522.80585, -18.54850,
,,,527.73798, -18.94850,
,,,532.67011, -26.54850,
,,,537.60224, -38.54850,
,,,542.53437, -22.54850,
,,,547.46650, -19.74850,
,,,552.39863, -19.74850,
,,,557.33076, -20.94850,
,,,562.26289, -32.94850,
,,,567.19502, -35.34850,
,,,572.12715, -22.54850,
,,,577.05928, -20.54850,
,,,581.99141, -20.54850,
,,,586.92354, -23.74850,
,,,591.85567, -39.74850,
,,,596.78780, -30.14850,
,,,601.71993, -22.14850,
,,,606.65206, -21.74850,
,,,611.58419, -22.14850,
,,,616.51632, -28.54850,
,,,621.44845, -54.94850,
,,,626.38058, -28.14850,
,,,631.31271, -22.94850,
,,,636.24484, -22.54850,
,,,641.17697, -23.34850,
,,,646.10910, -32.54850,
,,,651.04123, -41.34850,
,,,655.97336, -26.14850,
,,,660.90549, -23.74850,
,,,665.83762, -23.74850,
,,,670.76975, -26.14850,
,,,675.70188, -39.74850,
,,,680.63401, -36.14850,
,,,685.56614, -25.74850,
,,,690.49827, -24.54850,
,,,695.43040, -24.94850,
,,,700.36253, -28.94850,
,,,705.29466, -48.54850,
,,,710.22679, -32.14850,
,,,715.15892, -25.74850,
,,,720.09105, -25.34850,
,,,725.02318, -25.74850,
,,,729.95531, -32.94850,
,,,734.88744, -52.54850,
,,,739.81957, -30.14850,
,,,744.75170, -26.14850,
,,,749.68383, -26.14850,
,,,754.61596, -27.34850,
,,,759.54809, -38.14850,
,,,764.48022, -42.54850,
,,,769.41235, -28.14850,
,,,774.34448, -26.54850,
,,,779.27661, -26.54850,
,,,784.20874, -29.74850,
,,,789.14087, -45.74850,
,,,794.07300, -37.34850,
,,,799.00513, -27.74850,
,,,803.93726, -26.94850,
,,,808.86939, -26.94850,
,,,813.80152, -31.34850,
,,,818.73365, -49.34850,
,,,823.66578, -32.54850,
,,,828.59791, -27.74850,
,,,833.53004, -27.74850,
,,,838.46217, -28.54850,
,,,843.39430, -37.74850,
,,,848.32643, -48.54850,
,,,853.25856, -30.94850,
,,,858.19069, -27.74850,
,,,863.12282, -28.14850,
,,,868.05495, -29.74850,
,,,872.98708, -41.34850,
,,,877.91921, -42.94850,
,,,882.85134, -29.74850,
,,,887.78347, -28.54850,
,,,892.71560, -28.54850,
,,,897.64773, -31.34850,
,,,902.57986, -48.54850,
,,,907.51199, -36.94850,
,,,912.44412, -29.34850,
,,,917.37625, -28.54850,
,,,922.30838, -28.94850,
,,,927.24051, -34.14850,
,,,932.17264, -48.54850,
,,,937.10477, -34.14850,
,,,942.03690, -29.34850,
,,,946.96903, -29.34850,
,,,951.90116, -30.14850,
,,,956.83329, -38.94850,
,,,961.76542, -44.14850,
,,,966.69755, -33.34850,
,,,971.62968, -30.14850,
,,,976.56181, -30.54850,
,,,981.49394, -32.14850,
,,,986.42607, -46.54850,
,,,991.35820, -42.94850,
,,,996.29033, -32.94850,
,,,1001.22246, -31.34850,
,,,1006.15459, -31.34850,
,,,1011.08672, -35.34850,
,,,1016.01885, -54.94850,
,,,1020.95098, -39.34850,
,,,1025.88311, -33.34850,
,,,1030.81524, -32.54850,
,,,1035.74737, -33.34850,
,,,1040.67950, -40.54850,
,,,1045.61163, -54.94850,
,,,1050.54376, -40.54850,
,,,1055.47589, -36.14850,
,,,1060.40802, -35.34850,
,,,1065.34015, -35.34850,
,,,1070.27228, -46.54850,
,,,1075.20441, -52.54850,
,,,1080.13654, -39.34850,
,,,1085.06867, -37.34850,
,,,1090.00080, -37.74850,
,,,1094.93293, -39.34850,
,,,1099.86506, -49.34850,
,,,1104.79719, -48.54850,
,,,1109.72932, -38.54850,
,,,1114.66145, -37.74850,
,,,1119.59358, -37.74850,
,,,1124.52571, -42.54850,
,,,1129.45784, -54.94850,
,,,1134.38997, -44.14850,
,,,1139.32210, -39.34850,
,,,1144.25423, -38.14850,
,,,1149.18636, -39.34850,
,,,1154.11849, -46.54850,
,,,1159.05062, -54.94850,
,,,1163.98275, -46.54850,
,,,1168.91488, -41.34850,
,,,1173.84701, -41.34850,
,,,1178.77914, -45.34850,
,,,1183.71127, -54.94850,
,,,1188.64340, -54.94850,
,,,1193.57553, -46.54850,
,,,1198.50766, -44.14850,
,,,1203.43979, -42.54850,
,,,1208.37192, -44.14850,
,,,1213.30405, -54.94850,
,,,1218.23618, -52.54850,
,,,1223.16831, -46.54850,
,,,1228.10044, -42.94850,
,,,1233.03257, -46.54850,
,,,1237.96470, -52.54850,
,,,1242.89683, -48.54850,
,,,1247.82896, -49.34850,
,,,1252.76109, -45.34850,
,,,1257.69322, -48.54850,
,,,1262.62535, -48.54850,
,,,1267.55748, -52.54850,
,,,1272.48961, -52.54850,
,,,1277.42174, -46.54850,
,,,1282.35387, -46.54850,
,,,1287.28600, -46.54850,
,,,1292.21813, -49.34850,
,,,1297.15026, -48.54850,
,,,1302.08239, -48.54850,
,,,1307.01452, -48.54850,
,,,1311.94665, -44.14850,
,,,1316.87878, -46.54850,
,,,1321.81091, -52.54850,
,,,1326.74304, -52.54850,
,,,1331.67517, -54.94850,
,,,1336.60730, -52.54850,
,,,1341.53943, -52.54850,
,,,1346.47156, -52.54850,
,,,1351.40369, -54.94850,
,,,1356.33582, -54.94850,
,,,1361.26795, -54.94850,
,,,1366.20008, -52.54850,
,,,1371.13221, -48.54850,
,,,1376.06434, -52.54850,
,,,1380.99647, -54.94850,
,,,1385.92860, -52.54850,
,,,1390.86073, -54.94850,
,,,1395.79286, -54.94850,
,,,1400.72499, -52.54850,
,,,1405.65712, -54.94850,
,,,1410.58925, -54.94850,
,,,1415.52138, -52.54850,
,,,1420.45351, -49.34850,
,,,1425.38564, -49.34850,
,,,1430.31777, -48.54850,
,,,1435.24990, -54.94850,
,,,1440.18203, -54.94850,
,,,1445.11416, -54.94850,
,,,1450.04629, -54.94850,
,,,1454.97842, -54.94850,
,,,1459.91055, -54.94850,
,,,1464.84268, -54.94850,
,,,1469.77481, -54.94850,
,,,1474.70694, -54.94850,
,,,1479.63907, -52.54850,
,,,1484.57120, -52.54850,
,,,1489.50333, -52.54850,
,,,1494.43546, -54.94850,
,,,1499.36759, -54.94850,
,,,1504.29972, -49.34850,
,,,1509.23185, -54.94850,
,,,1514.16398, -54.94850,
,,,1519.09611, -54.94850,
,,,1524.02824, -54.94850,
,,,1528.96037, -54.94850,
,,,1533.89250, -52.54850,
,,,1538.82463, -48.54850,
,,,1543.75676, -54.94850,
,,,1548.68889, -52.54850,
,,,1553.62102, -54.94850,
,,,1558.55315, -54.94850,
,,,1563.48528, -54.94850,
,,,1568.41741, -52.54850,
,,,1573.34954, -52.54850,
,,,1578.28167, -49.34850,
,,,1583.21380, -54.94850,
,,,1588.14593, -54.94850,
,,,1593.07806, -54.94850,
,,,1598.01019, -54.94850,
,,,1602.94232, -52.54850,
,,,1607.87445, -54.94850,
,,,1612.80658, -52.54850,
,,,1617.73871, -54.94850,
,,,1622.67084, -54.94850,
,,,1627.60297, -54.94850,
,,,1632.53510, -54.94850,
,,,1637.46723, -54.94850,
,,,1642.39936, -54.94850,
,,,1647.33149, -54.94850,
,,,1652.26362, -54.94850,
,,,1657.19575, -54.94850,
,,,1662.12788, -54.94850,
,,,1667.06001, -52.54850,
,,,1671.99214, -52.54850,
,,,1676.92427, -54.94850,
,,,1681.85640, -54.94850,
,,,1686.78853, -54.94850,
,,,1691.72066, -52.54850,
,,,1696.65279, -54.94850,
,,,1701.58492, -54.94850,
,,,1706.51705, -54.94850,
,,,1711.44918, -54.94850,
,,,1716.38131, -54.94850,
,,,1721.31344, -54.94850,
,,,1726.24557, -54.94850,
,,,1731.17770, -54.94850,
,,,1736.10983, -54.94850,
,,,1741.04196, -54.94850,
,,,1745.97409, -52.54850,
,,,1750.90622, -52.54850,
,,,1755.83835, -54.94850,
,,,1760.77048, -54.94850,
,,,1765.70261, -54.94850,
,,,1770.63474, -54.94850,
,,,1775.56687, -54.94850,
,,,1780.49900, -54.94850,
,,,1785.43113, -54.94850,
,,,1790.36326, -54.94850,
,,,1795.29539, -54.94850,
,,,1800.22752, -54.94850,
,,,1805.15965, -54.94850,
,,,1810.09178, -54.94850,
,,,1815.02391, -54.94850,
,,,1819.95604, -54.94850,
,,,1824.88817, -54.94850,
,,,1829.82030, -54.94850,
,,,1834.75243, -54.94850,
,,,1839.68456, -54.94850,
,,,1844.61669, -54.94850,
,,,1849.54882, -54.94850,
,,,1854.48095, -52.54850,
,,,1859.41308, -48.54850,
,,,1864.34521, -52.54850,
,,,1869.27734, -54.94850,
,,,1874.20947, -54.94850,
,,,1879.14160, -54.94850,
,,,1884.07373, -52.54850,
,,,1889.00586, -52.54850,
,,,1893.93799, -54.94850,
,,,1898.87012, -54.94850,
,,,1903.80225, -54.94850,
,,,1908.73438, -54.94850,
,,,1913.66651, -52.54850,
,,,1918.59864, -52.54850,
,,,1923.53077, -54.94850,
,,,1928.46290, -54.94850,
,,,1933.39503, -54.94850,
,,,1938.32716, -54.94850,
,,,1943.25929, -54.94850,
,,,1948.19142, -54.94850,
,,,1953.12355, -54.94850,
,,,1958.05568, -49.34850,
,,,1962.98781, -54.94850,
,,,1967.91994, -54.94850,
,,,1972.85207, -49.34850,
,,,1977.78420, -54.94850,
,,,1982.71633, -54.94850,
,,,1987.64846, -54.94850,
,,,1992.58059, -54.94850,
,,,1997.51272, -54.94850,
,,,2002.44485, -54.94850,
,,,2007.37698, -54.94850,
,,,2012.30911, -54.94850,
,,,2017.24124, -54.94850,
,,,2022.17337, -52.54850,
,,,2027.10550, -52.54850,
,,,2032.03763, -54.94850,
,,,2036.96976, -54.94850,
,,,2041.90189, -54.94850,
,,,2046.83402, -54.94850,
,,,2051.76615, -54.94850,
,,,2056.69828, -54.94850,
,,,2061.63041, -54.94850,
,,,2066.56254, -54.94850,
,,,2071.49467, -52.54850,
,,,2076.42680, -54.94850,
,,,2081.35893, -54.94850,
,,,2086.29106, -48.54850,
,,,2091.22319, -48.54850,
,,,2096.15532, -49.34850,
,,,2101.08745, -54.94850,
,,,2106.01958, -54.94850,
,,,2110.95171, -54.94850,
,,,2115.88384, -49.34850,
,,,2120.81597, -52.54850,
,,,2125.74810, -54.94850,
,,,2130.68023, -54.94850,
,,,2135.61236, -54.94850,
,,,2140.54449, -54.94850,
,,,2145.47662, -54.94850,
,,,2150.40875, -54.94850,
,,,2155.34088, -54.94850,
,,,2160.27301, -52.54850,
,,,2165.20514, -54.94850,
,,,2170.13727, -54.94850,
,,,2175.06940, -54.94850,
,,,2180.00153, -54.94850,
,,,2184.93366, -54.94850,
,,,2189.86579, -54.94850,
,,,2194.79792, -54.94850,
,,,2199.73005, -54.94850,
,,,2204.66218, -49.34850,
,,,2209.59431, -54.94850,
,,,2214.52644, -54.94850,
,,,2219.45857, -52.54850,
,,,2224.39070, -54.94850,
,,,2229.32283, -54.94850,
,,,2234.25496, -54.94850,
,,,2239.18709, -49.34850,
,,,2244.11922, -54.94850,
,,,2249.05135, -54.94850,
,,,2253.98348, -52.54850,
,,,2258.91561, -54.94850,
,,,2263.84774, -54.94850,
,,,2268.77987, -54.94850,
,,,2273.71200, -54.94850,
,,,2278.64413, -54.94850,
,,,2283.57626, -52.54850,
,,,2288.50839, -54.94850,
,,,2293.44052, -54.94850,
,,,2298.37265, -52.54850,
,,,2303.30478, -54.94850,
,,,2308.23691, -48.54850,
,,,2313.16904, -48.54850,
,,,2318.10117, -52.54850,
,,,2323.03330, -54.94850,
,,,2327.96543, -54.94850,
,,,2332.89756, -54.94850,
,,,2337.82969, -54.94850,
,,,2342.76182, -54.94850,
,,,2347.69395, -54.94850,
,,,2352.62608, -54.94850,
,,,2357.55821, -54.94850,
,,,2362.49034, -54.94850,
,,,2367.42247, -54.94850,
,,,2372.35460, -54.94850,
,,,2377.28673, -52.54850,
,,,2382.21886, -52.54850,
,,,2387.15099, -52.54850,
,,,2392.08312, -54.94850,
,,,2397.01525, -54.94850,
,,,2401.94738, -48.54850,
,,,2406.87951, -54.94850,
,,,2411.81164, -52.54850,
,,,2416.74377, -54.94850,
,,,2421.67590, -52.54850,
,,,2426.60803, -49.34850,
,,,2431.54016, -54.94850,
,,,2436.47229, -52.54850,
,,,2441.40442, -54.94850,
,,,2446.33655, -52.54850,
,,,2451.26868, -54.94850,
,,,2456.20081, -54.94850,
,,,2461.13294, -52.54850,
,,,2466.06507, -54.94850,
,,,2470.99720, -52.54850,
,,,2475.92933, -54.94850,
,,,2480.86146, -54.94850,
,,,2485.79359, -54.94850,
,,,2490.72572, -54.94850,
,,,2495.65785, -54.94850,
,,,2500.58998, -54.94850,
,,,2505.52211, -54.94850,
,,,2510.45424, -54.94850,
,,,2515.38637, -54.94850,
,,,2520.31850, -54.94850,
,,,2525.25063, -54.94850,
,,,2530.18276, -54.94850,
,,,2535.11489, -54.94850,
,,,2540.04702, -54.94850,
,,,2544.97915, -54.94850,
,,,2549.91128, -54.94850,
,,,2554.84341, -52.54850,
,,,2559.77554, -54.94850,
,,,2564.70767, -54.94850,
,,,2569.63980, -54.94850,
,,,2574.57193, -54.94850,
,,,2579.50406, -54.94850,
,,,2584.43619, -52.54850,
,,,2589.36832, -52.54850,
,,,2594.30045, -54.94850,
,,,2599.23258, -54.94850,
,,,2604.16471, -54.94850,
,,,2609.09684, -54.94850,
,,,2614.02897, -54.94850,
,,,2618.96110, -54.94850,
,,,2623.89323, -54.94850,
,,,2628.82536, -52.54850,
,,,2633.75749, -54.94850,
,,,2638.68962, -54.94850,
,,,2643.62175, -54.94850,
,,,2648.55388, -54.94850,
,,,2653.48601, -54.94850,
,,,2658.41814, -54.94850,
,,,2663.35027, -54.94850,
,,,2668.28240, -54.94850,
,,,2673.21453, -54.94850,
,,,2678.14666, -54.94850,
,,,2683.07879, -54.94850,
,,,2688.01092, -54.94850,
,,,2692.94305, -54.94850,
,,,2697.87518, -52.54850,
,,,2702.80731, -52.54850,
,,,2707.73944, -54.94850,
,,,2712.67157, -54.94850,
,,,2717.60370, -54.94850,
,,,2722.53583, -54.94850,
,,,2727.46796, -52.54850,
,,,2732.40009, -52.54850,
,,,2737.33222, -54.94850,
,,,2742.26435, -54.94850,
,,,2747.19648, -54.94850,
,,,2752.12861, -54.94850,
,,,2757.06074, -52.54850,
,,,2761.99287, -54.94850,
,,,2766.92500, -52.54850,
,,,2771.85713, -54.94850,
,,,2776.78926, -54.94850,
,,,2781.72139, -54.94850,
,,,2786.65352, -54.94850,
,,,2791.58565, -54.94850,
,,,2796.51778, -52.54850,
,,,2801.44991, -52.54850,
,,,2806.38204, -54.94850,
,,,2811.31417, -52.54850,
,,,2816.24630, -54.94850,
,,,2821.17843, -54.94850,
,,,2826.11056, -54.94850,
,,,2831.04269, -54.94850,
,,,2835.97482, -54.94850,
,,,2840.90695, -54.94850,
,,,2845.83908, -54.94850,
,,,2850.77121, -54.94850,
,,,2855.70334, -54.94850,
,,,2860.63547, -54.94850,
,,,2865.56760, -54.94850,
,,,2870.49973, -52.54850,
,,,2875.43186, -54.94850,
,,,2880.36399, -54.94850,
,,,2885.29612, -54.94850,
,,,2890.22825, -54.94850,
,,,2895.16038, -54.94850,
,,,2900.09251, -54.94850,
,,,2905.02464, -54.94850,
,,,2909.95677, -54.94850,
,,,2914.88890, -54.94850,
,,,2919.82103, -52.54850,
,,,2924.75316, -54.94850,
,,,2929.68529, -54.94850,
,,,2934.61742, -54.94850,
,,,2939.54955, -54.94850,
,,,2944.48168, -54.94850,
,,,2949.41381, -54.94850,
,,,2954.34594, -54.94850,
,,,2959.27807, -54.94850,
,,,2964.21020, -54.94850,
,,,2969.14233, -54.94850,
,,,2974.07446, -54.94850,
,,,2979.00659, -54.94850,
,,,2983.93872, -54.94850,
,,,2988.87085, -54.94850,
,,,2993.80298, -54.94850,
,,,2998.73511, -54.94850,
,,,3003.66724, -54.94850,
,,,3008.59937, -52.54850,
,,,3013.53150, -54.94850,
,,,3018.46363, -52.54850,
,,,3023.39576, -54.94850,
,,,3028.32789, -54.94850,
,,,3033.26002, -54.94850,
,,,3038.19215, -54.94850,
,,,3043.12428, -54.94850,
,,,3048.05641, -54.94850,
,,,3052.98854, -54.94850,
,,,3057.92067, -52.54850,
,,,3062.85280, -54.94850,
,,,3067.78493, -54.94850,
,,,3072.71706, -54.94850,
,,,3077.64919, -52.54850,
,,,3082.58132, -54.94850,
,,,3087.51345, -54.94850,
,,,3092.44558, -54.94850,
,,,3097.37771, -54.94850,
,,,3102.30984, -54.94850,
,,,3107.24197, -54.94850,
,,,3112.17410, -54.94850,
,,,3117.10623, -54.94850,
,,,3122.03836, -54.94850,
,,,3126.97049, -54.94850,
,,,3131.90262, -54.94850,
,,,3136.83475, -54.94850,
,,,3141.76688, -54.94850,
,,,3146.69901, -52.54850,
,,,3151.63114, -48.54850,
,,,3156.56327, -52.54850,
,,,3161.49540, -54.94850,
,,,3166.42753, -54.94850,
,,,3171.35966, -54.94850,
,,,3176.29179, -54.94850,
,,,3181.22392, -54.94850,
,,,3186.15605, -54.94850,
,,,3191.08818, -52.54850,
,,,3196.02031, -54.94850,
,,,3200.95244, -54.94850,
,,,3205.88457, -52.54850,
,,,3210.81670, -52.54850,
,,,3215.74883, -54.94850,
,,,3220.68096, -52.54850,
,,,3225.61309, -52.54850,
,,,3230.54522, -54.94850,
,,,3235.47735, -54.94850,
,,,3240.40948, -54.94850,
,,,3245.34161, -54.94850,
,,,3250.27374, -54.94850,
,,,3255.20587, -52.54850,
,,,3260.13800, -48.54850,
,,,3265.07013, -54.94850,
,,,3270.00226, -54.94850,
,,,3274.93439, -54.94850,
,,,3279.86652, -54.94850,
,,,3284.79865, -54.94850,
,,,3289.73078, -52.54850,
,,,3294.66291, -54.94850,
,,,3299.59504, -52.54850,
,,,3304.52717, -49.34850,
,,,3309.45930, -49.34850,
,,,3314.39143, -49.34850,
,,,3319.32356, -49.34850,
,,,3324.25569, -54.94850,
,,,3329.18782, -54.94850,
,,,3334.11995, -54.94850,
,,,3339.05208, -54.94850,
,,,3343.98421, -54.94850,
,,,3348.91634, -54.94850,
,,,3353.84847, -54.94850,
,,,3358.78060, -54.94850,
,,,3363.71273, -52.54850,
,,,3368.64486, -52.54850,
,,,3373.57699, -54.94850,
,,,3378.50912, -52.54850,
,,,3383.44125, -54.94850,
,,,3388.37338, -54.94850,
,,,3393.30551, -54.94850,
,,,3398.23764, -49.34850,
,,,3403.16977, -48.54850,
,,,3408.10190, -48.54850,
,,,3413.03403, -52.54850,
,,,3417.96616, -54.94850,
,,,3422.89829, -52.54850,
,,,3427.83042, -52.54850,
,,,3432.76255, -54.94850,
,,,3437.69468, -54.94850,
,,,3442.62681, -54.94850,
,,,3447.55894, -54.94850,
,,,3452.49107, -54.94850,
,,,3457.42320, -54.94850,
,,,3462.35533, -54.94850,
,,,3467.28746, -54.94850,
,,,3472.21959, -54.94850,
,,,3477.15172, -54.94850,
,,,3482.08385, -54.94850,
,,,3487.01598, -54.94850,
,,,3491.94811, -54.94850,
,,,3496.88024, -54.94850,
,,,3501.81237, -54.94850,
,,,3506.74450, -54.94850,
,,,3511.67663, -54.94850,
,,,3516.60876, -52.54850,
,,,3521.54089, -54.94850,
,,,3526.47302, -54.94850,
,,,3531.40515, -54.94850,
,,,3536.33728, -54.94850,
,,,3541.26941, -54.94850,
,,,3546.20154, -54.94850,
,,,3551.13367, -54.94850,
,,,3556.06580, -54.94850,
,,,3560.99793, -54.94850,
,,,3565.93006, -52.54850,
,,,3570.86219, -54.94850,
,,,3575.79432, -54.94850,
,,,3580.72645, -54.94850,
,,,3585.65858, -54.94850,
,,,3590.59071, -54.94850,
,,,3595.52284, -54.94850,
,,,3600.45497, -54.94850,
,,,3605.38710, -54.94850,
,,,3610.31923, -54.94850,
,,,3615.25136, -52.54850,
,,,3620.18349, -48.54850,
,,,3625.11562, -52.54850,
,,,3630.04775, -54.94850,
,,,3634.97988, -52.54850,
,,,3639.91201, -52.54850,
,,,3644.84414, -52.54850,
,,,3649.77627, -54.94850,
,,,3654.70840, -54.94850,
,,,3659.64053, -54.94850,
,,,3664.57266, -54.94850,
,,,3669.50479, -54.94850,
,,,3674.43692, -54.94850,
,,,3679.36905, -52.54850,
,,,3684.30118, -52.54850,
,,,3689.23331, -52.54850,
,,,3694.16544, -52.54850,
,,,3699.09757, -54.94850,
,,,3704.02970, -54.94850,
,,,3708.96183, -54.94850,
,,,3713.89396, -54.94850,
,,,3718.82609, -54.94850,
,,,3723.75822, -49.34850,
,,,3728.69035, -48.54850,
,,,3733.62248, -48.54850,
,,,3738.55461, -52.54850,
