furier_c1/ALL0000/F0000FFT.CSV

Record Length,1.024000e+03,,          0.00000,   3.01030,
Sample Interval,4.932134e+00,,          4.93213,  12.61030,
Trigger Point,-0.000000000000e+00,,          9.86427,  14.21030,
,,,         14.79640,  14.61030,
,,,         19.72854,  10.61030,
,,,         24.66067,   5.41030,
Source,FFT,,         29.59280,   2.21030,
Vertical Units,dB,,         34.52494,   1.81030,
Vertical Scale,1.000000e+01,,         39.45707,   3.01030,
Vertical Offset,0.000000e+00,,         44.38920,   3.81030,
Horizontal Units,Hz,,         49.32134,   0.61030,
Horizontal Scale,5.050505e+02,,         54.25347,  -4.18970,
Pt Fmt,Y,,         59.18561,  -4.18970,
Yzero,-6.989700e+00,,         64.11774,  -1.78970,
Probe Atten,1.000000e+00,,         69.04987,  -1.38970,
Model Number,TBS1052B-EDU,,         73.98201,  -0.98970,
Serial Number,C027597,,         78.91414,  -4.58970,
Firmware Version,FV:v4.06,,         83.84628,  -9.78970,
,,,88.77841,  -6.98970,
,,,93.71054,  -4.18970,
,,,98.64267,  -4.58970,
,,,103.57480,  -4.58970,
,,,108.50693,  -8.18970,
,,,113.43906, -12.58970,
,,,118.37119,  -8.58970,
,,,123.30332,  -5.78970,
,,,128.23545,  -6.98970,
,,,133.16758,  -7.38970,
,,,138.09971, -11.38970,
,,,143.03184, -14.18970,
,,,147.96397,  -9.78970,
,,,152.89610,  -7.78970,
,,,157.82823,  -8.98970,
,,,162.76036, -10.18970,
,,,167.69249, -13.38970,
,,,172.62462, -14.98970,
,,,177.55675, -10.98970,
,,,182.48888,  -9.38970,
,,,187.42101, -11.38970,
,,,192.35314, -13.38970,
,,,197.28527, -15.78970,
,,,202.21740, -14.98970,
,,,207.14953, -12.18970,
,,,212.08166, -10.58970,
,,,217.01379, -13.38970,
,,,221.94592, -16.18970,
,,,226.87805, -16.98970,
,,,231.81018, -14.98970,
,,,236.74231, -13.38970,
,,,241.67444, -12.58970,
,,,246.60657, -15.78970,
,,,251.53870, -18.98970,
,,,256.47083, -18.18970,
,,,261.40296, -15.78970,
,,,266.33509, -14.58970,
,,,271.26722, -13.78970,
,,,276.19935, -17.38970,
,,,281.13148, -21.78970,
,,,286.06361, -18.18970,
,,,290.99574, -16.18970,
,,,295.92787, -15.78970,
,,,300.86000, -15.38970,
,,,305.79213, -19.78970,
,,,310.72426, -22.98970,
,,,315.65639, -18.58970,
,,,320.58852, -16.58970,
,,,325.52065, -16.98970,
,,,330.45278, -17.38970,
,,,335.38491, -21.38970,
,,,340.31704, -24.58970,
,,,345.24917, -18.98970,
,,,350.18130, -17.38970,
,,,355.11343, -18.58970,
,,,360.04556, -19.38970,
,,,364.97769, -23.38970,
,,,369.90982, -22.98970,
,,,374.84195, -19.38970,
,,,379.77408, -18.18970,
,,,384.70621, -20.18970,
,,,389.63834, -22.18970,
,,,394.57047, -25.38970,
,,,399.50260, -24.18970,
,,,404.43473, -20.58970,
,,,409.36686, -18.58970,
,,,414.29899, -20.98970,
,,,419.23112, -23.38970,
,,,424.16325, -25.38970,
,,,429.09538, -23.38970,
,,,434.02751, -20.98970,
,,,438.95964, -20.18970,
,,,443.89177, -23.78970,
,,,448.82390, -25.78970,
,,,453.75603, -24.98970,
,,,458.68816, -23.38970,
,,,463.62029, -22.18970,
,,,468.55242, -21.38970,
,,,473.48455, -24.58970,
,,,478.41668, -27.38970,
,,,483.34881, -25.38970,
,,,488.28094, -22.98970,
,,,493.21307, -22.58970,
,,,498.14520, -23.38970,
,,,503.07733, -27.38970,
,,,508.00946, -29.38970,
,,,512.94159, -24.98970,
,,,517.87372, -23.78970,
,,,522.80585, -24.58970,
,,,527.73798, -24.98970,
,,,532.67011, -29.38970,
,,,537.60224, -31.38970,
,,,542.53437, -25.78970,
,,,547.46650, -24.18970,
,,,552.39863, -24.98970,
,,,557.33076, -26.58970,
,,,562.26289, -31.78970,
,,,567.19502, -30.98970,
,,,572.12715, -27.78970,
,,,577.05928, -26.18970,
,,,581.99141, -28.18970,
,,,586.92354, -28.98970,
,,,591.85567, -31.78970,
,,,596.78780, -30.98970,
,,,601.71993, -26.98970,
,,,606.65206, -26.58970,
,,,611.58419, -29.38970,
,,,616.51632, -31.78970,
,,,621.44845, -32.98970,
,,,626.38058, -32.18970,
,,,631.31271, -28.18970,
,,,636.24484, -28.18970,
,,,641.17697, -30.98970,
,,,646.10910, -32.98970,
,,,651.04123, -31.78970,
,,,655.97336, -30.18970,
,,,660.90549, -28.18970,
,,,665.83762, -28.18970,
,,,670.76975, -32.98970,
,,,675.70188, -34.98970,
,,,680.63401, -34.58970,
,,,685.56614, -31.38970,
,,,690.49827, -30.58970,
,,,695.43040, -29.78970,
,,,700.36253, -36.18970,
,,,705.29466, -37.38970,
,,,710.22679, -33.38970,
,,,715.15892, -30.58970,
,,,720.09105, -28.98970,
,,,725.02318, -29.78970,
,,,729.95531, -34.98970,
,,,734.88744, -35.38970,
,,,739.81957, -33.38970,
,,,744.75170, -31.78970,
,,,749.68383, -32.98970,
,,,754.61596, -33.38970,
,,,759.54809, -38.58970,
,,,764.48022, -37.78970,
,,,769.41235, -33.38970,
,,,774.34448, -31.78970,
,,,779.27661, -34.98970,
,,,784.20874, -37.38970,
,,,789.14087, -41.38970,
,,,794.07300, -34.98970,
,,,799.00513, -31.78970,
,,,803.93726, -33.38970,
,,,808.86939, -34.98970,
,,,813.80152, -40.58970,
,,,818.73365, -44.58970,
,,,823.66578, -44.58970,
,,,828.59791, -37.78970,
,,,833.53004, -37.38970,
,,,838.46217, -40.58970,
,,,843.39430, -38.58970,
,,,848.32643, -41.38970,
,,,853.25856, -37.78970,
,,,858.19069, -33.38970,
,,,863.12282, -34.58970,
,,,868.05495, -38.58970,
,,,872.98708, -40.58970,
,,,877.91921, -37.38970,
,,,882.85134, -33.38970,
,,,887.78347, -33.38970,
,,,892.71560, -34.98970,
,,,897.64773, -44.58970,
,,,902.57986, -41.38970,
,,,907.51199, -37.38970,
,,,912.44412, -34.98970,
,,,917.37625, -35.38970,
,,,922.30838, -34.98970,
,,,927.24051, -37.78970,
,,,932.17264, -37.78970,
,,,937.10477, -34.98970,
,,,942.03690, -35.38970,
,,,946.96903, -37.78970,
,,,951.90116, -41.38970,
,,,956.83329, -44.58970,
,,,961.76542, -40.58970,
,,,966.69755, -34.98970,
,,,971.62968, -35.38970,
,,,976.56181, -34.98970,
,,,981.49394, -40.58970,
,,,986.42607, -41.38970,
,,,991.35820, -40.58970,
,,,996.29033, -40.58970,
,,,1001.22246, -41.38970,
,,,1006.15459, -44.58970,
,,,1011.08672, -44.58970,
,,,1016.01885, -44.58970,
,,,1020.95098, -41.38970,
,,,1025.88311, -40.58970,
,,,1030.81524, -40.58970,
,,,1035.74737, -44.58970,
,,,1040.67950, -44.58970,
,,,1045.61163, -44.58970,
,,,1050.54376, -41.38970,
,,,1055.47589, -37.78970,
,,,1060.40802, -37.78970,
,,,1065.34015, -41.38970,
,,,1070.27228, -46.98970,
,,,1075.20441, -44.58970,
,,,1080.13654, -41.38970,
,,,1085.06867, -40.58970,
,,,1090.00080, -40.58970,
,,,1094.93293, -44.58970,
,,,1099.86506, -40.58970,
,,,1104.79719, -38.58970,
,,,1109.72932, -38.58970,
,,,1114.66145, -40.58970,
,,,1119.59358, -40.58970,
,,,1124.52571, -46.98970,
,,,1129.45784, -46.98970,
,,,1134.38997, -44.58970,
,,,1139.32210, -40.58970,
,,,1144.25423, -41.38970,
,,,1149.18636, -40.58970,
,,,1154.11849, -46.98970,
,,,1159.05062, -46.98970,
,,,1163.98275, -44.58970,
,,,1168.91488, -40.58970,
,,,1173.84701, -40.58970,
,,,1178.77914, -46.98970,
,,,1183.71127, -46.98970,
,,,1188.64340, -46.98970,
,,,1193.57553, -44.58970,
,,,1198.50766, -41.38970,
,,,1203.43979, -44.58970,
,,,1208.37192, -38.58970,
,,,1213.30405, -38.58970,
,,,1218.23618, -38.58970,
,,,1223.16831, -37.78970,
,,,1228.10044, -37.38970,
,,,1233.03257, -46.98970,
,,,1237.96470, -46.98970,
,,,1242.89683, -46.98970,
,,,1247.82896, -44.58970,
,,,1252.76109, -46.98970,
,,,1257.69322, -46.98970,
,,,1262.62535, -46.98970,
,,,1267.55748, -46.98970,
,,,1272.48961, -46.98970,
,,,1277.42174, -46.98970,
,,,1282.35387, -44.58970,
,,,1287.28600, -44.58970,
,,,1292.21813, -44.58970,
,,,1297.15026, -44.58970,
,,,1302.08239, -46.98970,
,,,1307.01452, -46.98970,
,,,1311.94665, -44.58970,
,,,1316.87878, -46.98970,
,,,1321.81091, -46.98970,
,,,1326.74304, -46.98970,
,,,1331.67517, -46.98970,
,,,1336.60730, -46.98970,
,,,1341.53943, -44.58970,
,,,1346.47156, -46.98970,
,,,1351.40369, -46.98970,
,,,1356.33582, -46.98970,
,,,1361.26795, -46.98970,
,,,1366.20008, -40.58970,
,,,1371.13221, -41.38970,
,,,1376.06434, -37.78970,
,,,1380.99647, -46.98970,
,,,1385.92860, -41.38970,
,,,1390.86073, -40.58970,
,,,1395.79286, -44.58970,
,,,1400.72499, -46.98970,
,,,1405.65712, -44.58970,
,,,1410.58925, -46.98970,
,,,1415.52138, -44.58970,
,,,1420.45351, -46.98970,
,,,1425.38564, -46.98970,
,,,1430.31777, -44.58970,
,,,1435.24990, -44.58970,
,,,1440.18203, -46.98970,
,,,1445.11416, -41.38970,
,,,1450.04629, -41.38970,
,,,1454.97842, -40.58970,
,,,1459.91055, -46.98970,
,,,1464.84268, -46.98970,
,,,1469.77481, -46.98970,
,,,1474.70694, -46.98970,
,,,1479.63907, -46.98970,
,,,1484.57120, -46.98970,
,,,1489.50333, -46.98970,
,,,1494.43546, -46.98970,
,,,1499.36759, -46.98970,
,,,1504.29972, -46.98970,
,,,1509.23185, -46.98970,
,,,1514.16398, -46.98970,
,,,1519.09611, -46.98970,
,,,1524.02824, -46.98970,
,,,1528.96037, -46.98970,
,,,1533.89250, -46.98970,
,,,1538.82463, -46.98970,
,,,1543.75676, -46.98970,
,,,1548.68889, -46.98970,
,,,1553.62102, -46.98970,
,,,1558.55315, -44.58970,
,,,1563.48528, -44.58970,
,,,1568.41741, -44.58970,
,,,1573.34954, -46.98970,
,,,1578.28167, -46.98970,
,,,1583.21380, -46.98970,
,,,1588.14593, -46.98970,
,,,1593.07806, -44.58970,
,,,1598.01019, -46.98970,
,,,1602.94232, -44.58970,
,,,1607.87445, -44.58970,
,,,1612.80658, -46.98970,
,,,1617.73871, -46.98970,
,,,1622.67084, -41.38970,
,,,1627.60297, -44.58970,
,,,1632.53510, -46.98970,
,,,1637.46723, -46.98970,
,,,1642.39936, -46.98970,
,,,1647.33149, -46.98970,
,,,1652.26362, -46.98970,
,,,1657.19575, -44.58970,
,,,1662.12788, -44.58970,
,,,1667.06001, -44.58970,
,,,1671.99214, -44.58970,
,,,1676.92427, -46.98970,
,,,1681.85640, -46.98970,
,,,1686.78853, -46.98970,
,,,1691.72066, -44.58970,
,,,1696.65279, -46.98970,
,,,1701.58492, -46.98970,
,,,1706.51705, -46.98970,
,,,1711.44918, -46.98970,
,,,1716.38131, -46.98970,
,,,1721.31344, -46.98970,
,,,1726.24557, -46.98970,
,,,1731.17770, -46.98970,
,,,1736.10983, -46.98970,
,,,1741.04196, -46.98970,
,,,1745.97409, -46.98970,
,,,1750.90622, -46.98970,
,,,1755.83835, -46.98970,
,,,1760.77048, -46.98970,
,,,1765.70261, -46.98970,
,,,1770.63474, -46.98970,
,,,1775.56687, -46.98970,
,,,1780.49900, -41.38970,
,,,1785.43113, -44.58970,
,,,1790.36326, -44.58970,
,,,1795.29539, -46.98970,
,,,1800.22752, -44.58970,
,,,1805.15965, -44.58970,
,,,1810.09178, -44.58970,
,,,1815.02391, -46.98970,
,,,1819.95604, -46.98970,
,,,1824.88817, -46.98970,
,,,1829.82030, -44.58970,
,,,1834.75243, -46.98970,
,,,1839.68456, -46.98970,
,,,1844.61669, -46.98970,
,,,1849.54882, -46.98970,
,,,1854.48095, -46.98970,
,,,1859.41308, -46.98970,
,,,1864.34521, -44.58970,
,,,1869.27734, -46.98970,
,,,1874.20947, -40.58970,
,,,1879.14160, -44.58970,
,,,1884.07373, -44.58970,
,,,1889.00586, -41.38970,
,,,1893.93799, -44.58970,
,,,1898.87012, -46.98970,
,,,1903.80225, -46.98970,
,,,1908.73438, -46.98970,
,,,1913.66651, -46.98970,
,,,1918.59864, -46.98970,
,,,1923.53077, -46.98970,
,,,1928.46290, -46.98970,
,,,1933.39503, -46.98970,
,,,1938.32716, -44.58970,
,,,1943.25929, -46.98970,
,,,1948.19142, -41.38970,
,,,1953.12355, -40.58970,
,,,1958.05568, -44.58970,
,,,1962.98781, -44.58970,
,,,1967.91994, -46.98970,
,,,1972.85207, -46.98970,
,,,1977.78420, -44.58970,
,,,1982.71633, -46.98970,
,,,1987.64846, -46.98970,
,,,1992.58059, -46.98970,
,,,1997.51272, -46.98970,
,,,2002.44485, -46.98970,
,,,2007.37698, -46.98970,
,,,2012.30911, -46.98970,
,,,2017.24124, -46.98970,
,,,2022.17337, -46.98970,
,,,2027.10550, -44.58970,
,,,2032.03763, -44.58970,
,,,2036.96976, -40.58970,
,,,2041.90189, -40.58970,
,,,2046.83402, -41.38970,
,,,2051.76615, -44.58970,
,,,2056.69828, -46.98970,
,,,2061.63041, -46.98970,
,,,2066.56254, -46.98970,
,,,2071.49467, -46.98970,
,,,2076.42680, -46.98970,
,,,2081.35893, -46.98970,
,,,2086.29106, -46.98970,
,,,2091.22319, -46.98970,
,,,2096.15532, -44.58970,
,,,2101.08745, -44.58970,
,,,2106.01958, -44.58970,
,,,2110.95171, -44.58970,
,,,2115.88384, -46.98970,
,,,2120.81597, -46.98970,
,,,2125.74810, -46.98970,
,,,2130.68023, -46.98970,
,,,2135.61236, -46.98970,
,,,2140.54449, -46.98970,
,,,2145.47662, -46.98970,
,,,2150.40875, -44.58970,
,,,2155.34088, -44.58970,
,,,2160.27301, -41.38970,
,,,2165.20514, -46.98970,
,,,2170.13727, -46.98970,
,,,2175.06940, -44.58970,
,,,2180.00153, -44.58970,
,,,2184.93366, -40.58970,
,,,2189.86579, -46.98970,
,,,2194.79792, -44.58970,
,,,2199.73005, -46.98970,
,,,2204.66218, -41.38970,
,,,2209.59431, -46.98970,
,,,2214.52644, -46.98970,
,,,2219.45857, -46.98970,
,,,2224.39070, -46.98970,
,,,2229.32283, -46.98970,
,,,2234.25496, -44.58970,
,,,2239.18709, -44.58970,
,,,2244.11922, -46.98970,
,,,2249.05135, -46.98970,
,,,2253.98348, -46.98970,
,,,2258.91561, -46.98970,
,,,2263.84774, -44.58970,
,,,2268.77987, -46.98970,
,,,2273.71200, -46.98970,
,,,2278.64413, -46.98970,
,,,2283.57626, -46.98970,
,,,2288.50839, -46.98970,
,,,2293.44052, -46.98970,
,,,2298.37265, -41.38970,
,,,2303.30478, -46.98970,
,,,2308.23691, -46.98970,
,,,2313.16904, -46.98970,
,,,2318.10117, -46.98970,
,,,2323.03330, -46.98970,
,,,2327.96543, -46.98970,
,,,2332.89756, -41.38970,
,,,2337.82969, -44.58970,
,,,2342.76182, -46.98970,
,,,2347.69395, -46.98970,
,,,2352.62608, -44.58970,
,,,2357.55821, -46.98970,
,,,2362.49034, -44.58970,
,,,2367.42247, -44.58970,
,,,2372.35460, -46.98970,
,,,2377.28673, -46.98970,
,,,2382.21886, -46.98970,
,,,2387.15099, -46.98970,
,,,2392.08312, -46.98970,
,,,2397.01525, -46.98970,
,,,2401.94738, -46.98970,
,,,2406.87951, -46.98970,
,,,2411.81164, -46.98970,
,,,2416.74377, -46.98970,
,,,2421.67590, -46.98970,
,,,2426.60803, -46.98970,
,,,2431.54016, -46.98970,
,,,2436.47229, -46.98970,
,,,2441.40442, -46.98970,
,,,2446.33655, -46.98970,
,,,2451.26868, -41.38970,
,,,2456.20081, -46.98970,
,,,2461.13294, -46.98970,
,,,2466.06507, -46.98970,
,,,2470.99720, -46.98970,
,,,2475.92933, -46.98970,
,,,2480.86146, -46.98970,
,,,2485.79359, -46.98970,
,,,2490.72572, -46.98970,
,,,2495.65785, -44.58970,
,,,2500.58998, -40.58970,
,,,2505.52211, -44.58970,
,,,2510.45424, -44.58970,
,,,2515.38637, -46.98970,
,,,2520.31850, -46.98970,
,,,2525.25063, -46.98970,
,,,2530.18276, -44.58970,
,,,2535.11489, -44.58970,
,,,2540.04702, -46.98970,
,,,2544.97915, -46.98970,
,,,2549.91128, -46.98970,
,,,2554.84341, -46.98970,
,,,2559.77554, -46.98970,
,,,2564.70767, -46.98970,
,,,2569.63980, -44.58970,
,,,2574.57193, -46.98970,
,,,2579.50406, -46.98970,
,,,2584.43619, -46.98970,
,,,2589.36832, -46.98970,
,,,2594.30045, -46.98970,
,,,2599.23258, -44.58970,
,,,2604.16471, -44.58970,
,,,2609.09684, -46.98970,
,,,2614.02897, -46.98970,
,,,2618.96110, -46.98970,
,,,2623.89323, -41.38970,
,,,2628.82536, -41.38970,
,,,2633.75749, -40.58970,
,,,2638.68962, -41.38970,
,,,2643.62175, -46.98970,
,,,2648.55388, -46.98970,
,,,2653.48601, -46.98970,
,,,2658.41814, -44.58970,
,,,2663.35027, -46.98970,
,,,2668.28240, -44.58970,
,,,2673.21453, -46.98970,
,,,2678.14666, -46.98970,
,,,2683.07879, -46.98970,
,,,2688.01092, -46.98970,
,,,2692.94305, -46.98970,
,,,2697.87518, -46.98970,
,,,2702.80731, -44.58970,
,,,2707.73944, -46.98970,
,,,2712.67157, -46.98970,
,,,2717.60370, -46.98970,
,,,2722.53583, -46.98970,
,,,2727.46796, -46.98970,
,,,2732.40009, -46.98970,
,,,2737.33222, -46.98970,
,,,2742.26435, -46.98970,
,,,2747.19648, -46.98970,
,,,2752.12861, -46.98970,
,,,2757.06074, -46.98970,
,,,2761.99287, -46.98970,
,,,2766.92500, -40.58970,
,,,2771.85713, -40.58970,
,,,2776.78926, -40.58970,
,,,2781.72139, -44.58970,
,,,2786.65352, -46.98970,
,,,2791.58565, -46.98970,
,,,2796.51778, -46.98970,
,,,2801.44991, -46.98970,
,,,2806.38204, -46.98970,
,,,2811.31417, -46.98970,
,,,2816.24630, -46.98970,
,,,2821.17843, -46.98970,
,,,2826.11056, -46.98970,
,,,2831.04269, -46.98970,
,,,2835.97482, -41.38970,
,,,2840.90695, -46.98970,
,,,2845.83908, -46.98970,
,,,2850.77121, -44.58970,
,,,2855.70334, -44.58970,
,,,2860.63547, -44.58970,
,,,2865.56760, -44.58970,
,,,2870.49973, -44.58970,
,,,2875.43186, -46.98970,
,,,2880.36399, -46.98970,
,,,2885.29612, -46.98970,
,,,2890.22825, -46.98970,
,,,2895.16038, -46.98970,
,,,2900.09251, -46.98970,
,,,2905.02464, -46.98970,
,,,2909.95677, -46.98970,
,,,2914.88890, -44.58970,
,,,2919.82103, -46.98970,
,,,2924.75316, -44.58970,
,,,2929.68529, -44.58970,
,,,2934.61742, -44.58970,
,,,2939.54955, -44.58970,
,,,2944.48168, -46.98970,
,,,2949.41381, -46.98970,
,,,2954.34594, -44.58970,
,,,2959.27807, -46.98970,
,,,2964.21020, -46.98970,
,,,2969.14233, -44.58970,
,,,2974.07446, -44.58970,
,,,2979.00659, -46.98970,
,,,2983.93872, -46.98970,
,,,2988.87085, -44.58970,
,,,2993.80298, -46.98970,
,,,2998.73511, -46.98970,
,,,3003.66724, -46.98970,
,,,3008.59937, -46.98970,
,,,3013.53150, -46.98970,
,,,3018.46363, -46.98970,
,,,3023.39576, -44.58970,
,,,3028.32789, -44.58970,
,,,3033.26002, -41.38970,
,,,3038.19215, -40.58970,
,,,3043.12428, -46.98970,
,,,3048.05641, -44.58970,
,,,3052.98854, -46.98970,
,,,3057.92067, -46.98970,
,,,3062.85280, -46.98970,
,,,3067.78493, -46.98970,
,,,3072.71706, -46.98970,
,,,3077.64919, -46.98970,
,,,3082.58132, -44.58970,
,,,3087.51345, -44.58970,
,,,3092.44558, -46.98970,
,,,3097.37771, -46.98970,
,,,3102.30984, -46.98970,
,,,3107.24197, -46.98970,
,,,3112.17410, -46.98970,
,,,3117.10623, -46.98970,
,,,3122.03836, -46.98970,
,,,3126.97049, -46.98970,
,,,3131.90262, -46.98970,
,,,3136.83475, -46.98970,
,,,3141.76688, -46.98970,
,,,3146.69901, -46.98970,
,,,3151.63114, -46.98970,
,,,3156.56327, -46.98970,
,,,3161.49540, -46.98970,
,,,3166.42753, -46.98970,
,,,3171.35966, -46.98970,
,,,3176.29179, -46.98970,
,,,3181.22392, -46.98970,
,,,3186.15605, -46.98970,
,,,3191.08818, -44.58970,
,,,3196.02031, -46.98970,
,,,3200.95244, -44.58970,
,,,3205.88457, -46.98970,
,,,3210.81670, -46.98970,
,,,3215.74883, -46.98970,
,,,3220.68096, -46.98970,
,,,3225.61309, -46.98970,
,,,3230.54522, -46.98970,
,,,3235.47735, -46.98970,
,,,3240.40948, -46.98970,
,,,3245.34161, -46.98970,
,,,3250.27374, -46.98970,
,,,3255.20587, -46.98970,
,,,3260.13800, -46.98970,
,,,3265.07013, -46.98970,
,,,3270.00226, -46.98970,
,,,3274.93439, -46.98970,
,,,3279.86652, -46.98970,
,,,3284.79865, -46.98970,
,,,3289.73078, -41.38970,
,,,3294.66291, -46.98970,
,,,3299.59504, -46.98970,
,,,3304.52717, -46.98970,
,,,3309.45930, -46.98970,
,,,3314.39143, -41.38970,
,,,3319.32356, -46.98970,
,,,3324.25569, -46.98970,
,,,3329.18782, -46.98970,
,,,3334.11995, -46.98970,
,,,3339.05208, -46.98970,
,,,3343.98421, -46.98970,
,,,3348.91634, -46.98970,
,,,3353.84847, -46.98970,
,,,3358.78060, -46.98970,
,,,3363.71273, -46.98970,
,,,3368.64486, -46.98970,
,,,3373.57699, -46.98970,
,,,3378.50912, -46.98970,
,,,3383.44125, -46.98970,
,,,3388.37338, -46.98970,
,,,3393.30551, -40.58970,
,,,3398.23764, -41.38970,
,,,3403.16977, -46.98970,
,,,3408.10190, -44.58970,
,,,3413.03403, -44.58970,
,,,3417.96616, -44.58970,
,,,3422.89829, -44.58970,
,,,3427.83042, -41.38970,
,,,3432.76255, -40.58970,
,,,3437.69468, -44.58970,
,,,3442.62681, -46.98970,
,,,3447.55894, -44.58970,
,,,3452.49107, -46.98970,
,,,3457.42320, -46.98970,
,,,3462.35533, -46.98970,
,,,3467.28746, -44.58970,
,,,3472.21959, -44.58970,
,,,3477.15172, -44.58970,
,,,3482.08385, -40.58970,
,,,3487.01598, -44.58970,
,,,3491.94811, -44.58970,
,,,3496.88024, -46.98970,
,,,3501.81237, -46.98970,
,,,3506.74450, -46.98970,
,,,3511.67663, -46.98970,
,,,3516.60876, -46.98970,
,,,3521.54089, -46.98970,
,,,3526.47302, -46.98970,
,,,3531.40515, -46.98970,
,,,3536.33728, -46.98970,
,,,3541.26941, -44.58970,
,,,3546.20154, -46.98970,
,,,3551.13367, -46.98970,
,,,3556.06580, -46.98970,
,,,3560.99793, -46.98970,
,,,3565.93006, -46.98970,
,,,3570.86219, -46.98970,
,,,3575.79432, -46.98970,
,,,3580.72645, -46.98970,
,,,3585.65858, -41.38970,
,,,3590.59071, -46.98970,
,,,3595.52284, -44.58970,
,,,3600.45497, -46.98970,
,,,3605.38710, -46.98970,
,,,3610.31923, -44.58970,
,,,3615.25136, -46.98970,
,,,3620.18349, -44.58970,
,,,3625.11562, -44.58970,
,,,3630.04775, -44.58970,
,,,3634.97988, -40.58970,
,,,3639.91201, -46.98970,
,,,3644.84414, -46.98970,
,,,3649.77627, -46.98970,
,,,3654.70840, -46.98970,
,,,3659.64053, -46.98970,
,,,3664.57266, -44.58970,
,,,3669.50479, -44.58970,
,,,3674.43692, -46.98970,
,,,3679.36905, -44.58970,
,,,3684.30118, -44.58970,
,,,3689.23331, -46.98970,
,,,3694.16544, -46.98970,
,,,3699.09757, -46.98970,
,,,3704.02970, -46.98970,
,,,3708.96183, -46.98970,
,,,3713.89396, -46.98970,
,,,3718.82609, -46.98970,
,,,3723.75822, -46.98970,
,,,3728.69035, -46.98970,
,,,3733.62248, -46.98970,
,,,3738.55461, -46.98970,
