RLCC_FFT_C2/ALL0003/F0003FFT.CSV

Record Length,1.024000e+03,,          0.00000, -52.54850,
Sample Interval,4.932134e+00,,          4.93213,   0.65150,
Trigger Point,-0.000000000000e+00,,          9.86427,   5.85150,
,,,         14.79640,   6.25150,
,,,         19.72854,   5.45150,
,,,         24.66067,  -2.94850,
Source,FFT,,         29.59280, -28.14850,
Vertical Units,dB,,         34.52494,  -6.14850,
Vertical Scale,1.000000e+01,,         39.45707,  -3.34850,
Vertical Offset,0.000000e+00,,         44.38920,  -3.34850,
Horizontal Units,Hz,,         49.32134,  -5.34850,
Horizontal Scale,5.050505e+02,,         54.25347, -17.74850,
Pt Fmt,Y,,         59.18561, -21.34850,
Yzero,-1.494850e+01,,         64.11774,  -8.94850,
Probe Atten,1.000000e+00,,         69.04987,  -7.74850,
Model Number,TBS1052B-EDU,,         73.98201,  -7.34850,
Serial Number,C027597,,         78.91414, -11.34850,
Firmware Version,FV:v4.06,,         83.84628, -28.94850,
,,,88.77841, -18.14850,
,,,93.71054, -10.54850,
,,,98.64267, -10.14850,
,,,103.57480, -10.54850,
,,,108.50693, -16.94850,
,,,113.43906, -35.34850,
,,,118.37119, -16.94850,
,,,123.30332, -12.54850,
,,,128.23545, -12.14850,
,,,133.16758, -13.34850,
,,,138.09971, -23.34850,
,,,143.03184, -30.94850,
,,,147.96397, -16.14850,
,,,152.89610, -13.74850,
,,,157.82823, -13.74850,
,,,162.76036, -16.14850,
,,,167.69249, -30.54850,
,,,172.62462, -25.34850,
,,,177.55675, -15.74850,
,,,182.48888, -14.54850,
,,,187.42101, -14.94850,
,,,192.35314, -19.34850,
,,,197.28527, -40.94850,
,,,202.21740, -22.54850,
,,,207.14953, -16.14850,
,,,212.08166, -15.74850,
,,,217.01379, -16.14850,
,,,221.94592, -23.74850,
,,,226.87805, -39.34850,
,,,231.81018, -20.14850,
,,,236.74231, -16.54850,
,,,241.67444, -16.14850,
,,,246.60657, -17.74850,
,,,251.53870, -29.34850,
,,,256.47083, -31.74850,
,,,261.40296, -18.14850,
,,,266.33509, -16.54850,
,,,271.26722, -16.54850,
,,,276.19935, -19.74850,
,,,281.13148, -37.74850,
,,,286.06361, -26.54850,
,,,290.99574, -17.74850,
,,,295.92787, -16.94850,
,,,300.86000, -16.94850,
,,,305.79213, -22.54850,
,,,310.72426, -44.14850,
,,,315.65639, -22.54850,
,,,320.58852, -17.34850,
,,,325.52065, -16.94850,
,,,330.45278, -17.74850,
,,,335.38491, -26.54850,
,,,340.31704, -35.74850,
,,,345.24917, -19.74850,
,,,350.18130, -16.94850,
,,,355.11343, -16.94850,
,,,360.04556, -18.94850,
,,,364.97769, -32.54850,
,,,369.90982, -30.14850,
,,,374.84195, -18.14850,
,,,379.77408, -16.94850,
,,,384.70621, -16.94850,
,,,389.63834, -20.94850,
,,,394.57047, -40.14850,
,,,399.50260, -24.54850,
,,,404.43473, -17.34850,
,,,409.36686, -16.94850,
,,,414.29899, -17.34850,
,,,419.23112, -23.74850,
,,,424.16325, -41.34850,
,,,429.09538, -21.34850,
,,,434.02751, -16.94850,
,,,438.95964, -16.94850,
,,,443.89177, -18.14850,
,,,448.82390, -28.54850,
,,,453.75603, -33.74850,
,,,458.68816, -19.34850,
,,,463.62029, -16.94850,
,,,468.55242, -16.94850,
,,,473.48455, -19.34850,
,,,478.41668, -34.54850,
,,,483.34881, -28.14850,
,,,488.28094, -18.54850,
,,,493.21307, -17.74850,
,,,498.14520, -17.74850,
,,,503.07733, -22.54850,
,,,508.00946, -41.34850,
,,,512.94159, -24.94850,
,,,517.87372, -18.94850,
,,,522.80585, -18.54850,
,,,527.73798, -18.94850,
,,,532.67011, -26.54850,
,,,537.60224, -40.94850,
,,,542.53437, -22.94850,
,,,547.46650, -19.74850,
,,,552.39863, -19.74850,
,,,557.33076, -21.34850,
,,,562.26289, -33.34850,
,,,567.19502, -35.74850,
,,,572.12715, -22.54850,
,,,577.05928, -20.94850,
,,,581.99141, -20.94850,
,,,586.92354, -24.54850,
,,,591.85567, -42.94850,
,,,596.78780, -31.34850,
,,,601.71993, -22.94850,
,,,606.65206, -22.54850,
,,,611.58419, -22.54850,
,,,616.51632, -28.54850,
,,,621.44845, -49.34850,
,,,626.38058, -28.54850,
,,,631.31271, -23.34850,
,,,636.24484, -23.34850,
,,,641.17697, -24.14850,
,,,646.10910, -32.94850,
,,,651.04123, -42.54850,
,,,655.97336, -27.34850,
,,,660.90549, -24.54850,
,,,665.83762, -24.54850,
,,,670.76975, -26.54850,
,,,675.70188, -38.94850,
,,,680.63401, -36.54850,
,,,685.56614, -26.54850,
,,,690.49827, -25.74850,
,,,695.43040, -25.74850,
,,,700.36253, -30.14850,
,,,705.29466, -52.54850,
,,,710.22679, -34.14850,
,,,715.15892, -27.34850,
,,,720.09105, -26.54850,
,,,725.02318, -27.34850,
,,,729.95531, -34.14850,
,,,734.88744, -54.94850,
,,,739.81957, -32.94850,
,,,744.75170, -28.54850,
,,,749.68383, -28.54850,
,,,754.61596, -29.74850,
,,,759.54809, -40.14850,
,,,764.48022, -44.14850,
,,,769.41235, -30.94850,
,,,774.34448, -28.54850,
,,,779.27661, -28.54850,
,,,784.20874, -31.74850,
,,,789.14087, -49.34850,
,,,794.07300, -40.94850,
,,,799.00513, -30.14850,
,,,803.93726, -29.34850,
,,,808.86939, -28.94850,
,,,813.80152, -34.14850,
,,,818.73365, -48.54850,
,,,823.66578, -35.74850,
,,,828.59791, -30.14850,
,,,833.53004, -29.74850,
,,,838.46217, -30.14850,
,,,843.39430, -38.94850,
,,,848.32643, -52.54850,
,,,853.25856, -33.74850,
,,,858.19069, -30.94850,
,,,863.12282, -30.94850,
,,,868.05495, -31.74850,
,,,872.98708, -42.54850,
,,,877.91921, -42.94850,
,,,882.85134, -32.54850,
,,,887.78347, -31.74850,
,,,892.71560, -31.34850,
,,,897.64773, -35.74850,
,,,902.57986, -54.94850,
,,,907.51199, -39.34850,
,,,912.44412, -31.34850,
,,,917.37625, -30.94850,
,,,922.30838, -30.94850,
,,,927.24051, -36.94850,
,,,932.17264, -52.54850,
,,,937.10477, -36.94850,
,,,942.03690, -31.74850,
,,,946.96903, -31.74850,
,,,951.90116, -32.14850,
,,,956.83329, -40.94850,
,,,961.76542, -52.54850,
,,,966.69755, -34.94850,
,,,971.62968, -32.14850,
,,,976.56181, -32.54850,
,,,981.49394, -34.14850,
,,,986.42607, -48.54850,
,,,991.35820, -45.34850,
,,,996.29033, -33.34850,
,,,1001.22246, -31.74850,
,,,1006.15459, -31.74850,
,,,1011.08672, -36.94850,
,,,1016.01885, -54.94850,
,,,1020.95098, -40.94850,
,,,1025.88311, -32.54850,
,,,1030.81524, -31.74850,
,,,1035.74737, -32.14850,
,,,1040.67950, -39.74850,
,,,1045.61163, -54.94850,
,,,1050.54376, -36.14850,
,,,1055.47589, -32.14850,
,,,1060.40802, -32.14850,
,,,1065.34015, -33.74850,
,,,1070.27228, -42.94850,
,,,1075.20441, -48.54850,
,,,1080.13654, -34.14850,
,,,1085.06867, -32.54850,
,,,1090.00080, -32.54850,
,,,1094.93293, -35.74850,
,,,1099.86506, -52.54850,
,,,1104.79719, -42.54850,
,,,1109.72932, -32.94850,
,,,1114.66145, -32.54850,
,,,1119.59358, -32.94850,
,,,1124.52571, -37.34850,
,,,1129.45784, -54.94850,
,,,1134.38997, -38.14850,
,,,1139.32210, -32.14850,
,,,1144.25423, -32.14850,
,,,1149.18636, -32.94850,
,,,1154.11849, -41.34850,
,,,1159.05062, -49.34850,
,,,1163.98275, -36.54850,
,,,1168.91488, -32.94850,
,,,1173.84701, -32.54850,
,,,1178.77914, -34.14850,
,,,1183.71127, -44.14850,
,,,1188.64340, -42.54850,
,,,1193.57553, -34.14850,
,,,1198.50766, -33.74850,
,,,1203.43979, -33.74850,
,,,1208.37192, -37.74850,
,,,1213.30405, -54.94850,
,,,1218.23618, -42.54850,
,,,1223.16831, -35.34850,
,,,1228.10044, -34.14850,
,,,1233.03257, -34.94850,
,,,1237.96470, -40.14850,
,,,1242.89683, -54.94850,
,,,1247.82896, -40.94850,
,,,1252.76109, -36.54850,
,,,1257.69322, -36.14850,
,,,1262.62535, -36.54850,
,,,1267.55748, -45.34850,
,,,1272.48961, -54.94850,
,,,1277.42174, -39.34850,
,,,1282.35387, -36.54850,
,,,1287.28600, -35.34850,
,,,1292.21813, -38.14850,
,,,1297.15026, -48.54850,
,,,1302.08239, -48.54850,
,,,1307.01452, -40.14850,
,,,1311.94665, -40.14850,
,,,1316.87878, -40.94850,
,,,1321.81091, -44.14850,
,,,1326.74304, -54.94850,
,,,1331.67517, -46.54850,
,,,1336.60730, -39.34850,
,,,1341.53943, -38.94850,
,,,1346.47156, -39.34850,
,,,1351.40369, -49.34850,
,,,1356.33582, -54.94850,
,,,1361.26795, -44.14850,
,,,1366.20008, -40.14850,
,,,1371.13221, -40.54850,
,,,1376.06434, -41.34850,
,,,1380.99647, -52.54850,
,,,1385.92860, -52.54850,
,,,1390.86073, -44.14850,
,,,1395.79286, -42.54850,
,,,1400.72499, -42.54850,
,,,1405.65712, -45.34850,
,,,1410.58925, -54.94850,
,,,1415.52138, -54.94850,
,,,1420.45351, -46.54850,
,,,1425.38564, -44.14850,
,,,1430.31777, -45.34850,
,,,1435.24990, -49.34850,
,,,1440.18203, -54.94850,
,,,1445.11416, -52.54850,
,,,1450.04629, -46.54850,
,,,1454.97842, -42.94850,
,,,1459.91055, -46.54850,
,,,1464.84268, -48.54850,
,,,1469.77481, -52.54850,
,,,1474.70694, -46.54850,
,,,1479.63907, -46.54850,
,,,1484.57120, -48.54850,
,,,1489.50333, -48.54850,
,,,1494.43546, -54.94850,
,,,1499.36759, -54.94850,
,,,1504.29972, -48.54850,
,,,1509.23185, -48.54850,
,,,1514.16398, -48.54850,
,,,1519.09611, -52.54850,
,,,1524.02824, -54.94850,
,,,1528.96037, -52.54850,
,,,1533.89250, -48.54850,
,,,1538.82463, -48.54850,
,,,1543.75676, -49.34850,
,,,1548.68889, -54.94850,
,,,1553.62102, -54.94850,
,,,1558.55315, -54.94850,
,,,1563.48528, -48.54850,
,,,1568.41741, -48.54850,
,,,1573.34954, -48.54850,
,,,1578.28167, -52.54850,
,,,1583.21380, -54.94850,
,,,1588.14593, -48.54850,
,,,1593.07806, -48.54850,
,,,1598.01019, -52.54850,
,,,1602.94232, -49.34850,
,,,1607.87445, -54.94850,
,,,1612.80658, -54.94850,
,,,1617.73871, -48.54850,
,,,1622.67084, -52.54850,
,,,1627.60297, -54.94850,
,,,1632.53510, -54.94850,
,,,1637.46723, -54.94850,
,,,1642.39936, -54.94850,
,,,1647.33149, -52.54850,
,,,1652.26362, -52.54850,
,,,1657.19575, -54.94850,
,,,1662.12788, -54.94850,
,,,1667.06001, -54.94850,
,,,1671.99214, -52.54850,
,,,1676.92427, -54.94850,
,,,1681.85640, -54.94850,
,,,1686.78853, -54.94850,
,,,1691.72066, -54.94850,
,,,1696.65279, -54.94850,
,,,1701.58492, -52.54850,
,,,1706.51705, -48.54850,
,,,1711.44918, -52.54850,
,,,1716.38131, -52.54850,
,,,1721.31344, -54.94850,
,,,1726.24557, -54.94850,
,,,1731.17770, -54.94850,
,,,1736.10983, -54.94850,
,,,1741.04196, -54.94850,
,,,1745.97409, -54.94850,
,,,1750.90622, -54.94850,
,,,1755.83835, -54.94850,
,,,1760.77048, -54.94850,
,,,1765.70261, -54.94850,
,,,1770.63474, -52.54850,
,,,1775.56687, -48.54850,
,,,1780.49900, -54.94850,
,,,1785.43113, -49.34850,
,,,1790.36326, -49.34850,
,,,1795.29539, -54.94850,
,,,1800.22752, -52.54850,
,,,1805.15965, -52.54850,
,,,1810.09178, -54.94850,
,,,1815.02391, -52.54850,
,,,1819.95604, -54.94850,
,,,1824.88817, -54.94850,
,,,1829.82030, -54.94850,
,,,1834.75243, -54.94850,
,,,1839.68456, -54.94850,
,,,1844.61669, -54.94850,
,,,1849.54882, -54.94850,
,,,1854.48095, -54.94850,
,,,1859.41308, -54.94850,
,,,1864.34521, -54.94850,
,,,1869.27734, -54.94850,
,,,1874.20947, -52.54850,
,,,1879.14160, -52.54850,
,,,1884.07373, -48.54850,
,,,1889.00586, -54.94850,
,,,1893.93799, -54.94850,
,,,1898.87012, -54.94850,
,,,1903.80225, -54.94850,
,,,1908.73438, -54.94850,
,,,1913.66651, -54.94850,
,,,1918.59864, -49.34850,
,,,1923.53077, -54.94850,
,,,1928.46290, -52.54850,
,,,1933.39503, -54.94850,
,,,1938.32716, -52.54850,
,,,1943.25929, -48.54850,
,,,1948.19142, -54.94850,
,,,1953.12355, -54.94850,
,,,1958.05568, -54.94850,
,,,1962.98781, -52.54850,
,,,1967.91994, -54.94850,
,,,1972.85207, -54.94850,
,,,1977.78420, -54.94850,
,,,1982.71633, -54.94850,
,,,1987.64846, -54.94850,
,,,1992.58059, -54.94850,
,,,1997.51272, -54.94850,
,,,2002.44485, -54.94850,
,,,2007.37698, -54.94850,
,,,2012.30911, -49.34850,
,,,2017.24124, -54.94850,
,,,2022.17337, -54.94850,
,,,2027.10550, -52.54850,
,,,2032.03763, -52.54850,
,,,2036.96976, -54.94850,
,,,2041.90189, -54.94850,
,,,2046.83402, -54.94850,
,,,2051.76615, -54.94850,
,,,2056.69828, -54.94850,
,,,2061.63041, -52.54850,
,,,2066.56254, -54.94850,
,,,2071.49467, -54.94850,
,,,2076.42680, -54.94850,
,,,2081.35893, -54.94850,
,,,2086.29106, -54.94850,
,,,2091.22319, -52.54850,
,,,2096.15532, -54.94850,
,,,2101.08745, -54.94850,
,,,2106.01958, -52.54850,
,,,2110.95171, -52.54850,
,,,2115.88384, -49.34850,
,,,2120.81597, -54.94850,
,,,2125.74810, -54.94850,
,,,2130.68023, -54.94850,
,,,2135.61236, -54.94850,
,,,2140.54449, -52.54850,
,,,2145.47662, -54.94850,
,,,2150.40875, -54.94850,
,,,2155.34088, -49.34850,
,,,2160.27301, -54.94850,
,,,2165.20514, -54.94850,
,,,2170.13727, -52.54850,
,,,2175.06940, -54.94850,
,,,2180.00153, -54.94850,
,,,2184.93366, -54.94850,
,,,2189.86579, -54.94850,
,,,2194.79792, -52.54850,
,,,2199.73005, -54.94850,
,,,2204.66218, -54.94850,
,,,2209.59431, -54.94850,
,,,2214.52644, -54.94850,
,,,2219.45857, -54.94850,
,,,2224.39070, -49.34850,
,,,2229.32283, -52.54850,
,,,2234.25496, -52.54850,
,,,2239.18709, -54.94850,
,,,2244.11922, -54.94850,
,,,2249.05135, -54.94850,
,,,2253.98348, -54.94850,
,,,2258.91561, -54.94850,
,,,2263.84774, -54.94850,
,,,2268.77987, -52.54850,
,,,2273.71200, -54.94850,
,,,2278.64413, -54.94850,
,,,2283.57626, -54.94850,
,,,2288.50839, -54.94850,
,,,2293.44052, -54.94850,
,,,2298.37265, -54.94850,
,,,2303.30478, -54.94850,
,,,2308.23691, -54.94850,
,,,2313.16904, -54.94850,
,,,2318.10117, -54.94850,
,,,2323.03330, -54.94850,
,,,2327.96543, -54.94850,
,,,2332.89756, -54.94850,
,,,2337.82969, -54.94850,
,,,2342.76182, -54.94850,
,,,2347.69395, -48.54850,
,,,2352.62608, -54.94850,
,,,2357.55821, -54.94850,
,,,2362.49034, -52.54850,
,,,2367.42247, -48.54850,
,,,2372.35460, -48.54850,
,,,2377.28673, -54.94850,
,,,2382.21886, -54.94850,
,,,2387.15099, -54.94850,
,,,2392.08312, -54.94850,
,,,2397.01525, -54.94850,
,,,2401.94738, -54.94850,
,,,2406.87951, -54.94850,
,,,2411.81164, -54.94850,
,,,2416.74377, -52.54850,
,,,2421.67590, -54.94850,
,,,2426.60803, -52.54850,
,,,2431.54016, -54.94850,
,,,2436.47229, -52.54850,
,,,2441.40442, -54.94850,
,,,2446.33655, -54.94850,
,,,2451.26868, -54.94850,
,,,2456.20081, -54.94850,
,,,2461.13294, -54.94850,
,,,2466.06507, -52.54850,
,,,2470.99720, -52.54850,
,,,2475.92933, -49.34850,
,,,2480.86146, -49.34850,
,,,2485.79359, -45.74850,
,,,2490.72572, -49.34850,
,,,2495.65785, -49.34850,
,,,2500.58998, -54.94850,
,,,2505.52211, -52.54850,
,,,2510.45424, -54.94850,
,,,2515.38637, -54.94850,
,,,2520.31850, -52.54850,
,,,2525.25063, -52.54850,
,,,2530.18276, -52.54850,
,,,2535.11489, -52.54850,
,,,2540.04702, -52.54850,
,,,2544.97915, -52.54850,
,,,2549.91128, -54.94850,
,,,2554.84341, -54.94850,
,,,2559.77554, -54.94850,
,,,2564.70767, -52.54850,
,,,2569.63980, -52.54850,
,,,2574.57193, -54.94850,
,,,2579.50406, -54.94850,
,,,2584.43619, -54.94850,
,,,2589.36832, -54.94850,
,,,2594.30045, -49.34850,
,,,2599.23258, -54.94850,
,,,2604.16471, -54.94850,
,,,2609.09684, -54.94850,
,,,2614.02897, -54.94850,
,,,2618.96110, -52.54850,
,,,2623.89323, -48.54850,
,,,2628.82536, -49.34850,
,,,2633.75749, -54.94850,
,,,2638.68962, -49.34850,
,,,2643.62175, -54.94850,
,,,2648.55388, -54.94850,
,,,2653.48601, -54.94850,
,,,2658.41814, -54.94850,
,,,2663.35027, -54.94850,
,,,2668.28240, -54.94850,
,,,2673.21453, -52.54850,
,,,2678.14666, -52.54850,
,,,2683.07879, -52.54850,
,,,2688.01092, -54.94850,
,,,2692.94305, -54.94850,
,,,2697.87518, -52.54850,
,,,2702.80731, -54.94850,
,,,2707.73944, -48.54850,
,,,2712.67157, -52.54850,
,,,2717.60370, -48.54850,
,,,2722.53583, -54.94850,
,,,2727.46796, -54.94850,
,,,2732.40009, -52.54850,
,,,2737.33222, -52.54850,
,,,2742.26435, -54.94850,
,,,2747.19648, -54.94850,
,,,2752.12861, -54.94850,
,,,2757.06074, -54.94850,
,,,2761.99287, -54.94850,
,,,2766.92500, -54.94850,
,,,2771.85713, -54.94850,
,,,2776.78926, -54.94850,
,,,2781.72139, -54.94850,
,,,2786.65352, -54.94850,
,,,2791.58565, -54.94850,
,,,2796.51778, -54.94850,
,,,2801.44991, -54.94850,
,,,2806.38204, -54.94850,
,,,2811.31417, -54.94850,
,,,2816.24630, -52.54850,
,,,2821.17843, -54.94850,
,,,2826.11056, -54.94850,
,,,2831.04269, -52.54850,
,,,2835.97482, -54.94850,
,,,2840.90695, -52.54850,
,,,2845.83908, -54.94850,
,,,2850.77121, -54.94850,
,,,2855.70334, -54.94850,
,,,2860.63547, -52.54850,
,,,2865.56760, -54.94850,
,,,2870.49973, -49.34850,
,,,2875.43186, -54.94850,
,,,2880.36399, -52.54850,
,,,2885.29612, -52.54850,
,,,2890.22825, -54.94850,
,,,2895.16038, -54.94850,
,,,2900.09251, -52.54850,
,,,2905.02464, -54.94850,
,,,2909.95677, -54.94850,
,,,2914.88890, -54.94850,
,,,2919.82103, -54.94850,
,,,2924.75316, -52.54850,
,,,2929.68529, -54.94850,
,,,2934.61742, -52.54850,
,,,2939.54955, -54.94850,
,,,2944.48168, -54.94850,
,,,2949.41381, -54.94850,
,,,2954.34594, -54.94850,
,,,2959.27807, -52.54850,
,,,2964.21020, -52.54850,
,,,2969.14233, -54.94850,
,,,2974.07446, -54.94850,
,,,2979.00659, -52.54850,
,,,2983.93872, -52.54850,
,,,2988.87085, -54.94850,
,,,2993.80298, -54.94850,
,,,2998.73511, -52.54850,
,,,3003.66724, -52.54850,
,,,3008.59937, -54.94850,
,,,3013.53150, -54.94850,
,,,3018.46363, -52.54850,
,,,3023.39576, -54.94850,
,,,3028.32789, -54.94850,
,,,3033.26002, -54.94850,
,,,3038.19215, -54.94850,
,,,3043.12428, -54.94850,
,,,3048.05641, -54.94850,
,,,3052.98854, -54.94850,
,,,3057.92067, -54.94850,
,,,3062.85280, -54.94850,
,,,3067.78493, -54.94850,
,,,3072.71706, -54.94850,
,,,3077.64919, -48.54850,
,,,3082.58132, -54.94850,
,,,3087.51345, -54.94850,
,,,3092.44558, -54.94850,
,,,3097.37771, -54.94850,
,,,3102.30984, -54.94850,
,,,3107.24197, -54.94850,
,,,3112.17410, -54.94850,
,,,3117.10623, -54.94850,
,,,3122.03836, -48.54850,
,,,3126.97049, -48.54850,
,,,3131.90262, -48.54850,
,,,3136.83475, -54.94850,
,,,3141.76688, -54.94850,
,,,3146.69901, -52.54850,
,,,3151.63114, -52.54850,
,,,3156.56327, -54.94850,
,,,3161.49540, -54.94850,
,,,3166.42753, -54.94850,
,,,3171.35966, -54.94850,
,,,3176.29179, -54.94850,
,,,3181.22392, -54.94850,
,,,3186.15605, -54.94850,
,,,3191.08818, -54.94850,
,,,3196.02031, -54.94850,
,,,3200.95244, -52.54850,
,,,3205.88457, -52.54850,
,,,3210.81670, -54.94850,
,,,3215.74883, -54.94850,
,,,3220.68096, -54.94850,
,,,3225.61309, -54.94850,
,,,3230.54522, -54.94850,
,,,3235.47735, -54.94850,
,,,3240.40948, -54.94850,
,,,3245.34161, -52.54850,
,,,3250.27374, -54.94850,
,,,3255.20587, -48.54850,
,,,3260.13800, -54.94850,
,,,3265.07013, -54.94850,
,,,3270.00226, -49.34850,
,,,3274.93439, -54.94850,
,,,3279.86652, -52.54850,
,,,3284.79865, -54.94850,
,,,3289.73078, -52.54850,
,,,3294.66291, -54.94850,
,,,3299.59504, -54.94850,
,,,3304.52717, -54.94850,
,,,3309.45930, -52.54850,
,,,3314.39143, -54.94850,
,,,3319.32356, -54.94850,
,,,3324.25569, -54.94850,
,,,3329.18782, -54.94850,
,,,3334.11995, -54.94850,
,,,3339.05208, -54.94850,
,,,3343.98421, -54.94850,
,,,3348.91634, -54.94850,
,,,3353.84847, -54.94850,
,,,3358.78060, -54.94850,
,,,3363.71273, -54.94850,
,,,3368.64486, -54.94850,
,,,3373.57699, -54.94850,
,,,3378.50912, -52.54850,
,,,3383.44125, -54.94850,
,,,3388.37338, -54.94850,
,,,3393.30551, -54.94850,
,,,3398.23764, -54.94850,
,,,3403.16977, -52.54850,
,,,3408.10190, -49.34850,
,,,3413.03403, -48.54850,
,,,3417.96616, -52.54850,
,,,3422.89829, -54.94850,
,,,3427.83042, -54.94850,
,,,3432.76255, -54.94850,
,,,3437.69468, -52.54850,
,,,3442.62681, -54.94850,
,,,3447.55894, -54.94850,
,,,3452.49107, -54.94850,
,,,3457.42320, -54.94850,
,,,3462.35533, -54.94850,
,,,3467.28746, -52.54850,
,,,3472.21959, -52.54850,
,,,3477.15172, -54.94850,
,,,3482.08385, -54.94850,
,,,3487.01598, -54.94850,
,,,3491.94811, -54.94850,
,,,3496.88024, -54.94850,
,,,3501.81237, -54.94850,
,,,3506.74450, -54.94850,
,,,3511.67663, -54.94850,
,,,3516.60876, -52.54850,
,,,3521.54089, -52.54850,
,,,3526.47302, -54.94850,
,,,3531.40515, -54.94850,
,,,3536.33728, -54.94850,
,,,3541.26941, -54.94850,
,,,3546.20154, -49.34850,
,,,3551.13367, -54.94850,
,,,3556.06580, -54.94850,
,,,3560.99793, -54.94850,
,,,3565.93006, -52.54850,
,,,3570.86219, -52.54850,
,,,3575.79432, -54.94850,
,,,3580.72645, -54.94850,
,,,3585.65858, -52.54850,
,,,3590.59071, -54.94850,
,,,3595.52284, -54.94850,
,,,3600.45497, -54.94850,
,,,3605.38710, -54.94850,
,,,3610.31923, -54.94850,
,,,3615.25136, -54.94850,
,,,3620.18349, -54.94850,
,,,3625.11562, -54.94850,
,,,3630.04775, -54.94850,
,,,3634.97988, -54.94850,
,,,3639.91201, -52.54850,
,,,3644.84414, -54.94850,
,,,3649.77627, -54.94850,
,,,3654.70840, -54.94850,
,,,3659.64053, -54.94850,
,,,3664.57266, -54.94850,
,,,3669.50479, -54.94850,
,,,3674.43692, -54.94850,
,,,3679.36905, -52.54850,
,,,3684.30118, -52.54850,
,,,3689.23331, -54.94850,
,,,3694.16544, -54.94850,
,,,3699.09757, -49.34850,
,,,3704.02970, -54.94850,
,,,3708.96183, -54.94850,
,,,3713.89396, -54.94850,
,,,3718.82609, -52.54850,
,,,3723.75822, -52.54850,
,,,3728.69035, -54.94850,
,,,3733.62248, -54.94850,
,,,3738.55461, -54.94850,
