RLCC_FFT_C1/ALL0013/F0013FFT.CSV

Record Length,1.024000e+03,,          0.00000,  12.21030,
Sample Interval,4.932134e+00,,          4.93213,  15.81030,
Trigger Point,-0.000000000000e+00,,          9.86427,  17.41030,
,,,         14.79640,  16.21030,
,,,         19.72854,  13.01030,
,,,         24.66067,   8.21030,
Source,FFT,,         29.59280,   3.01030,
Vertical Units,dB,,         34.52494,   4.21030,
Vertical Scale,1.000000e+01,,         39.45707,   6.21030,
Vertical Offset,0.000000e+00,,         44.38920,   5.81030,
Horizontal Units,Hz,,         49.32134,   3.41030,
Horizontal Scale,5.050505e+02,,         54.25347,  -0.98970,
Pt Fmt,Y,,         59.18561,  -2.58970,
Yzero,-6.989700e+00,,         64.11774,   0.21030,
Probe Atten,1.000000e+00,,         69.04987,   1.41030,
Model Number,TBS1052B-EDU,,         73.98201,   1.01030,
Serial Number,C027597,,         78.91414,  -1.78970,
Firmware Version,FV:v4.06,,         83.84628,  -5.78970,
,,,88.77841,  -4.98970,
,,,93.71054,  -2.18970,
,,,98.64267,  -1.38970,
,,,103.57480,  -2.58970,
,,,108.50693,  -5.78970,
,,,113.43906,  -8.58970,
,,,118.37119,  -6.18970,
,,,123.30332,  -3.78970,
,,,128.23545,  -3.38970,
,,,133.16758,  -5.38970,
,,,138.09971,  -8.98970,
,,,143.03184, -10.58970,
,,,147.96397,  -6.98970,
,,,152.89610,  -4.98970,
,,,157.82823,  -5.38970,
,,,162.76036,  -7.78970,
,,,167.69249, -11.78970,
,,,172.62462, -10.98970,
,,,177.55675,  -7.78970,
,,,182.48888,  -6.58970,
,,,187.42101,  -7.38970,
,,,192.35314, -10.18970,
,,,197.28527, -13.38970,
,,,202.21740, -10.98970,
,,,207.14953,  -8.58970,
,,,212.08166,  -7.78970,
,,,217.01379,  -8.98970,
,,,221.94592, -12.58970,
,,,226.87805, -14.58970,
,,,231.81018, -11.38970,
,,,236.74231,  -8.98970,
,,,241.67444,  -8.98970,
,,,246.60657, -10.98970,
,,,251.53870, -14.98970,
,,,256.47083, -14.58970,
,,,261.40296, -11.38970,
,,,266.33509,  -9.78970,
,,,271.26722, -10.18970,
,,,276.19935, -12.58970,
,,,281.13148, -16.18970,
,,,286.06361, -14.58970,
,,,290.99574, -11.78970,
,,,295.92787, -10.58970,
,,,300.86000, -11.78970,
,,,305.79213, -14.98970,
,,,310.72426, -17.38970,
,,,315.65639, -13.78970,
,,,320.58852, -11.78970,
,,,325.52065, -11.38970,
,,,330.45278, -12.98970,
,,,335.38491, -16.98970,
,,,340.31704, -17.38970,
,,,345.24917, -14.18970,
,,,350.18130, -12.18970,
,,,355.11343, -12.58970,
,,,360.04556, -14.58970,
,,,364.97769, -18.18970,
,,,369.90982, -16.98970,
,,,374.84195, -13.78970,
,,,379.77408, -12.58970,
,,,384.70621, -13.38970,
,,,389.63834, -16.58970,
,,,394.57047, -19.38970,
,,,399.50260, -16.18970,
,,,404.43473, -13.78970,
,,,409.36686, -12.98970,
,,,414.29899, -14.18970,
,,,419.23112, -17.78970,
,,,424.16325, -19.38970,
,,,429.09538, -16.58970,
,,,434.02751, -14.58970,
,,,438.95964, -14.18970,
,,,443.89177, -16.18970,
,,,448.82390, -19.78970,
,,,453.75603, -19.78970,
,,,458.68816, -16.18970,
,,,463.62029, -14.58970,
,,,468.55242, -14.98970,
,,,473.48455, -17.78970,
,,,478.41668, -20.98970,
,,,483.34881, -18.98970,
,,,488.28094, -15.78970,
,,,493.21307, -14.98970,
,,,498.14520, -16.18970,
,,,503.07733, -19.38970,
,,,508.00946, -21.78970,
,,,512.94159, -18.18970,
,,,517.87372, -15.78970,
,,,522.80585, -15.38970,
,,,527.73798, -16.98970,
,,,532.67011, -20.18970,
,,,537.60224, -21.38970,
,,,542.53437, -18.18970,
,,,547.46650, -16.18970,
,,,552.39863, -16.58970,
,,,557.33076, -18.58970,
,,,562.26289, -22.58970,
,,,567.19502, -20.58970,
,,,572.12715, -17.78970,
,,,577.05928, -16.18970,
,,,581.99141, -16.98970,
,,,586.92354, -20.18970,
,,,591.85567, -22.98970,
,,,596.78780, -20.58970,
,,,601.71993, -17.78970,
,,,606.65206, -16.98970,
,,,611.58419, -18.18970,
,,,616.51632, -20.98970,
,,,621.44845, -22.98970,
,,,626.38058, -19.38970,
,,,631.31271, -17.38970,
,,,636.24484, -17.78970,
,,,641.17697, -19.78970,
,,,646.10910, -23.78970,
,,,651.04123, -22.98970,
,,,655.97336, -19.78970,
,,,660.90549, -17.78970,
,,,665.83762, -18.18970,
,,,670.76975, -20.98970,
,,,675.70188, -24.18970,
,,,680.63401, -21.78970,
,,,685.56614, -19.38970,
,,,690.49827, -18.58970,
,,,695.43040, -19.78970,
,,,700.36253, -22.98970,
,,,705.29466, -26.18970,
,,,710.22679, -22.18970,
,,,715.15892, -19.78970,
,,,720.09105, -19.38970,
,,,725.02318, -20.98970,
,,,729.95531, -24.58970,
,,,734.88744, -24.98970,
,,,739.81957, -21.38970,
,,,744.75170, -20.18970,
,,,749.68383, -19.78970,
,,,754.61596, -21.78970,
,,,759.54809, -24.98970,
,,,764.48022, -24.58970,
,,,769.41235, -21.38970,
,,,774.34448, -20.18970,
,,,779.27661, -20.98970,
,,,784.20874, -24.58970,
,,,789.14087, -27.38970,
,,,794.07300, -24.18970,
,,,799.00513, -21.38970,
,,,803.93726, -20.58970,
,,,808.86939, -21.38970,
,,,813.80152, -24.98970,
,,,818.73365, -26.98970,
,,,823.66578, -23.78970,
,,,828.59791, -21.38970,
,,,833.53004, -21.78970,
,,,838.46217, -23.78970,
,,,843.39430, -27.38970,
,,,848.32643, -26.58970,
,,,853.25856, -23.38970,
,,,858.19069, -22.18970,
,,,863.12282, -22.58970,
,,,868.05495, -24.58970,
,,,872.98708, -27.78970,
,,,877.91921, -25.38970,
,,,882.85134, -22.58970,
,,,887.78347, -21.38970,
,,,892.71560, -23.38970,
,,,897.64773, -26.18970,
,,,902.57986, -28.98970,
,,,907.51199, -24.98970,
,,,912.44412, -22.98970,
,,,917.37625, -22.18970,
,,,922.30838, -24.18970,
,,,927.24051, -27.78970,
,,,932.17264, -28.98970,
,,,937.10477, -25.78970,
,,,942.03690, -24.18970,
,,,946.96903, -23.38970,
,,,951.90116, -26.18970,
,,,956.83329, -27.78970,
,,,961.76542, -27.38970,
,,,966.69755, -23.78970,
,,,971.62968, -22.98970,
,,,976.56181, -23.78970,
,,,981.49394, -26.98970,
,,,986.42607, -30.18970,
,,,991.35820, -26.98970,
,,,996.29033, -24.58970,
,,,1001.22246, -24.58970,
,,,1006.15459, -25.78970,
,,,1011.08672, -28.98970,
,,,1016.01885, -30.18970,
,,,1020.95098, -26.98970,
,,,1025.88311, -24.98970,
,,,1030.81524, -24.58970,
,,,1035.74737, -26.58970,
,,,1040.67950, -29.78970,
,,,1045.61163, -28.58970,
,,,1050.54376, -26.18970,
,,,1055.47589, -25.38970,
,,,1060.40802, -25.38970,
,,,1065.34015, -28.18970,
,,,1070.27228, -30.98970,
,,,1075.20441, -28.98970,
,,,1080.13654, -25.78970,
,,,1085.06867, -24.98970,
,,,1090.00080, -25.78970,
,,,1094.93293, -28.18970,
,,,1099.86506, -30.58970,
,,,1104.79719, -27.38970,
,,,1109.72932, -25.38970,
,,,1114.66145, -24.58970,
,,,1119.59358, -25.78970,
,,,1124.52571, -30.58970,
,,,1129.45784, -31.38970,
,,,1134.38997, -28.18970,
,,,1139.32210, -27.38970,
,,,1144.25423, -27.38970,
,,,1149.18636, -29.38970,
,,,1154.11849, -31.78970,
,,,1159.05062, -30.18970,
,,,1163.98275, -27.38970,
,,,1168.91488, -25.38970,
,,,1173.84701, -26.98970,
,,,1178.77914, -29.38970,
,,,1183.71127, -32.18970,
,,,1188.64340, -29.78970,
,,,1193.57553, -26.98970,
,,,1198.50766, -26.98970,
,,,1203.43979, -28.18970,
,,,1208.37192, -31.78970,
,,,1213.30405, -33.38970,
,,,1218.23618, -30.58970,
,,,1223.16831, -28.58970,
,,,1228.10044, -27.38970,
,,,1233.03257, -29.38970,
,,,1237.96470, -33.38970,
,,,1242.89683, -31.38970,
,,,1247.82896, -28.18970,
,,,1252.76109, -26.58970,
,,,1257.69322, -26.58970,
,,,1262.62535, -29.38970,
,,,1267.55748, -31.78970,
,,,1272.48961, -30.18970,
,,,1277.42174, -27.38970,
,,,1282.35387, -27.38970,
,,,1287.28600, -29.38970,
,,,1292.21813, -33.38970,
,,,1297.15026, -34.58970,
,,,1302.08239, -30.18970,
,,,1307.01452, -28.58970,
,,,1311.94665, -28.18970,
,,,1316.87878, -28.18970,
,,,1321.81091, -31.78970,
,,,1326.74304, -32.98970,
,,,1331.67517, -30.18970,
,,,1336.60730, -28.58970,
,,,1341.53943, -28.18970,
,,,1346.47156, -31.78970,
,,,1351.40369, -34.98970,
,,,1356.33582, -32.98970,
,,,1361.26795, -30.98970,
,,,1366.20008, -28.98970,
,,,1371.13221, -29.38970,
,,,1376.06434, -31.78970,
,,,1380.99647, -34.98970,
,,,1385.92860, -32.18970,
,,,1390.86073, -30.18970,
,,,1395.79286, -30.58970,
,,,1400.72499, -31.78970,
,,,1405.65712, -34.98970,
,,,1410.58925, -34.98970,
,,,1415.52138, -32.18970,
,,,1420.45351, -28.98970,
,,,1425.38564, -29.38970,
,,,1430.31777, -31.78970,
,,,1435.24990, -33.38970,
,,,1440.18203, -34.58970,
,,,1445.11416, -31.38970,
,,,1450.04629, -30.18970,
,,,1454.97842, -30.58970,
,,,1459.91055, -32.18970,
,,,1464.84268, -35.38970,
,,,1469.77481, -34.98970,
,,,1474.70694, -32.98970,
,,,1479.63907, -31.78970,
,,,1484.57120, -32.98970,
,,,1489.50333, -34.58970,
,,,1494.43546, -40.58970,
,,,1499.36759, -33.38970,
,,,1504.29972, -32.98970,
,,,1509.23185, -30.58970,
,,,1514.16398, -31.78970,
,,,1519.09611, -34.98970,
,,,1524.02824, -37.78970,
,,,1528.96037, -32.98970,
,,,1533.89250, -30.58970,
,,,1538.82463, -31.78970,
,,,1543.75676, -33.38970,
,,,1548.68889, -37.38970,
,,,1553.62102, -37.38970,
,,,1558.55315, -33.38970,
,,,1563.48528, -31.78970,
,,,1568.41741, -31.78970,
,,,1573.34954, -34.58970,
,,,1578.28167, -37.38970,
,,,1583.21380, -37.38970,
,,,1588.14593, -34.98970,
,,,1593.07806, -35.38970,
,,,1598.01019, -34.98970,
,,,1602.94232, -41.38970,
,,,1607.87445, -40.58970,
,,,1612.80658, -36.18970,
,,,1617.73871, -35.38970,
,,,1622.67084, -33.38970,
,,,1627.60297, -34.58970,
,,,1632.53510, -37.38970,
,,,1637.46723, -37.78970,
,,,1642.39936, -35.38970,
,,,1647.33149, -33.38970,
,,,1652.26362, -33.38970,
,,,1657.19575, -37.78970,
,,,1662.12788, -40.58970,
,,,1667.06001, -38.58970,
,,,1671.99214, -34.98970,
,,,1676.92427, -37.38970,
,,,1681.85640, -37.38970,
,,,1686.78853, -38.58970,
,,,1691.72066, -44.58970,
,,,1696.65279, -41.38970,
,,,1701.58492, -33.38970,
,,,1706.51705, -33.38970,
,,,1711.44918, -37.38970,
,,,1716.38131, -40.58970,
,,,1721.31344, -44.58970,
,,,1726.24557, -37.38970,
,,,1731.17770, -34.98970,
,,,1736.10983, -33.38970,
,,,1741.04196, -34.98970,
,,,1745.97409, -40.58970,
,,,1750.90622, -40.58970,
,,,1755.83835, -37.38970,
,,,1760.77048, -35.38970,
,,,1765.70261, -37.38970,
,,,1770.63474, -38.58970,
,,,1775.56687, -44.58970,
,,,1780.49900, -40.58970,
,,,1785.43113, -37.38970,
,,,1790.36326, -37.78970,
,,,1795.29539, -37.38970,
,,,1800.22752, -37.38970,
,,,1805.15965, -40.58970,
,,,1810.09178, -38.58970,
,,,1815.02391, -37.38970,
,,,1819.95604, -37.78970,
,,,1824.88817, -40.58970,
,,,1829.82030, -40.58970,
,,,1834.75243, -40.58970,
,,,1839.68456, -37.78970,
,,,1844.61669, -37.78970,
,,,1849.54882, -37.38970,
,,,1854.48095, -41.38970,
,,,1859.41308, -41.38970,
,,,1864.34521, -40.58970,
,,,1869.27734, -37.38970,
,,,1874.20947, -37.78970,
,,,1879.14160, -37.78970,
,,,1884.07373, -41.38970,
,,,1889.00586, -44.58970,
,,,1893.93799, -40.58970,
,,,1898.87012, -35.38970,
,,,1903.80225, -36.18970,
,,,1908.73438, -36.18970,
,,,1913.66651, -38.58970,
,,,1918.59864, -46.98970,
,,,1923.53077, -46.98970,
,,,1928.46290, -40.58970,
,,,1933.39503, -41.38970,
,,,1938.32716, -41.38970,
,,,1943.25929, -40.58970,
,,,1948.19142, -40.58970,
,,,1953.12355, -40.58970,
,,,1958.05568, -40.58970,
,,,1962.98781, -46.98970,
,,,1967.91994, -41.38970,
,,,1972.85207, -46.98970,
,,,1977.78420, -41.38970,
,,,1982.71633, -41.38970,
,,,1987.64846, -37.78970,
,,,1992.58059, -37.38970,
,,,1997.51272, -41.38970,
,,,2002.44485, -41.38970,
,,,2007.37698, -40.58970,
,,,2012.30911, -41.38970,
,,,2017.24124, -40.58970,
,,,2022.17337, -40.58970,
,,,2027.10550, -46.98970,
,,,2032.03763, -44.58970,
,,,2036.96976, -40.58970,
,,,2041.90189, -44.58970,
,,,2046.83402, -46.98970,
,,,2051.76615, -46.98970,
,,,2056.69828, -46.98970,
,,,2061.63041, -46.98970,
,,,2066.56254, -40.58970,
,,,2071.49467, -40.58970,
,,,2076.42680, -40.58970,
,,,2081.35893, -40.58970,
,,,2086.29106, -46.98970,
,,,2091.22319, -46.98970,
,,,2096.15532, -44.58970,
,,,2101.08745, -41.38970,
,,,2106.01958, -46.98970,
,,,2110.95171, -46.98970,
,,,2115.88384, -40.58970,
,,,2120.81597, -40.58970,
,,,2125.74810, -41.38970,
,,,2130.68023, -41.38970,
,,,2135.61236, -44.58970,
,,,2140.54449, -46.98970,
,,,2145.47662, -46.98970,
,,,2150.40875, -46.98970,
,,,2155.34088, -44.58970,
,,,2160.27301, -46.98970,
,,,2165.20514, -46.98970,
,,,2170.13727, -44.58970,
,,,2175.06940, -40.58970,
,,,2180.00153, -38.58970,
,,,2184.93366, -37.38970,
,,,2189.86579, -37.78970,
,,,2194.79792, -40.58970,
,,,2199.73005, -40.58970,
,,,2204.66218, -40.58970,
,,,2209.59431, -40.58970,
,,,2214.52644, -46.98970,
,,,2219.45857, -46.98970,
,,,2224.39070, -46.98970,
,,,2229.32283, -44.58970,
,,,2234.25496, -44.58970,
,,,2239.18709, -44.58970,
,,,2244.11922, -41.38970,
,,,2249.05135, -41.38970,
,,,2253.98348, -40.58970,
,,,2258.91561, -40.58970,
,,,2263.84774, -37.38970,
,,,2268.77987, -41.38970,
,,,2273.71200, -41.38970,
,,,2278.64413, -41.38970,
,,,2283.57626, -46.98970,
,,,2288.50839, -44.58970,
,,,2293.44052, -40.58970,
,,,2298.37265, -41.38970,
,,,2303.30478, -44.58970,
,,,2308.23691, -46.98970,
,,,2313.16904, -46.98970,
,,,2318.10117, -46.98970,
,,,2323.03330, -41.38970,
,,,2327.96543, -40.58970,
,,,2332.89756, -40.58970,
,,,2337.82969, -44.58970,
,,,2342.76182, -46.98970,
,,,2347.69395, -40.58970,
,,,2352.62608, -37.78970,
,,,2357.55821, -41.38970,
,,,2362.49034, -46.98970,
,,,2367.42247, -46.98970,
,,,2372.35460, -46.98970,
,,,2377.28673, -46.98970,
,,,2382.21886, -46.98970,
,,,2387.15099, -46.98970,
,,,2392.08312, -46.98970,
,,,2397.01525, -44.58970,
,,,2401.94738, -44.58970,
,,,2406.87951, -44.58970,
,,,2411.81164, -46.98970,
,,,2416.74377, -46.98970,
,,,2421.67590, -46.98970,
,,,2426.60803, -46.98970,
,,,2431.54016, -41.38970,
,,,2436.47229, -37.78970,
,,,2441.40442, -40.58970,
,,,2446.33655, -41.38970,
,,,2451.26868, -44.58970,
,,,2456.20081, -46.98970,
,,,2461.13294, -46.98970,
,,,2466.06507, -46.98970,
,,,2470.99720, -40.58970,
,,,2475.92933, -44.58970,
,,,2480.86146, -46.98970,
,,,2485.79359, -46.98970,
,,,2490.72572, -46.98970,
,,,2495.65785, -46.98970,
,,,2500.58998, -40.58970,
,,,2505.52211, -40.58970,
,,,2510.45424, -44.58970,
,,,2515.38637, -46.98970,
,,,2520.31850, -46.98970,
,,,2525.25063, -46.98970,
,,,2530.18276, -46.98970,
,,,2535.11489, -46.98970,
,,,2540.04702, -46.98970,
,,,2544.97915, -41.38970,
,,,2549.91128, -37.78970,
,,,2554.84341, -46.98970,
,,,2559.77554, -46.98970,
,,,2564.70767, -46.98970,
,,,2569.63980, -46.98970,
,,,2574.57193, -46.98970,
,,,2579.50406, -46.98970,
,,,2584.43619, -44.58970,
,,,2589.36832, -44.58970,
,,,2594.30045, -46.98970,
,,,2599.23258, -46.98970,
,,,2604.16471, -46.98970,
,,,2609.09684, -46.98970,
,,,2614.02897, -46.98970,
,,,2618.96110, -44.58970,
,,,2623.89323, -46.98970,
,,,2628.82536, -46.98970,
,,,2633.75749, -44.58970,
,,,2638.68962, -46.98970,
,,,2643.62175, -46.98970,
,,,2648.55388, -46.98970,
,,,2653.48601, -46.98970,
,,,2658.41814, -44.58970,
,,,2663.35027, -44.58970,
,,,2668.28240, -46.98970,
,,,2673.21453, -46.98970,
,,,2678.14666, -46.98970,
,,,2683.07879, -46.98970,
,,,2688.01092, -41.38970,
,,,2692.94305, -41.38970,
,,,2697.87518, -41.38970,
,,,2702.80731, -46.98970,
,,,2707.73944, -46.98970,
,,,2712.67157, -44.58970,
,,,2717.60370, -44.58970,
,,,2722.53583, -44.58970,
,,,2727.46796, -44.58970,
,,,2732.40009, -46.98970,
,,,2737.33222, -44.58970,
,,,2742.26435, -44.58970,
,,,2747.19648, -44.58970,
,,,2752.12861, -46.98970,
,,,2757.06074, -44.58970,
,,,2761.99287, -46.98970,
,,,2766.92500, -46.98970,
,,,2771.85713, -44.58970,
,,,2776.78926, -46.98970,
,,,2781.72139, -44.58970,
,,,2786.65352, -44.58970,
,,,2791.58565, -46.98970,
,,,2796.51778, -44.58970,
,,,2801.44991, -44.58970,
,,,2806.38204, -46.98970,
,,,2811.31417, -46.98970,
,,,2816.24630, -46.98970,
,,,2821.17843, -46.98970,
,,,2826.11056, -46.98970,
,,,2831.04269, -46.98970,
,,,2835.97482, -46.98970,
,,,2840.90695, -46.98970,
,,,2845.83908, -44.58970,
,,,2850.77121, -44.58970,
,,,2855.70334, -46.98970,
,,,2860.63547, -44.58970,
,,,2865.56760, -44.58970,
,,,2870.49973, -46.98970,
,,,2875.43186, -46.98970,
,,,2880.36399, -46.98970,
,,,2885.29612, -44.58970,
,,,2890.22825, -44.58970,
,,,2895.16038, -46.98970,
,,,2900.09251, -44.58970,
,,,2905.02464, -46.98970,
,,,2909.95677, -46.98970,
,,,2914.88890, -46.98970,
,,,2919.82103, -40.58970,
,,,2924.75316, -40.58970,
,,,2929.68529, -40.58970,
,,,2934.61742, -44.58970,
,,,2939.54955, -46.98970,
,,,2944.48168, -46.98970,
,,,2949.41381, -46.98970,
,,,2954.34594, -44.58970,
,,,2959.27807, -46.98970,
,,,2964.21020, -46.98970,
,,,2969.14233, -46.98970,
,,,2974.07446, -46.98970,
,,,2979.00659, -44.58970,
,,,2983.93872, -44.58970,
,,,2988.87085, -46.98970,
,,,2993.80298, -46.98970,
,,,2998.73511, -44.58970,
,,,3003.66724, -46.98970,
,,,3008.59937, -46.98970,
,,,3013.53150, -46.98970,
,,,3018.46363, -44.58970,
,,,3023.39576, -46.98970,
,,,3028.32789, -46.98970,
,,,3033.26002, -46.98970,
,,,3038.19215, -46.98970,
,,,3043.12428, -46.98970,
,,,3048.05641, -46.98970,
,,,3052.98854, -44.58970,
,,,3057.92067, -44.58970,
,,,3062.85280, -40.58970,
,,,3067.78493, -46.98970,
,,,3072.71706, -46.98970,
,,,3077.64919, -46.98970,
,,,3082.58132, -46.98970,
,,,3087.51345, -46.98970,
,,,3092.44558, -46.98970,
,,,3097.37771, -44.58970,
,,,3102.30984, -44.58970,
,,,3107.24197, -44.58970,
,,,3112.17410, -46.98970,
,,,3117.10623, -46.98970,
,,,3122.03836, -46.98970,
,,,3126.97049, -46.98970,
,,,3131.90262, -46.98970,
,,,3136.83475, -46.98970,
,,,3141.76688, -46.98970,
,,,3146.69901, -40.58970,
,,,3151.63114, -40.58970,
,,,3156.56327, -44.58970,
,,,3161.49540, -46.98970,
,,,3166.42753, -46.98970,
,,,3171.35966, -46.98970,
,,,3176.29179, -46.98970,
,,,3181.22392, -46.98970,
,,,3186.15605, -44.58970,
,,,3191.08818, -40.58970,
,,,3196.02031, -40.58970,
,,,3200.95244, -40.58970,
,,,3205.88457, -46.98970,
,,,3210.81670, -44.58970,
,,,3215.74883, -44.58970,
,,,3220.68096, -46.98970,
,,,3225.61309, -46.98970,
,,,3230.54522, -46.98970,
,,,3235.47735, -46.98970,
,,,3240.40948, -46.98970,
,,,3245.34161, -46.98970,
,,,3250.27374, -46.98970,
,,,3255.20587, -46.98970,
,,,3260.13800, -46.98970,
,,,3265.07013, -46.98970,
,,,3270.00226, -44.58970,
,,,3274.93439, -44.58970,
,,,3279.86652, -44.58970,
,,,3284.79865, -41.38970,
,,,3289.73078, -46.98970,
,,,3294.66291, -46.98970,
,,,3299.59504, -40.58970,
,,,3304.52717, -40.58970,
,,,3309.45930, -41.38970,
,,,3314.39143, -44.58970,
,,,3319.32356, -46.98970,
,,,3324.25569, -46.98970,
,,,3329.18782, -46.98970,
,,,3334.11995, -44.58970,
,,,3339.05208, -41.38970,
,,,3343.98421, -41.38970,
,,,3348.91634, -46.98970,
,,,3353.84847, -46.98970,
,,,3358.78060, -46.98970,
,,,3363.71273, -46.98970,
,,,3368.64486, -46.98970,
,,,3373.57699, -46.98970,
,,,3378.50912, -46.98970,
,,,3383.44125, -46.98970,
,,,3388.37338, -46.98970,
,,,3393.30551, -46.98970,
,,,3398.23764, -46.98970,
,,,3403.16977, -46.98970,
,,,3408.10190, -46.98970,
,,,3413.03403, -44.58970,
,,,3417.96616, -46.98970,
,,,3422.89829, -46.98970,
,,,3427.83042, -46.98970,
,,,3432.76255, -44.58970,
,,,3437.69468, -46.98970,
,,,3442.62681, -46.98970,
,,,3447.55894, -46.98970,
,,,3452.49107, -46.98970,
,,,3457.42320, -44.58970,
,,,3462.35533, -46.98970,
,,,3467.28746, -46.98970,
,,,3472.21959, -46.98970,
,,,3477.15172, -46.98970,
,,,3482.08385, -46.98970,
,,,3487.01598, -46.98970,
,,,3491.94811, -46.98970,
,,,3496.88024, -46.98970,
,,,3501.81237, -46.98970,
,,,3506.74450, -46.98970,
,,,3511.67663, -44.58970,
,,,3516.60876, -46.98970,
,,,3521.54089, -46.98970,
,,,3526.47302, -46.98970,
,,,3531.40515, -46.98970,
,,,3536.33728, -46.98970,
,,,3541.26941, -46.98970,
,,,3546.20154, -46.98970,
,,,3551.13367, -46.98970,
,,,3556.06580, -44.58970,
,,,3560.99793, -44.58970,
,,,3565.93006, -44.58970,
,,,3570.86219, -46.98970,
,,,3575.79432, -46.98970,
,,,3580.72645, -46.98970,
,,,3585.65858, -44.58970,
,,,3590.59071, -46.98970,
,,,3595.52284, -44.58970,
,,,3600.45497, -44.58970,
,,,3605.38710, -46.98970,
,,,3610.31923, -40.58970,
,,,3615.25136, -44.58970,
,,,3620.18349, -44.58970,
,,,3625.11562, -46.98970,
,,,3630.04775, -44.58970,
,,,3634.97988, -41.38970,
,,,3639.91201, -46.98970,
,,,3644.84414, -46.98970,
,,,3649.77627, -46.98970,
,,,3654.70840, -46.98970,
,,,3659.64053, -46.98970,
,,,3664.57266, -40.58970,
,,,3669.50479, -44.58970,
,,,3674.43692, -46.98970,
,,,3679.36905, -46.98970,
,,,3684.30118, -46.98970,
,,,3689.23331, -46.98970,
,,,3694.16544, -41.38970,
,,,3699.09757, -41.38970,
,,,3704.02970, -41.38970,
,,,3708.96183, -46.98970,
,,,3713.89396, -46.98970,
,,,3718.82609, -46.98970,
,,,3723.75822, -46.98970,
,,,3728.69035, -46.98970,
,,,3733.62248, -46.98970,
,,,3738.55461, -46.98970,
