furier_c2/ALL0014/F0014FFT.CSV

Record Length,1.024000e+03,,          0.00000, -52.54850,
Sample Interval,4.932134e+00,,          4.93213,  -0.94850,
Trigger Point,-0.000000000000e+00,,          9.86427,   4.25150,
,,,         14.79640,   4.65150,
,,,         19.72854,   3.85150,
,,,         24.66067,  -4.54850,
Source,FFT,,         29.59280, -26.94850,
Vertical Units,dB,,         34.52494,  -7.74850,
Vertical Scale,1.000000e+01,,         39.45707,  -4.94850,
Vertical Offset,0.000000e+00,,         44.38920,  -4.94850,
Horizontal Units,Hz,,         49.32134,  -6.94850,
Horizontal Scale,5.050505e+02,,         54.25347, -19.34850,
Pt Fmt,Y,,         59.18561, -22.54850,
Yzero,-1.494850e+01,,         64.11774, -10.54850,
Probe Atten,1.000000e+00,,         69.04987,  -9.34850,
Model Number,TBS1052B-EDU,,         73.98201,  -9.34850,
Serial Number,C027597,,         78.91414, -13.34850,
Firmware Version,FV:v4.06,,         83.84628, -31.74850,
,,,88.77841, -20.14850,
,,,93.71054, -12.54850,
,,,98.64267, -12.14850,
,,,103.57480, -12.54850,
,,,108.50693, -18.54850,
,,,113.43906, -35.74850,
,,,118.37119, -18.54850,
,,,123.30332, -14.14850,
,,,128.23545, -14.14850,
,,,133.16758, -15.34850,
,,,138.09971, -26.14850,
,,,143.03184, -33.34850,
,,,147.96397, -18.14850,
,,,152.89610, -15.74850,
,,,157.82823, -15.74850,
,,,162.76036, -18.14850,
,,,167.69249, -32.94850,
,,,172.62462, -27.74850,
,,,177.55675, -18.14850,
,,,182.48888, -16.94850,
,,,187.42101, -17.34850,
,,,192.35314, -22.14850,
,,,197.28527, -42.94850,
,,,202.21740, -24.54850,
,,,207.14953, -18.14850,
,,,212.08166, -17.74850,
,,,217.01379, -18.54850,
,,,221.94592, -26.14850,
,,,226.87805, -41.34850,
,,,231.81018, -22.54850,
,,,236.74231, -18.54850,
,,,241.67444, -18.94850,
,,,246.60657, -20.54850,
,,,251.53870, -33.34850,
,,,256.47083, -35.34850,
,,,261.40296, -21.34850,
,,,266.33509, -19.74850,
,,,271.26722, -19.74850,
,,,276.19935, -22.94850,
,,,281.13148, -42.54850,
,,,286.06361, -29.34850,
,,,290.99574, -20.54850,
,,,295.92787, -19.74850,
,,,300.86000, -19.74850,
,,,305.79213, -25.74850,
,,,310.72426, -42.94850,
,,,315.65639, -25.34850,
,,,320.58852, -20.54850,
,,,325.52065, -20.14850,
,,,330.45278, -20.94850,
,,,335.38491, -30.14850,
,,,340.31704, -40.14850,
,,,345.24917, -23.34850,
,,,350.18130, -20.54850,
,,,355.11343, -20.54850,
,,,360.04556, -22.54850,
,,,364.97769, -37.74850,
,,,369.90982, -32.54850,
,,,374.84195, -21.74850,
,,,379.77408, -20.54850,
,,,384.70621, -20.54850,
,,,389.63834, -24.54850,
,,,394.57047, -41.34850,
,,,399.50260, -27.34850,
,,,404.43473, -20.94850,
,,,409.36686, -20.54850,
,,,414.29899, -20.94850,
,,,419.23112, -28.14850,
,,,424.16325, -42.54850,
,,,429.09538, -24.94850,
,,,434.02751, -20.54850,
,,,438.95964, -20.54850,
,,,443.89177, -22.14850,
,,,448.82390, -33.74850,
,,,453.75603, -36.94850,
,,,458.68816, -22.54850,
,,,463.62029, -20.14850,
,,,468.55242, -20.14850,
,,,473.48455, -22.94850,
,,,478.41668, -39.34850,
,,,483.34881, -30.54850,
,,,488.28094, -20.94850,
,,,493.21307, -20.14850,
,,,498.14520, -20.14850,
,,,503.07733, -24.94850,
,,,508.00946, -45.34850,
,,,512.94159, -25.74850,
,,,517.87372, -20.14850,
,,,522.80585, -19.74850,
,,,527.73798, -20.54850,
,,,532.67011, -28.94850,
,,,537.60224, -40.54850,
,,,542.53437, -22.94850,
,,,547.46650, -19.34850,
,,,552.39863, -19.34850,
,,,557.33076, -21.34850,
,,,562.26289, -33.34850,
,,,567.19502, -32.14850,
,,,572.12715, -20.14850,
,,,577.05928, -18.94850,
,,,581.99141, -18.94850,
,,,586.92354, -22.54850,
,,,591.85567, -40.54850,
,,,596.78780, -26.54850,
,,,601.71993, -18.94850,
,,,606.65206, -18.14850,
,,,611.58419, -18.54850,
,,,616.51632, -24.94850,
,,,621.44845, -42.94850,
,,,626.38058, -22.54850,
,,,631.31271, -18.14850,
,,,636.24484, -17.74850,
,,,641.17697, -18.54850,
,,,646.10910, -28.54850,
,,,651.04123, -35.34850,
,,,655.97336, -20.14850,
,,,660.90549, -17.34850,
,,,665.83762, -17.34850,
,,,670.76975, -20.14850,
,,,675.70188, -34.54850,
,,,680.63401, -28.94850,
,,,685.56614, -18.94850,
,,,690.49827, -17.74850,
,,,695.43040, -17.74850,
,,,700.36253, -22.14850,
,,,705.29466, -41.34850,
,,,710.22679, -24.94850,
,,,715.15892, -18.54850,
,,,720.09105, -18.14850,
,,,725.02318, -18.54850,
,,,729.95531, -25.74850,
,,,734.88744, -40.94850,
,,,739.81957, -22.54850,
,,,744.75170, -18.54850,
,,,749.68383, -18.54850,
,,,754.61596, -20.14850,
,,,759.54809, -31.34850,
,,,764.48022, -35.34850,
,,,769.41235, -21.34850,
,,,774.34448, -19.74850,
,,,779.27661, -19.74850,
,,,784.20874, -22.54850,
,,,789.14087, -38.54850,
,,,794.07300, -30.14850,
,,,799.00513, -21.34850,
,,,803.93726, -20.54850,
,,,808.86939, -20.54850,
,,,813.80152, -26.14850,
,,,818.73365, -45.74850,
,,,823.66578, -26.94850,
,,,828.59791, -21.34850,
,,,833.53004, -21.34850,
,,,838.46217, -22.14850,
,,,843.39430, -31.34850,
,,,848.32643, -43.34850,
,,,853.25856, -25.34850,
,,,858.19069, -22.54850,
,,,863.12282, -22.14850,
,,,868.05495, -24.14850,
,,,872.98708, -37.34850,
,,,877.91921, -36.94850,
,,,882.85134, -24.54850,
,,,887.78347, -23.34850,
,,,892.71560, -23.34850,
,,,897.64773, -27.74850,
,,,902.57986, -48.54850,
,,,907.51199, -32.14850,
,,,912.44412, -24.14850,
,,,917.37625, -23.74850,
,,,922.30838, -24.14850,
,,,927.24051, -30.14850,
,,,932.17264, -45.74850,
,,,937.10477, -28.94850,
,,,942.03690, -24.54850,
,,,946.96903, -24.14850,
,,,951.90116, -25.34850,
,,,956.83329, -34.54850,
,,,961.76542, -41.34850,
,,,966.69755, -27.74850,
,,,971.62968, -25.34850,
,,,976.56181, -25.34850,
,,,981.49394, -27.74850,
,,,986.42607, -41.34850,
,,,991.35820, -35.34850,
,,,996.29033, -26.14850,
,,,1001.22246, -25.74850,
,,,1006.15459, -25.74850,
,,,1011.08672, -30.54850,
,,,1016.01885, -54.94850,
,,,1020.95098, -32.54850,
,,,1025.88311, -26.14850,
,,,1030.81524, -25.74850,
,,,1035.74737, -26.54850,
,,,1040.67950, -34.54850,
,,,1045.61163, -48.54850,
,,,1050.54376, -30.14850,
,,,1055.47589, -26.14850,
,,,1060.40802, -26.14850,
,,,1065.34015, -27.74850,
,,,1070.27228, -39.34850,
,,,1075.20441, -40.94850,
,,,1080.13654, -28.14850,
,,,1085.06867, -26.14850,
,,,1090.00080, -26.54850,
,,,1094.93293, -29.34850,
,,,1099.86506, -46.54850,
,,,1104.79719, -35.34850,
,,,1109.72932, -26.94850,
,,,1114.66145, -26.54850,
,,,1119.59358, -26.94850,
,,,1124.52571, -32.94850,
,,,1129.45784, -52.54850,
,,,1134.38997, -31.74850,
,,,1139.32210, -26.54850,
,,,1144.25423, -26.54850,
,,,1149.18636, -27.74850,
,,,1154.11849, -36.94850,
,,,1159.05062, -45.34850,
,,,1163.98275, -30.14850,
,,,1168.91488, -26.94850,
,,,1173.84701, -26.94850,
,,,1178.77914, -28.94850,
,,,1183.71127, -42.54850,
,,,1188.64340, -38.14850,
,,,1193.57553, -28.54850,
,,,1198.50766, -27.34850,
,,,1203.43979, -27.34850,
,,,1208.37192, -31.74850,
,,,1213.30405, -54.94850,
,,,1218.23618, -36.14850,
,,,1223.16831, -28.94850,
,,,1228.10044, -28.14850,
,,,1233.03257, -28.94850,
,,,1237.96470, -36.94850,
,,,1242.89683, -54.94850,
,,,1247.82896, -33.34850,
,,,1252.76109, -29.34850,
,,,1257.69322, -28.94850,
,,,1262.62535, -30.14850,
,,,1267.55748, -40.14850,
,,,1272.48961, -45.74850,
,,,1277.42174, -32.94850,
,,,1282.35387, -30.54850,
,,,1287.28600, -31.34850,
,,,1292.21813, -33.34850,
,,,1297.15026, -48.54850,
,,,1302.08239, -42.94850,
,,,1307.01452, -32.94850,
,,,1311.94665, -32.14850,
,,,1316.87878, -32.94850,
,,,1321.81091, -38.14850,
,,,1326.74304, -49.34850,
,,,1331.67517, -40.94850,
,,,1336.60730, -32.94850,
,,,1341.53943, -32.54850,
,,,1346.47156, -32.14850,
,,,1351.40369, -40.14850,
,,,1356.33582, -52.54850,
,,,1361.26795, -37.74850,
,,,1366.20008, -35.74850,
,,,1371.13221, -35.74850,
,,,1376.06434, -37.74850,
,,,1380.99647, -48.54850,
,,,1385.92860, -48.54850,
,,,1390.86073, -37.74850,
,,,1395.79286, -36.94850,
,,,1400.72499, -36.94850,
,,,1405.65712, -40.14850,
,,,1410.58925, -52.54850,
,,,1415.52138, -44.14850,
,,,1420.45351, -37.74850,
,,,1425.38564, -37.74850,
,,,1430.31777, -37.74850,
,,,1435.24990, -45.34850,
,,,1440.18203, -54.94850,
,,,1445.11416, -44.14850,
,,,1450.04629, -40.14850,
,,,1454.97842, -38.94850,
,,,1459.91055, -40.14850,
,,,1464.84268, -45.34850,
,,,1469.77481, -52.54850,
,,,1474.70694, -43.34850,
,,,1479.63907, -43.34850,
,,,1484.57120, -42.94850,
,,,1489.50333, -49.34850,
,,,1494.43546, -54.94850,
,,,1499.36759, -54.94850,
,,,1504.29972, -46.54850,
,,,1509.23185, -44.14850,
,,,1514.16398, -42.54850,
,,,1519.09611, -45.34850,
,,,1524.02824, -52.54850,
,,,1528.96037, -48.54850,
,,,1533.89250, -45.34850,
,,,1538.82463, -48.54850,
,,,1543.75676, -48.54850,
,,,1548.68889, -54.94850,
,,,1553.62102, -54.94850,
,,,1558.55315, -48.54850,
,,,1563.48528, -48.54850,
,,,1568.41741, -45.34850,
,,,1573.34954, -49.34850,
,,,1578.28167, -54.94850,
,,,1583.21380, -54.94850,
,,,1588.14593, -46.54850,
,,,1593.07806, -46.54850,
,,,1598.01019, -46.54850,
,,,1602.94232, -46.54850,
,,,1607.87445, -54.94850,
,,,1612.80658, -54.94850,
,,,1617.73871, -52.54850,
,,,1622.67084, -48.54850,
,,,1627.60297, -52.54850,
,,,1632.53510, -54.94850,
,,,1637.46723, -54.94850,
,,,1642.39936, -54.94850,
,,,1647.33149, -48.54850,
,,,1652.26362, -48.54850,
,,,1657.19575, -52.54850,
,,,1662.12788, -54.94850,
,,,1667.06001, -54.94850,
,,,1671.99214, -54.94850,
,,,1676.92427, -52.54850,
,,,1681.85640, -52.54850,
,,,1686.78853, -49.34850,
,,,1691.72066, -54.94850,
,,,1696.65279, -54.94850,
,,,1701.58492, -48.54850,
,,,1706.51705, -52.54850,
,,,1711.44918, -52.54850,
,,,1716.38131, -48.54850,
,,,1721.31344, -49.34850,
,,,1726.24557, -54.94850,
,,,1731.17770, -52.54850,
,,,1736.10983, -48.54850,
,,,1741.04196, -48.54850,
,,,1745.97409, -54.94850,
,,,1750.90622, -54.94850,
,,,1755.83835, -54.94850,
,,,1760.77048, -54.94850,
,,,1765.70261, -54.94850,
,,,1770.63474, -52.54850,
,,,1775.56687, -54.94850,
,,,1780.49900, -54.94850,
,,,1785.43113, -54.94850,
,,,1790.36326, -54.94850,
,,,1795.29539, -54.94850,
,,,1800.22752, -54.94850,
,,,1805.15965, -54.94850,
,,,1810.09178, -52.54850,
,,,1815.02391, -49.34850,
,,,1819.95604, -54.94850,
,,,1824.88817, -49.34850,
,,,1829.82030, -54.94850,
,,,1834.75243, -54.94850,
,,,1839.68456, -52.54850,
,,,1844.61669, -52.54850,
,,,1849.54882, -48.54850,
,,,1854.48095, -52.54850,
,,,1859.41308, -54.94850,
,,,1864.34521, -54.94850,
,,,1869.27734, -54.94850,
,,,1874.20947, -49.34850,
,,,1879.14160, -54.94850,
,,,1884.07373, -54.94850,
,,,1889.00586, -54.94850,
,,,1893.93799, -54.94850,
,,,1898.87012, -54.94850,
,,,1903.80225, -54.94850,
,,,1908.73438, -54.94850,
,,,1913.66651, -54.94850,
,,,1918.59864, -52.54850,
,,,1923.53077, -54.94850,
,,,1928.46290, -54.94850,
,,,1933.39503, -54.94850,
,,,1938.32716, -54.94850,
,,,1943.25929, -52.54850,
,,,1948.19142, -54.94850,
,,,1953.12355, -54.94850,
,,,1958.05568, -48.54850,
,,,1962.98781, -48.54850,
,,,1967.91994, -52.54850,
,,,1972.85207, -54.94850,
,,,1977.78420, -54.94850,
,,,1982.71633, -54.94850,
,,,1987.64846, -54.94850,
,,,1992.58059, -54.94850,
,,,1997.51272, -52.54850,
,,,2002.44485, -54.94850,
,,,2007.37698, -54.94850,
,,,2012.30911, -54.94850,
,,,2017.24124, -54.94850,
,,,2022.17337, -54.94850,
,,,2027.10550, -54.94850,
,,,2032.03763, -54.94850,
,,,2036.96976, -54.94850,
,,,2041.90189, -48.54850,
,,,2046.83402, -49.34850,
,,,2051.76615, -45.34850,
,,,2056.69828, -54.94850,
,,,2061.63041, -54.94850,
,,,2066.56254, -54.94850,
,,,2071.49467, -54.94850,
,,,2076.42680, -54.94850,
,,,2081.35893, -54.94850,
,,,2086.29106, -54.94850,
,,,2091.22319, -54.94850,
,,,2096.15532, -54.94850,
,,,2101.08745, -54.94850,
,,,2106.01958, -52.54850,
,,,2110.95171, -54.94850,
,,,2115.88384, -54.94850,
,,,2120.81597, -54.94850,
,,,2125.74810, -54.94850,
,,,2130.68023, -54.94850,
,,,2135.61236, -54.94850,
,,,2140.54449, -54.94850,
,,,2145.47662, -54.94850,
,,,2150.40875, -54.94850,
,,,2155.34088, -52.54850,
,,,2160.27301, -54.94850,
,,,2165.20514, -54.94850,
,,,2170.13727, -54.94850,
,,,2175.06940, -54.94850,
,,,2180.00153, -54.94850,
,,,2184.93366, -54.94850,
,,,2189.86579, -49.34850,
,,,2194.79792, -48.54850,
,,,2199.73005, -54.94850,
,,,2204.66218, -54.94850,
,,,2209.59431, -52.54850,
,,,2214.52644, -54.94850,
,,,2219.45857, -54.94850,
,,,2224.39070, -54.94850,
,,,2229.32283, -52.54850,
,,,2234.25496, -54.94850,
,,,2239.18709, -54.94850,
,,,2244.11922, -54.94850,
,,,2249.05135, -54.94850,
,,,2253.98348, -52.54850,
,,,2258.91561, -54.94850,
,,,2263.84774, -54.94850,
,,,2268.77987, -54.94850,
,,,2273.71200, -54.94850,
,,,2278.64413, -54.94850,
,,,2283.57626, -54.94850,
,,,2288.50839, -54.94850,
,,,2293.44052, -49.34850,
,,,2298.37265, -54.94850,
,,,2303.30478, -54.94850,
,,,2308.23691, -52.54850,
,,,2313.16904, -52.54850,
,,,2318.10117, -54.94850,
,,,2323.03330, -54.94850,
,,,2327.96543, -54.94850,
,,,2332.89756, -54.94850,
,,,2337.82969, -54.94850,
,,,2342.76182, -54.94850,
,,,2347.69395, -54.94850,
,,,2352.62608, -54.94850,
,,,2357.55821, -54.94850,
,,,2362.49034, -54.94850,
,,,2367.42247, -54.94850,
,,,2372.35460, -54.94850,
,,,2377.28673, -54.94850,
,,,2382.21886, -54.94850,
,,,2387.15099, -52.54850,
,,,2392.08312, -54.94850,
,,,2397.01525, -54.94850,
,,,2401.94738, -54.94850,
,,,2406.87951, -54.94850,
,,,2411.81164, -54.94850,
,,,2416.74377, -54.94850,
,,,2421.67590, -54.94850,
,,,2426.60803, -54.94850,
,,,2431.54016, -54.94850,
,,,2436.47229, -52.54850,
,,,2441.40442, -52.54850,
,,,2446.33655, -54.94850,
,,,2451.26868, -54.94850,
,,,2456.20081, -54.94850,
,,,2461.13294, -52.54850,
,,,2466.06507, -54.94850,
,,,2470.99720, -52.54850,
,,,2475.92933, -54.94850,
,,,2480.86146, -52.54850,
,,,2485.79359, -54.94850,
,,,2490.72572, -54.94850,
,,,2495.65785, -54.94850,
,,,2500.58998, -52.54850,
,,,2505.52211, -52.54850,
,,,2510.45424, -54.94850,
,,,2515.38637, -52.54850,
,,,2520.31850, -54.94850,
,,,2525.25063, -52.54850,
,,,2530.18276, -54.94850,
,,,2535.11489, -54.94850,
,,,2540.04702, -54.94850,
,,,2544.97915, -54.94850,
,,,2549.91128, -54.94850,
,,,2554.84341, -48.54850,
,,,2559.77554, -49.34850,
,,,2564.70767, -54.94850,
,,,2569.63980, -54.94850,
,,,2574.57193, -54.94850,
,,,2579.50406, -54.94850,
,,,2584.43619, -54.94850,
,,,2589.36832, -54.94850,
,,,2594.30045, -54.94850,
,,,2599.23258, -52.54850,
,,,2604.16471, -54.94850,
,,,2609.09684, -54.94850,
,,,2614.02897, -54.94850,
,,,2618.96110, -54.94850,
,,,2623.89323, -52.54850,
,,,2628.82536, -48.54850,
,,,2633.75749, -49.34850,
,,,2638.68962, -52.54850,
,,,2643.62175, -52.54850,
,,,2648.55388, -48.54850,
,,,2653.48601, -49.34850,
,,,2658.41814, -54.94850,
,,,2663.35027, -54.94850,
,,,2668.28240, -54.94850,
,,,2673.21453, -54.94850,
,,,2678.14666, -54.94850,
,,,2683.07879, -52.54850,
,,,2688.01092, -54.94850,
,,,2692.94305, -54.94850,
,,,2697.87518, -54.94850,
,,,2702.80731, -54.94850,
,,,2707.73944, -54.94850,
,,,2712.67157, -54.94850,
,,,2717.60370, -54.94850,
,,,2722.53583, -54.94850,
,,,2727.46796, -54.94850,
,,,2732.40009, -52.54850,
,,,2737.33222, -54.94850,
,,,2742.26435, -54.94850,
,,,2747.19648, -54.94850,
,,,2752.12861, -54.94850,
,,,2757.06074, -54.94850,
,,,2761.99287, -54.94850,
,,,2766.92500, -54.94850,
,,,2771.85713, -54.94850,
,,,2776.78926, -54.94850,
,,,2781.72139, -52.54850,
,,,2786.65352, -54.94850,
,,,2791.58565, -54.94850,
,,,2796.51778, -54.94850,
,,,2801.44991, -54.94850,
,,,2806.38204, -52.54850,
,,,2811.31417, -54.94850,
,,,2816.24630, -54.94850,
,,,2821.17843, -54.94850,
,,,2826.11056, -54.94850,
,,,2831.04269, -52.54850,
,,,2835.97482, -54.94850,
,,,2840.90695, -54.94850,
,,,2845.83908, -54.94850,
,,,2850.77121, -54.94850,
,,,2855.70334, -54.94850,
,,,2860.63547, -54.94850,
,,,2865.56760, -54.94850,
,,,2870.49973, -54.94850,
,,,2875.43186, -52.54850,
,,,2880.36399, -54.94850,
,,,2885.29612, -54.94850,
,,,2890.22825, -54.94850,
,,,2895.16038, -54.94850,
,,,2900.09251, -54.94850,
,,,2905.02464, -54.94850,
,,,2909.95677, -54.94850,
,,,2914.88890, -54.94850,
,,,2919.82103, -54.94850,
,,,2924.75316, -54.94850,
,,,2929.68529, -54.94850,
,,,2934.61742, -54.94850,
,,,2939.54955, -54.94850,
,,,2944.48168, -54.94850,
,,,2949.41381, -54.94850,
,,,2954.34594, -54.94850,
,,,2959.27807, -52.54850,
,,,2964.21020, -52.54850,
,,,2969.14233, -52.54850,
,,,2974.07446, -54.94850,
,,,2979.00659, -54.94850,
,,,2983.93872, -54.94850,
,,,2988.87085, -54.94850,
,,,2993.80298, -54.94850,
,,,2998.73511, -54.94850,
,,,3003.66724, -54.94850,
,,,3008.59937, -54.94850,
,,,3013.53150, -54.94850,
,,,3018.46363, -54.94850,
,,,3023.39576, -52.54850,
,,,3028.32789, -54.94850,
,,,3033.26002, -54.94850,
,,,3038.19215, -54.94850,
,,,3043.12428, -54.94850,
,,,3048.05641, -54.94850,
,,,3052.98854, -54.94850,
,,,3057.92067, -54.94850,
,,,3062.85280, -54.94850,
,,,3067.78493, -54.94850,
,,,3072.71706, -52.54850,
,,,3077.64919, -52.54850,
,,,3082.58132, -54.94850,
,,,3087.51345, -54.94850,
,,,3092.44558, -52.54850,
,,,3097.37771, -54.94850,
,,,3102.30984, -48.54850,
,,,3107.24197, -49.34850,
,,,3112.17410, -54.94850,
,,,3117.10623, -54.94850,
,,,3122.03836, -54.94850,
,,,3126.97049, -54.94850,
,,,3131.90262, -54.94850,
,,,3136.83475, -52.54850,
,,,3141.76688, -52.54850,
,,,3146.69901, -48.54850,
,,,3151.63114, -52.54850,
,,,3156.56327, -54.94850,
,,,3161.49540, -54.94850,
,,,3166.42753, -54.94850,
,,,3171.35966, -54.94850,
,,,3176.29179, -54.94850,
,,,3181.22392, -54.94850,
,,,3186.15605, -52.54850,
,,,3191.08818, -54.94850,
,,,3196.02031, -54.94850,
,,,3200.95244, -54.94850,
,,,3205.88457, -54.94850,
,,,3210.81670, -52.54850,
,,,3215.74883, -52.54850,
,,,3220.68096, -52.54850,
,,,3225.61309, -54.94850,
,,,3230.54522, -54.94850,
,,,3235.47735, -54.94850,
,,,3240.40948, -54.94850,
,,,3245.34161, -54.94850,
,,,3250.27374, -54.94850,
,,,3255.20587, -54.94850,
,,,3260.13800, -54.94850,
,,,3265.07013, -54.94850,
,,,3270.00226, -54.94850,
,,,3274.93439, -52.54850,
,,,3279.86652, -48.54850,
,,,3284.79865, -54.94850,
,,,3289.73078, -52.54850,
,,,3294.66291, -49.34850,
,,,3299.59504, -49.34850,
,,,3304.52717, -48.54850,
,,,3309.45930, -52.54850,
,,,3314.39143, -54.94850,
,,,3319.32356, -52.54850,
,,,3324.25569, -54.94850,
,,,3329.18782, -52.54850,
,,,3334.11995, -54.94850,
,,,3339.05208, -54.94850,
,,,3343.98421, -54.94850,
,,,3348.91634, -49.34850,
,,,3353.84847, -54.94850,
,,,3358.78060, -52.54850,
,,,3363.71273, -54.94850,
,,,3368.64486, -54.94850,
,,,3373.57699, -54.94850,
,,,3378.50912, -52.54850,
,,,3383.44125, -49.34850,
,,,3388.37338, -54.94850,
,,,3393.30551, -48.54850,
,,,3398.23764, -54.94850,
,,,3403.16977, -54.94850,
,,,3408.10190, -52.54850,
,,,3413.03403, -48.54850,
,,,3417.96616, -52.54850,
,,,3422.89829, -48.54850,
,,,3427.83042, -54.94850,
,,,3432.76255, -54.94850,
,,,3437.69468, -52.54850,
,,,3442.62681, -52.54850,
,,,3447.55894, -54.94850,
,,,3452.49107, -48.54850,
,,,3457.42320, -48.54850,
,,,3462.35533, -52.54850,
,,,3467.28746, -54.94850,
,,,3472.21959, -54.94850,
,,,3477.15172, -54.94850,
,,,3482.08385, -54.94850,
,,,3487.01598, -54.94850,
,,,3491.94811, -54.94850,
,,,3496.88024, -49.34850,
,,,3501.81237, -52.54850,
,,,3506.74450, -52.54850,
,,,3511.67663, -54.94850,
,,,3516.60876, -54.94850,
,,,3521.54089, -54.94850,
,,,3526.47302, -54.94850,
,,,3531.40515, -54.94850,
,,,3536.33728, -54.94850,
,,,3541.26941, -54.94850,
,,,3546.20154, -54.94850,
,,,3551.13367, -54.94850,
,,,3556.06580, -54.94850,
,,,3560.99793, -54.94850,
,,,3565.93006, -54.94850,
,,,3570.86219, -52.54850,
,,,3575.79432, -48.54850,
,,,3580.72645, -54.94850,
,,,3585.65858, -54.94850,
,,,3590.59071, -54.94850,
,,,3595.52284, -54.94850,
,,,3600.45497, -54.94850,
,,,3605.38710, -54.94850,
,,,3610.31923, -54.94850,
,,,3615.25136, -54.94850,
,,,3620.18349, -52.54850,
,,,3625.11562, -52.54850,
,,,3630.04775, -52.54850,
,,,3634.97988, -54.94850,
,,,3639.91201, -52.54850,
,,,3644.84414, -54.94850,
,,,3649.77627, -54.94850,
,,,3654.70840, -54.94850,
,,,3659.64053, -52.54850,
,,,3664.57266, -52.54850,
,,,3669.50479, -52.54850,
,,,3674.43692, -54.94850,
,,,3679.36905, -52.54850,
,,,3684.30118, -54.94850,
,,,3689.23331, -54.94850,
,,,3694.16544, -52.54850,
,,,3699.09757, -52.54850,
,,,3704.02970, -54.94850,
,,,3708.96183, -54.94850,
,,,3713.89396, -52.54850,
,,,3718.82609, -52.54850,
,,,3723.75822, -48.54850,
,,,3728.69035, -52.54850,
,,,3733.62248, -54.94850,
,,,3738.55461, -54.94850,
