RLCC_FFT_C1/ALL0019/F0019FFT.CSV

Record Length,1.024000e+03,,          0.00000,   4.61030,
Sample Interval,4.932134e+00,,          4.93213,  13.81030,
Trigger Point,-0.000000000000e+00,,          9.86427,  15.41030,
,,,         14.79640,  15.81030,
,,,         19.72854,  11.81030,
,,,         24.66067,   7.01030,
Source,FFT,,         29.59280,   3.81030,
Vertical Units,dB,,         34.52494,   3.01030,
Vertical Scale,1.000000e+01,,         39.45707,   4.61030,
Vertical Offset,0.000000e+00,,         44.38920,   5.01030,
Horizontal Units,Hz,,         49.32134,   1.41030,
Horizontal Scale,5.050505e+02,,         54.25347,  -2.18970,
Pt Fmt,Y,,         59.18561,  -2.18970,
Yzero,-6.989700e+00,,         64.11774,  -0.98970,
Probe Atten,1.000000e+00,,         69.04987,   0.21030,
Model Number,TBS1052B-EDU,,         73.98201,   0.21030,
Serial Number,C027597,,         78.91414,  -3.78970,
Firmware Version,FV:v4.06,,         83.84628,  -6.98970,
,,,88.77841,  -4.98970,
,,,93.71054,  -3.78970,
,,,98.64267,  -2.58970,
,,,103.57480,  -3.38970,
,,,108.50693,  -7.78970,
,,,113.43906, -10.18970,
,,,118.37119,  -6.58970,
,,,123.30332,  -5.78970,
,,,128.23545,  -4.98970,
,,,133.16758,  -6.18970,
,,,138.09971, -11.78970,
,,,143.03184, -12.18970,
,,,147.96397,  -7.78970,
,,,152.89610,  -7.38970,
,,,157.82823,  -7.38970,
,,,162.76036,  -8.98970,
,,,167.69249, -14.18970,
,,,172.62462, -12.98970,
,,,177.55675,  -8.98970,
,,,182.48888,  -9.38970,
,,,187.42101,  -9.38970,
,,,192.35314, -11.78970,
,,,197.28527, -16.58970,
,,,202.21740, -13.78970,
,,,207.14953,  -9.78970,
,,,212.08166, -10.58970,
,,,217.01379, -11.38970,
,,,221.94592, -14.58970,
,,,226.87805, -18.18970,
,,,231.81018, -14.18970,
,,,236.74231, -10.98970,
,,,241.67444, -12.18970,
,,,246.60657, -13.38970,
,,,251.53870, -16.18970,
,,,256.47083, -18.18970,
,,,261.40296, -14.18970,
,,,266.33509, -12.18970,
,,,271.26722, -14.18970,
,,,276.19935, -15.78970,
,,,281.13148, -18.98970,
,,,286.06361, -18.58970,
,,,290.99574, -14.98970,
,,,295.92787, -13.38970,
,,,300.86000, -15.78970,
,,,305.79213, -17.38970,
,,,310.72426, -19.38970,
,,,315.65639, -18.58970,
,,,320.58852, -15.38970,
,,,325.52065, -14.58970,
,,,330.45278, -17.38970,
,,,335.38491, -19.38970,
,,,340.31704, -20.18970,
,,,345.24917, -18.58970,
,,,350.18130, -15.78970,
,,,355.11343, -15.78970,
,,,360.04556, -19.38970,
,,,364.97769, -21.38970,
,,,369.90982, -20.58970,
,,,374.84195, -19.38970,
,,,379.77408, -16.98970,
,,,384.70621, -17.78970,
,,,389.63834, -21.78970,
,,,394.57047, -22.58970,
,,,399.50260, -20.58970,
,,,404.43473, -19.38970,
,,,409.36686, -18.18970,
,,,414.29899, -19.38970,
,,,419.23112, -23.78970,
,,,424.16325, -23.38970,
,,,429.09538, -20.98970,
,,,434.02751, -20.18970,
,,,438.95964, -18.98970,
,,,443.89177, -21.78970,
,,,448.82390, -27.38970,
,,,453.75603, -24.58970,
,,,458.68816, -20.98970,
,,,463.62029, -20.98970,
,,,468.55242, -20.58970,
,,,473.48455, -23.38970,
,,,478.41668, -28.98970,
,,,483.34881, -24.58970,
,,,488.28094, -21.38970,
,,,493.21307, -21.38970,
,,,498.14520, -21.78970,
,,,503.07733, -25.78970,
,,,508.00946, -29.78970,
,,,512.94159, -24.58970,
,,,517.87372, -22.18970,
,,,522.80585, -22.98970,
,,,527.73798, -23.38970,
,,,532.67011, -28.18970,
,,,537.60224, -29.78970,
,,,542.53437, -24.58970,
,,,547.46650, -22.98970,
,,,552.39863, -23.78970,
,,,557.33076, -24.58970,
,,,562.26289, -28.98970,
,,,567.19502, -28.58970,
,,,572.12715, -24.18970,
,,,577.05928, -23.38970,
,,,581.99141, -24.98970,
,,,586.92354, -26.58970,
,,,591.85567, -30.98970,
,,,596.78780, -28.58970,
,,,601.71993, -24.98970,
,,,606.65206, -24.18970,
,,,611.58419, -25.78970,
,,,616.51632, -28.18970,
,,,621.44845, -30.18970,
,,,626.38058, -29.78970,
,,,631.31271, -25.38970,
,,,636.24484, -26.18970,
,,,641.17697, -28.98970,
,,,646.10910, -30.58970,
,,,651.04123, -30.18970,
,,,655.97336, -28.58970,
,,,660.90549, -25.38970,
,,,665.83762, -26.58970,
,,,670.76975, -28.98970,
,,,675.70188, -31.78970,
,,,680.63401, -29.78970,
,,,685.56614, -27.78970,
,,,690.49827, -26.18970,
,,,695.43040, -28.18970,
,,,700.36253, -31.78970,
,,,705.29466, -31.78970,
,,,710.22679, -29.78970,
,,,715.15892, -27.78970,
,,,720.09105, -26.58970,
,,,725.02318, -29.38970,
,,,729.95531, -33.38970,
,,,734.88744, -32.98970,
,,,739.81957, -31.38970,
,,,744.75170, -28.98970,
,,,749.68383, -28.18970,
,,,754.61596, -31.78970,
,,,759.54809, -34.98970,
,,,764.48022, -32.18970,
,,,769.41235, -30.18970,
,,,774.34448, -27.78970,
,,,779.27661, -28.18970,
,,,784.20874, -33.38970,
,,,789.14087, -35.38970,
,,,794.07300, -30.98970,
,,,799.00513, -28.58970,
,,,803.93726, -28.18970,
,,,808.86939, -29.38970,
,,,813.80152, -34.98970,
,,,818.73365, -34.98970,
,,,823.66578, -31.38970,
,,,828.59791, -30.18970,
,,,833.53004, -29.38970,
,,,838.46217, -29.38970,
,,,843.39430, -33.38970,
,,,848.32643, -33.38970,
,,,853.25856, -29.38970,
,,,858.19069, -28.98970,
,,,863.12282, -29.38970,
,,,868.05495, -31.78970,
,,,872.98708, -37.38970,
,,,877.91921, -34.98970,
,,,882.85134, -30.98970,
,,,887.78347, -30.58970,
,,,892.71560, -30.18970,
,,,897.64773, -33.38970,
,,,902.57986, -34.98970,
,,,907.51199, -33.38970,
,,,912.44412, -29.78970,
,,,917.37625, -30.58970,
,,,922.30838, -31.38970,
,,,927.24051, -34.98970,
,,,932.17264, -37.38970,
,,,937.10477, -33.38970,
,,,942.03690, -30.58970,
,,,946.96903, -30.58970,
,,,951.90116, -32.98970,
,,,956.83329, -35.38970,
,,,961.76542, -34.98970,
,,,966.69755, -33.38970,
,,,971.62968, -30.58970,
,,,976.56181, -33.38970,
,,,981.49394, -34.58970,
,,,986.42607, -35.38970,
,,,991.35820, -34.58970,
,,,996.29033, -32.98970,
,,,1001.22246, -31.78970,
,,,1006.15459, -37.38970,
,,,1011.08672, -41.38970,
,,,1016.01885, -37.38970,
,,,1020.95098, -34.98970,
,,,1025.88311, -33.38970,
,,,1030.81524, -31.78970,
,,,1035.74737, -33.38970,
,,,1040.67950, -34.58970,
,,,1045.61163, -34.98970,
,,,1050.54376, -33.38970,
,,,1055.47589, -30.58970,
,,,1060.40802, -30.18970,
,,,1065.34015, -34.58970,
,,,1070.27228, -37.38970,
,,,1075.20441, -34.98970,
,,,1080.13654, -33.38970,
,,,1085.06867, -33.38970,
,,,1090.00080, -34.58970,
,,,1094.93293, -37.38970,
,,,1099.86506, -35.38970,
,,,1104.79719, -34.98970,
,,,1109.72932, -33.38970,
,,,1114.66145, -33.38970,
,,,1119.59358, -34.98970,
,,,1124.52571, -40.58970,
,,,1129.45784, -37.78970,
,,,1134.38997, -34.98970,
,,,1139.32210, -33.38970,
,,,1144.25423, -33.38970,
,,,1149.18636, -37.38970,
,,,1154.11849, -41.38970,
,,,1159.05062, -37.78970,
,,,1163.98275, -34.98970,
,,,1168.91488, -35.38970,
,,,1173.84701, -34.58970,
,,,1178.77914, -37.38970,
,,,1183.71127, -40.58970,
,,,1188.64340, -41.38970,
,,,1193.57553, -35.38970,
,,,1198.50766, -36.18970,
,,,1203.43979, -36.18970,
,,,1208.37192, -38.58970,
,,,1213.30405, -44.58970,
,,,1218.23618, -37.78970,
,,,1223.16831, -35.38970,
,,,1228.10044, -33.38970,
,,,1233.03257, -34.58970,
,,,1237.96470, -37.38970,
,,,1242.89683, -41.38970,
,,,1247.82896, -37.78970,
,,,1252.76109, -35.38970,
,,,1257.69322, -37.38970,
,,,1262.62535, -40.58970,
,,,1267.55748, -46.98970,
,,,1272.48961, -46.98970,
,,,1277.42174, -40.58970,
,,,1282.35387, -37.78970,
,,,1287.28600, -38.58970,
,,,1292.21813, -40.58970,
,,,1297.15026, -46.98970,
,,,1302.08239, -40.58970,
,,,1307.01452, -40.58970,
,,,1311.94665, -37.38970,
,,,1316.87878, -38.58970,
,,,1321.81091, -38.58970,
,,,1326.74304, -40.58970,
,,,1331.67517, -37.78970,
,,,1336.60730, -34.98970,
,,,1341.53943, -34.98970,
,,,1346.47156, -40.58970,
,,,1351.40369, -40.58970,
,,,1356.33582, -41.38970,
,,,1361.26795, -41.38970,
,,,1366.20008, -37.38970,
,,,1371.13221, -46.98970,
,,,1376.06434, -40.58970,
,,,1380.99647, -46.98970,
,,,1385.92860, -46.98970,
,,,1390.86073, -46.98970,
,,,1395.79286, -40.58970,
,,,1400.72499, -44.58970,
,,,1405.65712, -44.58970,
,,,1410.58925, -44.58970,
,,,1415.52138, -37.38970,
,,,1420.45351, -36.18970,
,,,1425.38564, -36.18970,
,,,1430.31777, -38.58970,
,,,1435.24990, -40.58970,
,,,1440.18203, -40.58970,
,,,1445.11416, -37.38970,
,,,1450.04629, -37.38970,
,,,1454.97842, -38.58970,
,,,1459.91055, -44.58970,
,,,1464.84268, -46.98970,
,,,1469.77481, -40.58970,
,,,1474.70694, -40.58970,
,,,1479.63907, -41.38970,
,,,1484.57120, -40.58970,
,,,1489.50333, -46.98970,
,,,1494.43546, -46.98970,
,,,1499.36759, -40.58970,
,,,1504.29972, -41.38970,
,,,1509.23185, -40.58970,
,,,1514.16398, -40.58970,
,,,1519.09611, -46.98970,
,,,1524.02824, -46.98970,
,,,1528.96037, -44.58970,
,,,1533.89250, -40.58970,
,,,1538.82463, -38.58970,
,,,1543.75676, -38.58970,
,,,1548.68889, -40.58970,
,,,1553.62102, -44.58970,
,,,1558.55315, -40.58970,
,,,1563.48528, -40.58970,
,,,1568.41741, -44.58970,
,,,1573.34954, -44.58970,
,,,1578.28167, -44.58970,
,,,1583.21380, -44.58970,
,,,1588.14593, -40.58970,
,,,1593.07806, -40.58970,
,,,1598.01019, -38.58970,
,,,1602.94232, -41.38970,
,,,1607.87445, -44.58970,
,,,1612.80658, -44.58970,
,,,1617.73871, -46.98970,
,,,1622.67084, -44.58970,
,,,1627.60297, -41.38970,
,,,1632.53510, -41.38970,
,,,1637.46723, -46.98970,
,,,1642.39936, -46.98970,
,,,1647.33149, -44.58970,
,,,1652.26362, -46.98970,
,,,1657.19575, -46.98970,
,,,1662.12788, -46.98970,
,,,1667.06001, -46.98970,
,,,1671.99214, -44.58970,
,,,1676.92427, -40.58970,
,,,1681.85640, -38.58970,
,,,1686.78853, -44.58970,
,,,1691.72066, -46.98970,
,,,1696.65279, -40.58970,
,,,1701.58492, -44.58970,
,,,1706.51705, -46.98970,
,,,1711.44918, -46.98970,
,,,1716.38131, -46.98970,
,,,1721.31344, -44.58970,
,,,1726.24557, -41.38970,
,,,1731.17770, -37.38970,
,,,1736.10983, -40.58970,
,,,1741.04196, -40.58970,
,,,1745.97409, -46.98970,
,,,1750.90622, -46.98970,
,,,1755.83835, -44.58970,
,,,1760.77048, -40.58970,
,,,1765.70261, -37.38970,
,,,1770.63474, -40.58970,
,,,1775.56687, -44.58970,
,,,1780.49900, -41.38970,
,,,1785.43113, -41.38970,
,,,1790.36326, -41.38970,
,,,1795.29539, -41.38970,
,,,1800.22752, -46.98970,
,,,1805.15965, -46.98970,
,,,1810.09178, -46.98970,
,,,1815.02391, -44.58970,
,,,1819.95604, -44.58970,
,,,1824.88817, -46.98970,
,,,1829.82030, -44.58970,
,,,1834.75243, -46.98970,
,,,1839.68456, -46.98970,
,,,1844.61669, -46.98970,
,,,1849.54882, -46.98970,
,,,1854.48095, -46.98970,
,,,1859.41308, -46.98970,
,,,1864.34521, -46.98970,
,,,1869.27734, -46.98970,
,,,1874.20947, -46.98970,
,,,1879.14160, -40.58970,
,,,1884.07373, -44.58970,
,,,1889.00586, -46.98970,
,,,1893.93799, -46.98970,
,,,1898.87012, -40.58970,
,,,1903.80225, -46.98970,
,,,1908.73438, -44.58970,
,,,1913.66651, -41.38970,
,,,1918.59864, -44.58970,
,,,1923.53077, -41.38970,
,,,1928.46290, -46.98970,
,,,1933.39503, -46.98970,
,,,1938.32716, -46.98970,
,,,1943.25929, -46.98970,
,,,1948.19142, -46.98970,
,,,1953.12355, -44.58970,
,,,1958.05568, -44.58970,
,,,1962.98781, -46.98970,
,,,1967.91994, -44.58970,
,,,1972.85207, -46.98970,
,,,1977.78420, -46.98970,
,,,1982.71633, -46.98970,
,,,1987.64846, -46.98970,
,,,1992.58059, -46.98970,
,,,1997.51272, -46.98970,
,,,2002.44485, -44.58970,
,,,2007.37698, -46.98970,
,,,2012.30911, -46.98970,
,,,2017.24124, -46.98970,
,,,2022.17337, -46.98970,
,,,2027.10550, -46.98970,
,,,2032.03763, -46.98970,
,,,2036.96976, -46.98970,
,,,2041.90189, -46.98970,
,,,2046.83402, -46.98970,
,,,2051.76615, -46.98970,
,,,2056.69828, -46.98970,
,,,2061.63041, -46.98970,
,,,2066.56254, -44.58970,
,,,2071.49467, -46.98970,
,,,2076.42680, -46.98970,
,,,2081.35893, -46.98970,
,,,2086.29106, -46.98970,
,,,2091.22319, -46.98970,
,,,2096.15532, -46.98970,
,,,2101.08745, -46.98970,
,,,2106.01958, -44.58970,
,,,2110.95171, -46.98970,
,,,2115.88384, -46.98970,
,,,2120.81597, -46.98970,
,,,2125.74810, -46.98970,
,,,2130.68023, -41.38970,
,,,2135.61236, -40.58970,
,,,2140.54449, -41.38970,
,,,2145.47662, -44.58970,
,,,2150.40875, -44.58970,
,,,2155.34088, -44.58970,
,,,2160.27301, -46.98970,
,,,2165.20514, -46.98970,
,,,2170.13727, -46.98970,
,,,2175.06940, -46.98970,
,,,2180.00153, -46.98970,
,,,2184.93366, -46.98970,
,,,2189.86579, -46.98970,
,,,2194.79792, -46.98970,
,,,2199.73005, -46.98970,
,,,2204.66218, -46.98970,
,,,2209.59431, -46.98970,
,,,2214.52644, -46.98970,
,,,2219.45857, -44.58970,
,,,2224.39070, -44.58970,
,,,2229.32283, -44.58970,
,,,2234.25496, -40.58970,
,,,2239.18709, -46.98970,
,,,2244.11922, -46.98970,
,,,2249.05135, -46.98970,
,,,2253.98348, -46.98970,
,,,2258.91561, -46.98970,
,,,2263.84774, -46.98970,
,,,2268.77987, -44.58970,
,,,2273.71200, -44.58970,
,,,2278.64413, -46.98970,
,,,2283.57626, -41.38970,
,,,2288.50839, -46.98970,
,,,2293.44052, -46.98970,
,,,2298.37265, -44.58970,
,,,2303.30478, -46.98970,
,,,2308.23691, -46.98970,
,,,2313.16904, -46.98970,
,,,2318.10117, -46.98970,
,,,2323.03330, -44.58970,
,,,2327.96543, -41.38970,
,,,2332.89756, -46.98970,
,,,2337.82969, -46.98970,
,,,2342.76182, -46.98970,
,,,2347.69395, -46.98970,
,,,2352.62608, -46.98970,
,,,2357.55821, -46.98970,
,,,2362.49034, -46.98970,
,,,2367.42247, -46.98970,
,,,2372.35460, -44.58970,
,,,2377.28673, -44.58970,
,,,2382.21886, -44.58970,
,,,2387.15099, -44.58970,
,,,2392.08312, -46.98970,
,,,2397.01525, -46.98970,
,,,2401.94738, -46.98970,
,,,2406.87951, -46.98970,
,,,2411.81164, -46.98970,
,,,2416.74377, -46.98970,
,,,2421.67590, -46.98970,
,,,2426.60803, -44.58970,
,,,2431.54016, -41.38970,
,,,2436.47229, -46.98970,
,,,2441.40442, -44.58970,
,,,2446.33655, -46.98970,
,,,2451.26868, -46.98970,
,,,2456.20081, -46.98970,
,,,2461.13294, -46.98970,
,,,2466.06507, -46.98970,
,,,2470.99720, -46.98970,
,,,2475.92933, -46.98970,
,,,2480.86146, -46.98970,
,,,2485.79359, -46.98970,
,,,2490.72572, -46.98970,
,,,2495.65785, -46.98970,
,,,2500.58998, -46.98970,
,,,2505.52211, -46.98970,
,,,2510.45424, -41.38970,
,,,2515.38637, -40.58970,
,,,2520.31850, -44.58970,
,,,2525.25063, -46.98970,
,,,2530.18276, -46.98970,
,,,2535.11489, -46.98970,
,,,2540.04702, -46.98970,
,,,2544.97915, -46.98970,
,,,2549.91128, -46.98970,
,,,2554.84341, -46.98970,
,,,2559.77554, -46.98970,
,,,2564.70767, -46.98970,
,,,2569.63980, -44.58970,
,,,2574.57193, -46.98970,
,,,2579.50406, -46.98970,
,,,2584.43619, -46.98970,
,,,2589.36832, -46.98970,
,,,2594.30045, -46.98970,
,,,2599.23258, -46.98970,
,,,2604.16471, -46.98970,
,,,2609.09684, -46.98970,
,,,2614.02897, -46.98970,
,,,2618.96110, -46.98970,
,,,2623.89323, -46.98970,
,,,2628.82536, -46.98970,
,,,2633.75749, -46.98970,
,,,2638.68962, -46.98970,
,,,2643.62175, -46.98970,
,,,2648.55388, -46.98970,
,,,2653.48601, -46.98970,
,,,2658.41814, -46.98970,
,,,2663.35027, -46.98970,
,,,2668.28240, -46.98970,
,,,2673.21453, -46.98970,
,,,2678.14666, -46.98970,
,,,2683.07879, -46.98970,
,,,2688.01092, -40.58970,
,,,2692.94305, -46.98970,
,,,2697.87518, -46.98970,
,,,2702.80731, -46.98970,
,,,2707.73944, -46.98970,
,,,2712.67157, -46.98970,
,,,2717.60370, -46.98970,
,,,2722.53583, -44.58970,
,,,2727.46796, -46.98970,
,,,2732.40009, -46.98970,
,,,2737.33222, -44.58970,
,,,2742.26435, -46.98970,
,,,2747.19648, -46.98970,
,,,2752.12861, -46.98970,
,,,2757.06074, -46.98970,
,,,2761.99287, -46.98970,
,,,2766.92500, -46.98970,
,,,2771.85713, -44.58970,
,,,2776.78926, -46.98970,
,,,2781.72139, -44.58970,
,,,2786.65352, -46.98970,
,,,2791.58565, -46.98970,
,,,2796.51778, -46.98970,
,,,2801.44991, -46.98970,
,,,2806.38204, -46.98970,
,,,2811.31417, -44.58970,
,,,2816.24630, -46.98970,
,,,2821.17843, -44.58970,
,,,2826.11056, -44.58970,
,,,2831.04269, -46.98970,
,,,2835.97482, -46.98970,
,,,2840.90695, -46.98970,
,,,2845.83908, -46.98970,
,,,2850.77121, -46.98970,
,,,2855.70334, -44.58970,
,,,2860.63547, -46.98970,
,,,2865.56760, -46.98970,
,,,2870.49973, -46.98970,
,,,2875.43186, -46.98970,
,,,2880.36399, -46.98970,
,,,2885.29612, -44.58970,
,,,2890.22825, -44.58970,
,,,2895.16038, -46.98970,
,,,2900.09251, -44.58970,
,,,2905.02464, -44.58970,
,,,2909.95677, -44.58970,
,,,2914.88890, -46.98970,
,,,2919.82103, -46.98970,
,,,2924.75316, -46.98970,
,,,2929.68529, -46.98970,
,,,2934.61742, -44.58970,
,,,2939.54955, -46.98970,
,,,2944.48168, -46.98970,
,,,2949.41381, -46.98970,
,,,2954.34594, -46.98970,
,,,2959.27807, -46.98970,
,,,2964.21020, -46.98970,
,,,2969.14233, -46.98970,
,,,2974.07446, -46.98970,
,,,2979.00659, -44.58970,
,,,2983.93872, -44.58970,
,,,2988.87085, -44.58970,
,,,2993.80298, -46.98970,
,,,2998.73511, -46.98970,
,,,3003.66724, -44.58970,
,,,3008.59937, -44.58970,
,,,3013.53150, -40.58970,
,,,3018.46363, -46.98970,
,,,3023.39576, -46.98970,
,,,3028.32789, -46.98970,
,,,3033.26002, -44.58970,
,,,3038.19215, -44.58970,
,,,3043.12428, -44.58970,
,,,3048.05641, -46.98970,
,,,3052.98854, -44.58970,
,,,3057.92067, -46.98970,
,,,3062.85280, -46.98970,
,,,3067.78493, -44.58970,
,,,3072.71706, -46.98970,
,,,3077.64919, -46.98970,
,,,3082.58132, -46.98970,
,,,3087.51345, -44.58970,
,,,3092.44558, -46.98970,
,,,3097.37771, -46.98970,
,,,3102.30984, -46.98970,
,,,3107.24197, -46.98970,
,,,3112.17410, -46.98970,
,,,3117.10623, -46.98970,
,,,3122.03836, -46.98970,
,,,3126.97049, -46.98970,
,,,3131.90262, -46.98970,
,,,3136.83475, -46.98970,
,,,3141.76688, -46.98970,
,,,3146.69901, -46.98970,
,,,3151.63114, -46.98970,
,,,3156.56327, -46.98970,
,,,3161.49540, -44.58970,
,,,3166.42753, -46.98970,
,,,3171.35966, -44.58970,
,,,3176.29179, -46.98970,
,,,3181.22392, -46.98970,
,,,3186.15605, -46.98970,
,,,3191.08818, -46.98970,
,,,3196.02031, -46.98970,
,,,3200.95244, -46.98970,
,,,3205.88457, -46.98970,
,,,3210.81670, -46.98970,
,,,3215.74883, -46.98970,
,,,3220.68096, -46.98970,
,,,3225.61309, -46.98970,
,,,3230.54522, -46.98970,
,,,3235.47735, -46.98970,
,,,3240.40948, -44.58970,
,,,3245.34161, -46.98970,
,,,3250.27374, -44.58970,
,,,3255.20587, -46.98970,
,,,3260.13800, -46.98970,
,,,3265.07013, -46.98970,
,,,3270.00226, -46.98970,
,,,3274.93439, -46.98970,
,,,3279.86652, -46.98970,
,,,3284.79865, -41.38970,
,,,3289.73078, -46.98970,
,,,3294.66291, -46.98970,
,,,3299.59504, -46.98970,
,,,3304.52717, -46.98970,
,,,3309.45930, -46.98970,
,,,3314.39143, -46.98970,
,,,3319.32356, -46.98970,
,,,3324.25569, -46.98970,
,,,3329.18782, -46.98970,
,,,3334.11995, -46.98970,
,,,3339.05208, -41.38970,
,,,3343.98421, -46.98970,
,,,3348.91634, -40.58970,
,,,3353.84847, -46.98970,
,,,3358.78060, -46.98970,
,,,3363.71273, -46.98970,
,,,3368.64486, -46.98970,
,,,3373.57699, -44.58970,
,,,3378.50912, -46.98970,
,,,3383.44125, -46.98970,
,,,3388.37338, -46.98970,
,,,3393.30551, -46.98970,
,,,3398.23764, -46.98970,
,,,3403.16977, -46.98970,
,,,3408.10190, -46.98970,
,,,3413.03403, -46.98970,
,,,3417.96616, -46.98970,
,,,3422.89829, -46.98970,
,,,3427.83042, -46.98970,
,,,3432.76255, -46.98970,
,,,3437.69468, -46.98970,
,,,3442.62681, -46.98970,
,,,3447.55894, -44.58970,
,,,3452.49107, -46.98970,
,,,3457.42320, -46.98970,
,,,3462.35533, -46.98970,
,,,3467.28746, -44.58970,
,,,3472.21959, -40.58970,
,,,3477.15172, -41.38970,
,,,3482.08385, -46.98970,
,,,3487.01598, -44.58970,
,,,3491.94811, -46.98970,
,,,3496.88024, -46.98970,
,,,3501.81237, -44.58970,
,,,3506.74450, -46.98970,
,,,3511.67663, -46.98970,
,,,3516.60876, -46.98970,
,,,3521.54089, -46.98970,
,,,3526.47302, -46.98970,
,,,3531.40515, -46.98970,
,,,3536.33728, -46.98970,
,,,3541.26941, -46.98970,
,,,3546.20154, -46.98970,
,,,3551.13367, -46.98970,
,,,3556.06580, -44.58970,
,,,3560.99793, -44.58970,
,,,3565.93006, -46.98970,
,,,3570.86219, -44.58970,
,,,3575.79432, -44.58970,
,,,3580.72645, -44.58970,
,,,3585.65858, -46.98970,
,,,3590.59071, -46.98970,
,,,3595.52284, -46.98970,
,,,3600.45497, -46.98970,
,,,3605.38710, -46.98970,
,,,3610.31923, -46.98970,
,,,3615.25136, -46.98970,
,,,3620.18349, -46.98970,
,,,3625.11562, -46.98970,
,,,3630.04775, -46.98970,
,,,3634.97988, -44.58970,
,,,3639.91201, -46.98970,
,,,3644.84414, -41.38970,
,,,3649.77627, -44.58970,
,,,3654.70840, -46.98970,
,,,3659.64053, -46.98970,
,,,3664.57266, -46.98970,
,,,3669.50479, -46.98970,
,,,3674.43692, -46.98970,
,,,3679.36905, -46.98970,
,,,3684.30118, -46.98970,
,,,3689.23331, -46.98970,
,,,3694.16544, -46.98970,
,,,3699.09757, -46.98970,
,,,3704.02970, -46.98970,
,,,3708.96183, -46.98970,
,,,3713.89396, -46.98970,
,,,3718.82609, -46.98970,
,,,3723.75822, -46.98970,
,,,3728.69035, -46.98970,
,,,3733.62248, -46.98970,
,,,3738.55461, -46.98970,
