furier_c1/ALL0001/F0001FFT.CSV

Record Length,1.024000e+03,,          0.00000,   4.21030,
Sample Interval,4.932134e+00,,          4.93213,  13.01030,
Trigger Point,-0.000000000000e+00,,          9.86427,  14.61030,
,,,         14.79640,  15.01030,
,,,         19.72854,  11.01030,
,,,         24.66067,   6.21030,
Source,FFT,,         29.59280,   2.61030,
Vertical Units,dB,,         34.52494,   1.81030,
Vertical Scale,1.000000e+01,,         39.45707,   3.81030,
Vertical Offset,0.000000e+00,,         44.38920,   4.21030,
Horizontal Units,Hz,,         49.32134,   0.61030,
Horizontal Scale,5.050505e+02,,         54.25347,  -2.58970,
Pt Fmt,Y,,         59.18561,  -2.98970,
Yzero,-6.989700e+00,,         64.11774,  -2.18970,
Probe Atten,1.000000e+00,,         69.04987,  -0.58970,
Model Number,TBS1052B-EDU,,         73.98201,  -0.58970,
Serial Number,C027597,,         78.91414,  -4.98970,
Firmware Version,FV:v4.06,,         83.84628,  -7.38970,
,,,88.77841,  -5.78970,
,,,93.71054,  -4.98970,
,,,98.64267,  -3.38970,
,,,103.57480,  -4.58970,
,,,108.50693,  -8.98970,
,,,113.43906, -10.18970,
,,,118.37119,  -7.78970,
,,,123.30332,  -6.98970,
,,,128.23545,  -5.38970,
,,,133.16758,  -7.78970,
,,,138.09971, -12.58970,
,,,143.03184, -11.78970,
,,,147.96397,  -8.98970,
,,,152.89610,  -8.58970,
,,,157.82823,  -7.38970,
,,,162.76036, -10.58970,
,,,167.69249, -14.98970,
,,,172.62462, -12.98970,
,,,177.55675, -10.58970,
,,,182.48888, -10.18970,
,,,187.42101,  -9.78970,
,,,192.35314, -13.38970,
,,,197.28527, -17.38970,
,,,202.21740, -13.38970,
,,,207.14953, -11.78970,
,,,212.08166, -11.38970,
,,,217.01379, -11.78970,
,,,221.94592, -16.58970,
,,,226.87805, -18.98970,
,,,231.81018, -13.78970,
,,,236.74231, -12.58970,
,,,241.67444, -12.98970,
,,,246.60657, -13.78970,
,,,251.53870, -19.38970,
,,,256.47083, -18.98970,
,,,261.40296, -14.58970,
,,,266.33509, -14.18970,
,,,271.26722, -14.18970,
,,,276.19935, -16.18970,
,,,281.13148, -21.78970,
,,,286.06361, -19.38970,
,,,290.99574, -15.38970,
,,,295.92787, -15.38970,
,,,300.86000, -15.78970,
,,,305.79213, -18.18970,
,,,310.72426, -22.58970,
,,,315.65639, -18.58970,
,,,320.58852, -15.78970,
,,,325.52065, -16.58970,
,,,330.45278, -17.38970,
,,,335.38491, -20.98970,
,,,340.31704, -23.38970,
,,,345.24917, -18.58970,
,,,350.18130, -16.98970,
,,,355.11343, -17.78970,
,,,360.04556, -18.58970,
,,,364.97769, -23.38970,
,,,369.90982, -23.38970,
,,,374.84195, -19.38970,
,,,379.77408, -18.18970,
,,,384.70621, -19.78970,
,,,389.63834, -21.38970,
,,,394.57047, -25.78970,
,,,399.50260, -24.58970,
,,,404.43473, -19.38970,
,,,409.36686, -19.38970,
,,,414.29899, -21.38970,
,,,419.23112, -23.38970,
,,,424.16325, -25.38970,
,,,429.09538, -23.38970,
,,,434.02751, -20.18970,
,,,438.95964, -20.98970,
,,,443.89177, -22.98970,
,,,448.82390, -24.98970,
,,,453.75603, -26.18970,
,,,458.68816, -23.78970,
,,,463.62029, -21.38970,
,,,468.55242, -22.98970,
,,,473.48455, -24.98970,
,,,478.41668, -26.98970,
,,,483.34881, -26.98970,
,,,488.28094, -23.78970,
,,,493.21307, -21.78970,
,,,498.14520, -24.58970,
,,,503.07733, -26.98970,
,,,508.00946, -28.98970,
,,,512.94159, -27.38970,
,,,517.87372, -23.78970,
,,,522.80585, -23.38970,
,,,527.73798, -25.78970,
,,,532.67011, -28.18970,
,,,537.60224, -28.58970,
,,,542.53437, -26.58970,
,,,547.46650, -24.18970,
,,,552.39863, -23.78970,
,,,557.33076, -26.58970,
,,,562.26289, -28.98970,
,,,567.19502, -29.38970,
,,,572.12715, -28.58970,
,,,577.05928, -25.78970,
,,,581.99141, -27.38970,
,,,586.92354, -31.38970,
,,,591.85567, -33.38970,
,,,596.78780, -29.78970,
,,,601.71993, -27.78970,
,,,606.65206, -25.78970,
,,,611.58419, -27.38970,
,,,616.51632, -29.78970,
,,,621.44845, -30.58970,
,,,626.38058, -28.58970,
,,,631.31271, -27.38970,
,,,636.24484, -25.78970,
,,,641.17697, -28.98970,
,,,646.10910, -33.38970,
,,,651.04123, -33.38970,
,,,655.97336, -29.78970,
,,,660.90549, -29.38970,
,,,665.83762, -28.98970,
,,,670.76975, -32.98970,
,,,675.70188, -36.18970,
,,,680.63401, -33.38970,
,,,685.56614, -31.38970,
,,,690.49827, -30.58970,
,,,695.43040, -30.18970,
,,,700.36253, -34.98970,
,,,705.29466, -41.38970,
,,,710.22679, -32.98970,
,,,715.15892, -31.38970,
,,,720.09105, -30.58970,
,,,725.02318, -30.58970,
,,,729.95531, -34.98970,
,,,734.88744, -33.38970,
,,,739.81957, -30.18970,
,,,744.75170, -30.58970,
,,,749.68383, -30.58970,
,,,754.61596, -34.98970,
,,,759.54809, -41.38970,
,,,764.48022, -35.38970,
,,,769.41235, -30.58970,
,,,774.34448, -31.78970,
,,,779.27661, -31.38970,
,,,784.20874, -37.78970,
,,,789.14087, -41.38970,
,,,794.07300, -37.38970,
,,,799.00513, -32.98970,
,,,803.93726, -34.98970,
,,,808.86939, -32.98970,
,,,813.80152, -37.38970,
,,,818.73365, -37.78970,
,,,823.66578, -33.38970,
,,,828.59791, -30.58970,
,,,833.53004, -31.78970,
,,,838.46217, -31.78970,
,,,843.39430, -34.98970,
,,,848.32643, -37.78970,
,,,853.25856, -34.98970,
,,,858.19069, -33.38970,
,,,863.12282, -34.98970,
,,,868.05495, -34.58970,
,,,872.98708, -37.38970,
,,,877.91921, -37.78970,
,,,882.85134, -33.38970,
,,,887.78347, -33.38970,
,,,892.71560, -34.98970,
,,,897.64773, -34.98970,
,,,902.57986, -40.58970,
,,,907.51199, -37.38970,
,,,912.44412, -33.38970,
,,,917.37625, -33.38970,
,,,922.30838, -34.58970,
,,,927.24051, -34.98970,
,,,932.17264, -37.78970,
,,,937.10477, -37.78970,
,,,942.03690, -34.98970,
,,,946.96903, -37.38970,
,,,951.90116, -36.18970,
,,,956.83329, -40.58970,
,,,961.76542, -41.38970,
,,,966.69755, -37.78970,
,,,971.62968, -34.98970,
,,,976.56181, -37.78970,
,,,981.49394, -37.78970,
,,,986.42607, -44.58970,
,,,991.35820, -38.58970,
,,,996.29033, -40.58970,
,,,1001.22246, -37.78970,
,,,1006.15459, -40.58970,
,,,1011.08672, -40.58970,
,,,1016.01885, -46.98970,
,,,1020.95098, -40.58970,
,,,1025.88311, -34.98970,
,,,1030.81524, -34.98970,
,,,1035.74737, -37.38970,
,,,1040.67950, -37.78970,
,,,1045.61163, -40.58970,
,,,1050.54376, -36.18970,
,,,1055.47589, -34.98970,
,,,1060.40802, -37.78970,
,,,1065.34015, -41.38970,
,,,1070.27228, -46.98970,
,,,1075.20441, -46.98970,
,,,1080.13654, -46.98970,
,,,1085.06867, -40.58970,
,,,1090.00080, -46.98970,
,,,1094.93293, -46.98970,
,,,1099.86506, -44.58970,
,,,1104.79719, -38.58970,
,,,1109.72932, -38.58970,
,,,1114.66145, -37.38970,
,,,1119.59358, -46.98970,
,,,1124.52571, -46.98970,
,,,1129.45784, -44.58970,
,,,1134.38997, -38.58970,
,,,1139.32210, -37.38970,
,,,1144.25423, -40.58970,
,,,1149.18636, -44.58970,
,,,1154.11849, -44.58970,
,,,1159.05062, -44.58970,
,,,1163.98275, -36.18970,
,,,1168.91488, -37.38970,
,,,1173.84701, -37.78970,
,,,1178.77914, -40.58970,
,,,1183.71127, -37.78970,
,,,1188.64340, -36.18970,
,,,1193.57553, -40.58970,
,,,1198.50766, -40.58970,
,,,1203.43979, -41.38970,
,,,1208.37192, -41.38970,
,,,1213.30405, -40.58970,
,,,1218.23618, -40.58970,
,,,1223.16831, -40.58970,
,,,1228.10044, -37.38970,
,,,1233.03257, -37.38970,
,,,1237.96470, -41.38970,
,,,1242.89683, -41.38970,
,,,1247.82896, -40.58970,
,,,1252.76109, -44.58970,
,,,1257.69322, -40.58970,
,,,1262.62535, -44.58970,
,,,1267.55748, -46.98970,
,,,1272.48961, -46.98970,
,,,1277.42174, -40.58970,
,,,1282.35387, -40.58970,
,,,1287.28600, -40.58970,
,,,1292.21813, -38.58970,
,,,1297.15026, -40.58970,
,,,1302.08239, -38.58970,
,,,1307.01452, -38.58970,
,,,1311.94665, -41.38970,
,,,1316.87878, -41.38970,
,,,1321.81091, -46.98970,
,,,1326.74304, -44.58970,
,,,1331.67517, -40.58970,
,,,1336.60730, -40.58970,
,,,1341.53943, -46.98970,
,,,1346.47156, -40.58970,
,,,1351.40369, -40.58970,
,,,1356.33582, -44.58970,
,,,1361.26795, -40.58970,
,,,1366.20008, -41.38970,
,,,1371.13221, -41.38970,
,,,1376.06434, -41.38970,
,,,1380.99647, -46.98970,
,,,1385.92860, -46.98970,
,,,1390.86073, -40.58970,
,,,1395.79286, -41.38970,
,,,1400.72499, -46.98970,
,,,1405.65712, -46.98970,
,,,1410.58925, -46.98970,
,,,1415.52138, -40.58970,
,,,1420.45351, -37.38970,
,,,1425.38564, -41.38970,
,,,1430.31777, -40.58970,
,,,1435.24990, -46.98970,
,,,1440.18203, -44.58970,
,,,1445.11416, -44.58970,
,,,1450.04629, -44.58970,
,,,1454.97842, -41.38970,
,,,1459.91055, -41.38970,
,,,1464.84268, -41.38970,
,,,1469.77481, -40.58970,
,,,1474.70694, -37.38970,
,,,1479.63907, -37.78970,
,,,1484.57120, -35.38970,
,,,1489.50333, -41.38970,
,,,1494.43546, -41.38970,
,,,1499.36759, -44.58970,
,,,1504.29972, -41.38970,
,,,1509.23185, -37.38970,
,,,1514.16398, -40.58970,
,,,1519.09611, -41.38970,
,,,1524.02824, -38.58970,
,,,1528.96037, -38.58970,
,,,1533.89250, -37.38970,
,,,1538.82463, -40.58970,
,,,1543.75676, -41.38970,
,,,1548.68889, -41.38970,
,,,1553.62102, -37.38970,
,,,1558.55315, -37.38970,
,,,1563.48528, -35.38970,
,,,1568.41741, -37.78970,
,,,1573.34954, -37.78970,
,,,1578.28167, -38.58970,
,,,1583.21380, -36.18970,
,,,1588.14593, -36.18970,
,,,1593.07806, -37.78970,
,,,1598.01019, -37.38970,
,,,1602.94232, -40.58970,
,,,1607.87445, -40.58970,
,,,1612.80658, -37.38970,
,,,1617.73871, -37.78970,
,,,1622.67084, -37.78970,
,,,1627.60297, -37.38970,
,,,1632.53510, -40.58970,
,,,1637.46723, -40.58970,
,,,1642.39936, -40.58970,
,,,1647.33149, -41.38970,
,,,1652.26362, -41.38970,
,,,1657.19575, -40.58970,
,,,1662.12788, -46.98970,
,,,1667.06001, -40.58970,
,,,1671.99214, -40.58970,
,,,1676.92427, -40.58970,
,,,1681.85640, -40.58970,
,,,1686.78853, -40.58970,
,,,1691.72066, -44.58970,
,,,1696.65279, -40.58970,
,,,1701.58492, -44.58970,
,,,1706.51705, -40.58970,
,,,1711.44918, -40.58970,
,,,1716.38131, -41.38970,
,,,1721.31344, -37.38970,
,,,1726.24557, -40.58970,
,,,1731.17770, -37.38970,
,,,1736.10983, -40.58970,
,,,1741.04196, -46.98970,
,,,1745.97409, -46.98970,
,,,1750.90622, -46.98970,
,,,1755.83835, -40.58970,
,,,1760.77048, -36.18970,
,,,1765.70261, -36.18970,
,,,1770.63474, -40.58970,
,,,1775.56687, -44.58970,
,,,1780.49900, -41.38970,
,,,1785.43113, -46.98970,
,,,1790.36326, -41.38970,
,,,1795.29539, -46.98970,
,,,1800.22752, -46.98970,
,,,1805.15965, -46.98970,
,,,1810.09178, -44.58970,
,,,1815.02391, -44.58970,
,,,1819.95604, -40.58970,
,,,1824.88817, -44.58970,
,,,1829.82030, -46.98970,
,,,1834.75243, -46.98970,
,,,1839.68456, -46.98970,
,,,1844.61669, -46.98970,
,,,1849.54882, -46.98970,
,,,1854.48095, -46.98970,
,,,1859.41308, -44.58970,
,,,1864.34521, -46.98970,
,,,1869.27734, -44.58970,
,,,1874.20947, -40.58970,
,,,1879.14160, -41.38970,
,,,1884.07373, -41.38970,
,,,1889.00586, -46.98970,
,,,1893.93799, -44.58970,
,,,1898.87012, -46.98970,
,,,1903.80225, -40.58970,
,,,1908.73438, -37.78970,
,,,1913.66651, -46.98970,
,,,1918.59864, -44.58970,
,,,1923.53077, -46.98970,
,,,1928.46290, -40.58970,
,,,1933.39503, -44.58970,
,,,1938.32716, -44.58970,
,,,1943.25929, -46.98970,
,,,1948.19142, -46.98970,
,,,1953.12355, -46.98970,
,,,1958.05568, -44.58970,
,,,1962.98781, -41.38970,
,,,1967.91994, -46.98970,
,,,1972.85207, -44.58970,
,,,1977.78420, -41.38970,
,,,1982.71633, -46.98970,
,,,1987.64846, -40.58970,
,,,1992.58059, -41.38970,
,,,1997.51272, -40.58970,
,,,2002.44485, -40.58970,
,,,2007.37698, -40.58970,
,,,2012.30911, -44.58970,
,,,2017.24124, -40.58970,
,,,2022.17337, -40.58970,
,,,2027.10550, -40.58970,
,,,2032.03763, -41.38970,
,,,2036.96976, -41.38970,
,,,2041.90189, -44.58970,
,,,2046.83402, -41.38970,
,,,2051.76615, -41.38970,
,,,2056.69828, -41.38970,
,,,2061.63041, -46.98970,
,,,2066.56254, -44.58970,
,,,2071.49467, -40.58970,
,,,2076.42680, -44.58970,
,,,2081.35893, -46.98970,
,,,2086.29106, -46.98970,
,,,2091.22319, -44.58970,
,,,2096.15532, -46.98970,
,,,2101.08745, -46.98970,
,,,2106.01958, -46.98970,
,,,2110.95171, -46.98970,
,,,2115.88384, -40.58970,
,,,2120.81597, -44.58970,
,,,2125.74810, -40.58970,
,,,2130.68023, -46.98970,
,,,2135.61236, -46.98970,
,,,2140.54449, -46.98970,
,,,2145.47662, -46.98970,
,,,2150.40875, -46.98970,
,,,2155.34088, -46.98970,
,,,2160.27301, -41.38970,
,,,2165.20514, -44.58970,
,,,2170.13727, -44.58970,
,,,2175.06940, -44.58970,
,,,2180.00153, -46.98970,
,,,2184.93366, -46.98970,
,,,2189.86579, -44.58970,
,,,2194.79792, -46.98970,
,,,2199.73005, -46.98970,
,,,2204.66218, -44.58970,
,,,2209.59431, -40.58970,
,,,2214.52644, -40.58970,
,,,2219.45857, -44.58970,
,,,2224.39070, -46.98970,
,,,2229.32283, -46.98970,
,,,2234.25496, -46.98970,
,,,2239.18709, -46.98970,
,,,2244.11922, -46.98970,
,,,2249.05135, -44.58970,
,,,2253.98348, -46.98970,
,,,2258.91561, -46.98970,
,,,2263.84774, -41.38970,
,,,2268.77987, -46.98970,
,,,2273.71200, -44.58970,
,,,2278.64413, -46.98970,
,,,2283.57626, -46.98970,
,,,2288.50839, -46.98970,
,,,2293.44052, -46.98970,
,,,2298.37265, -46.98970,
,,,2303.30478, -46.98970,
,,,2308.23691, -44.58970,
,,,2313.16904, -46.98970,
,,,2318.10117, -44.58970,
,,,2323.03330, -46.98970,
,,,2327.96543, -46.98970,
,,,2332.89756, -46.98970,
,,,2337.82969, -44.58970,
,,,2342.76182, -44.58970,
,,,2347.69395, -46.98970,
,,,2352.62608, -46.98970,
,,,2357.55821, -44.58970,
,,,2362.49034, -46.98970,
,,,2367.42247, -44.58970,
,,,2372.35460, -46.98970,
,,,2377.28673, -46.98970,
,,,2382.21886, -46.98970,
,,,2387.15099, -46.98970,
,,,2392.08312, -46.98970,
,,,2397.01525, -46.98970,
,,,2401.94738, -46.98970,
,,,2406.87951, -46.98970,
,,,2411.81164, -46.98970,
,,,2416.74377, -46.98970,
,,,2421.67590, -46.98970,
,,,2426.60803, -46.98970,
,,,2431.54016, -46.98970,
,,,2436.47229, -46.98970,
,,,2441.40442, -41.38970,
,,,2446.33655, -41.38970,
,,,2451.26868, -46.98970,
,,,2456.20081, -46.98970,
,,,2461.13294, -46.98970,
,,,2466.06507, -46.98970,
,,,2470.99720, -46.98970,
,,,2475.92933, -46.98970,
,,,2480.86146, -44.58970,
,,,2485.79359, -44.58970,
,,,2490.72572, -46.98970,
,,,2495.65785, -46.98970,
,,,2500.58998, -41.38970,
,,,2505.52211, -46.98970,
,,,2510.45424, -46.98970,
,,,2515.38637, -46.98970,
,,,2520.31850, -46.98970,
,,,2525.25063, -46.98970,
,,,2530.18276, -46.98970,
,,,2535.11489, -46.98970,
,,,2540.04702, -46.98970,
,,,2544.97915, -46.98970,
,,,2549.91128, -46.98970,
,,,2554.84341, -46.98970,
,,,2559.77554, -46.98970,
,,,2564.70767, -46.98970,
,,,2569.63980, -46.98970,
,,,2574.57193, -44.58970,
,,,2579.50406, -40.58970,
,,,2584.43619, -44.58970,
,,,2589.36832, -40.58970,
,,,2594.30045, -41.38970,
,,,2599.23258, -40.58970,
,,,2604.16471, -40.58970,
,,,2609.09684, -46.98970,
,,,2614.02897, -46.98970,
,,,2618.96110, -46.98970,
,,,2623.89323, -46.98970,
,,,2628.82536, -46.98970,
,,,2633.75749, -46.98970,
,,,2638.68962, -46.98970,
,,,2643.62175, -40.58970,
,,,2648.55388, -44.58970,
,,,2653.48601, -46.98970,
,,,2658.41814, -46.98970,
,,,2663.35027, -46.98970,
,,,2668.28240, -46.98970,
,,,2673.21453, -46.98970,
,,,2678.14666, -44.58970,
,,,2683.07879, -46.98970,
,,,2688.01092, -46.98970,
,,,2692.94305, -46.98970,
,,,2697.87518, -46.98970,
,,,2702.80731, -46.98970,
,,,2707.73944, -46.98970,
,,,2712.67157, -44.58970,
,,,2717.60370, -44.58970,
,,,2722.53583, -46.98970,
,,,2727.46796, -46.98970,
,,,2732.40009, -40.58970,
,,,2737.33222, -40.58970,
,,,2742.26435, -44.58970,
,,,2747.19648, -46.98970,
,,,2752.12861, -46.98970,
,,,2757.06074, -46.98970,
,,,2761.99287, -46.98970,
,,,2766.92500, -46.98970,
,,,2771.85713, -44.58970,
,,,2776.78926, -46.98970,
,,,2781.72139, -46.98970,
,,,2786.65352, -44.58970,
,,,2791.58565, -41.38970,
,,,2796.51778, -46.98970,
,,,2801.44991, -46.98970,
,,,2806.38204, -46.98970,
,,,2811.31417, -46.98970,
,,,2816.24630, -46.98970,
,,,2821.17843, -44.58970,
,,,2826.11056, -44.58970,
,,,2831.04269, -44.58970,
,,,2835.97482, -44.58970,
,,,2840.90695, -44.58970,
,,,2845.83908, -41.38970,
,,,2850.77121, -40.58970,
,,,2855.70334, -37.78970,
,,,2860.63547, -41.38970,
,,,2865.56760, -41.38970,
,,,2870.49973, -46.98970,
,,,2875.43186, -46.98970,
,,,2880.36399, -46.98970,
,,,2885.29612, -46.98970,
,,,2890.22825, -46.98970,
,,,2895.16038, -46.98970,
,,,2900.09251, -41.38970,
,,,2905.02464, -44.58970,
,,,2909.95677, -44.58970,
,,,2914.88890, -40.58970,
,,,2919.82103, -46.98970,
,,,2924.75316, -46.98970,
,,,2929.68529, -46.98970,
,,,2934.61742, -46.98970,
,,,2939.54955, -44.58970,
,,,2944.48168, -46.98970,
,,,2949.41381, -46.98970,
,,,2954.34594, -46.98970,
,,,2959.27807, -46.98970,
,,,2964.21020, -46.98970,
,,,2969.14233, -46.98970,
,,,2974.07446, -46.98970,
,,,2979.00659, -46.98970,
,,,2983.93872, -46.98970,
,,,2988.87085, -46.98970,
,,,2993.80298, -46.98970,
,,,2998.73511, -46.98970,
,,,3003.66724, -46.98970,
,,,3008.59937, -46.98970,
,,,3013.53150, -46.98970,
,,,3018.46363, -46.98970,
,,,3023.39576, -46.98970,
,,,3028.32789, -46.98970,
,,,3033.26002, -46.98970,
,,,3038.19215, -44.58970,
,,,3043.12428, -40.58970,
,,,3048.05641, -41.38970,
,,,3052.98854, -44.58970,
,,,3057.92067, -44.58970,
,,,3062.85280, -44.58970,
,,,3067.78493, -46.98970,
,,,3072.71706, -41.38970,
,,,3077.64919, -46.98970,
,,,3082.58132, -44.58970,
,,,3087.51345, -40.58970,
,,,3092.44558, -41.38970,
,,,3097.37771, -46.98970,
,,,3102.30984, -44.58970,
,,,3107.24197, -46.98970,
,,,3112.17410, -46.98970,
,,,3117.10623, -46.98970,
,,,3122.03836, -46.98970,
,,,3126.97049, -46.98970,
,,,3131.90262, -46.98970,
,,,3136.83475, -40.58970,
,,,3141.76688, -44.58970,
,,,3146.69901, -46.98970,
,,,3151.63114, -46.98970,
,,,3156.56327, -46.98970,
,,,3161.49540, -46.98970,
,,,3166.42753, -46.98970,
,,,3171.35966, -46.98970,
,,,3176.29179, -44.58970,
,,,3181.22392, -41.38970,
,,,3186.15605, -41.38970,
,,,3191.08818, -46.98970,
,,,3196.02031, -46.98970,
,,,3200.95244, -46.98970,
,,,3205.88457, -46.98970,
,,,3210.81670, -46.98970,
,,,3215.74883, -46.98970,
,,,3220.68096, -44.58970,
,,,3225.61309, -46.98970,
,,,3230.54522, -46.98970,
,,,3235.47735, -46.98970,
,,,3240.40948, -46.98970,
,,,3245.34161, -46.98970,
,,,3250.27374, -44.58970,
,,,3255.20587, -46.98970,
,,,3260.13800, -46.98970,
,,,3265.07013, -46.98970,
,,,3270.00226, -44.58970,
,,,3274.93439, -46.98970,
,,,3279.86652, -46.98970,
,,,3284.79865, -46.98970,
,,,3289.73078, -46.98970,
,,,3294.66291, -46.98970,
,,,3299.59504, -46.98970,
,,,3304.52717, -44.58970,
,,,3309.45930, -46.98970,
,,,3314.39143, -46.98970,
,,,3319.32356, -46.98970,
,,,3324.25569, -46.98970,
,,,3329.18782, -46.98970,
,,,3334.11995, -41.38970,
,,,3339.05208, -46.98970,
,,,3343.98421, -44.58970,
,,,3348.91634, -44.58970,
,,,3353.84847, -44.58970,
,,,3358.78060, -44.58970,
,,,3363.71273, -46.98970,
,,,3368.64486, -46.98970,
,,,3373.57699, -44.58970,
,,,3378.50912, -46.98970,
,,,3383.44125, -46.98970,
,,,3388.37338, -46.98970,
,,,3393.30551, -46.98970,
,,,3398.23764, -44.58970,
,,,3403.16977, -46.98970,
,,,3408.10190, -44.58970,
,,,3413.03403, -44.58970,
,,,3417.96616, -46.98970,
,,,3422.89829, -41.38970,
,,,3427.83042, -40.58970,
,,,3432.76255, -40.58970,
,,,3437.69468, -41.38970,
,,,3442.62681, -41.38970,
,,,3447.55894, -41.38970,
,,,3452.49107, -46.98970,
,,,3457.42320, -44.58970,
,,,3462.35533, -44.58970,
,,,3467.28746, -44.58970,
,,,3472.21959, -44.58970,
,,,3477.15172, -46.98970,
,,,3482.08385, -44.58970,
,,,3487.01598, -46.98970,
,,,3491.94811, -46.98970,
,,,3496.88024, -44.58970,
,,,3501.81237, -44.58970,
,,,3506.74450, -44.58970,
,,,3511.67663, -46.98970,
,,,3516.60876, -44.58970,
,,,3521.54089, -46.98970,
,,,3526.47302, -46.98970,
,,,3531.40515, -46.98970,
,,,3536.33728, -46.98970,
,,,3541.26941, -44.58970,
,,,3546.20154, -46.98970,
,,,3551.13367, -41.38970,
,,,3556.06580, -40.58970,
,,,3560.99793, -40.58970,
,,,3565.93006, -40.58970,
,,,3570.86219, -46.98970,
,,,3575.79432, -46.98970,
,,,3580.72645, -46.98970,
,,,3585.65858, -46.98970,
,,,3590.59071, -41.38970,
,,,3595.52284, -41.38970,
,,,3600.45497, -44.58970,
,,,3605.38710, -38.58970,
,,,3610.31923, -46.98970,
,,,3615.25136, -46.98970,
,,,3620.18349, -46.98970,
,,,3625.11562, -44.58970,
,,,3630.04775, -46.98970,
,,,3634.97988, -44.58970,
,,,3639.91201, -40.58970,
,,,3644.84414, -40.58970,
,,,3649.77627, -46.98970,
,,,3654.70840, -46.98970,
,,,3659.64053, -46.98970,
,,,3664.57266, -44.58970,
,,,3669.50479, -46.98970,
,,,3674.43692, -46.98970,
,,,3679.36905, -46.98970,
,,,3684.30118, -46.98970,
,,,3689.23331, -46.98970,
,,,3694.16544, -46.98970,
,,,3699.09757, -46.98970,
,,,3704.02970, -46.98970,
,,,3708.96183, -46.98970,
,,,3713.89396, -46.98970,
,,,3718.82609, -44.58970,
,,,3723.75822, -44.58970,
,,,3728.69035, -46.98970,
,,,3733.62248, -46.98970,
,,,3738.55461, -46.98970,
