RL_diode_run_1/ALL0061/F0061CH1.CSV

Record Length,2.500000e+03,,  -0.000025000000,   3.00000,
Sample Interval,2.000000e-08,,  -0.000024980000,   2.20000,
Trigger Point,1.250000000000e+03,,  -0.000024960000,   1.40000,
,,,  -0.000024940000,   0.60000,
,,,  -0.000024920000,   0.00000,
,,,  -0.000024900000,  -1.00000,
Source,CH1,,  -0.000024880000,  -1.60000,
Vertical Units,V,,  -0.000024860000,  -2.60000,
Vertical Scale,5.000000e+00,,  -0.000024840000,  -2.80000,
Vertical Offset,0.000000e+00,,  -0.000024820000,  -3.80000,
Horizontal Units,s,,  -0.000024800000,  -4.20000,
Horizontal Scale,5.000000e-06,,  -0.000024780000,  -4.80000,
Pt Fmt,Y,,  -0.000024760000,  -5.40000,
Yzero,0.000000e+00,,  -0.000024740000,  -6.20000,
Probe Atten,1.000000e+00,,  -0.000024720000,  -7.00000,
Model Number,TBS1052B-EDU,,  -0.000024700000,  -7.40000,
Serial Number,C027597,,  -0.000024680000,  -8.20000,
Firmware Version,FV:v4.06,,  -0.000024660000,  -8.60000,
,,,-00.000024640000,  -8.80000,
,,,-00.000024620000,  -9.40000,
,,,-00.000024600000,  -9.60000,
,,,-00.000024580000,  -9.80000,
,,,-00.000024560000, -10.20000,
,,,-00.000024540000, -10.40000,
,,,-00.000024520000, -10.60000,
,,,-00.000024500000, -10.60000,
,,,-00.000024480000, -10.60000,
,,,-00.000024460000, -11.00000,
,,,-00.000024440000, -10.80000,
,,,-00.000024420000, -10.80000,
,,,-00.000024400000, -10.40000,
,,,-00.000024380000, -10.40000,
,,,-00.000024360000, -10.40000,
,,,-00.000024340000,  -9.80000,
,,,-00.000024320000,  -9.60000,
,,,-00.000024300000,  -9.40000,
,,,-00.000024280000,  -8.60000,
,,,-00.000024260000,  -8.40000,
,,,-00.000024240000,  -7.80000,
,,,-00.000024220000,  -7.40000,
,,,-00.000024200000,  -6.80000,
,,,-00.000024180000,  -6.00000,
,,,-00.000024160000,  -5.60000,
,,,-00.000024140000,  -4.80000,
,,,-00.000024120000,  -4.40000,
,,,-00.000024100000,  -3.80000,
,,,-00.000024080000,  -3.00000,
,,,-00.000024060000,  -2.20000,
,,,-00.000024040000,  -1.00000,
,,,-00.000024020000,  -1.00000,
,,,-00.000024000000,   0.00000,
,,,-00.000023980000,   1.00000,
,,,-00.000023960000,   1.60000,
,,,-00.000023940000,   2.20000,
,,,-00.000023920000,   2.80000,
,,,-00.000023900000,   3.60000,
,,,-00.000023880000,   4.20000,
,,,-00.000023860000,   5.00000,
,,,-00.000023840000,   5.60000,
,,,-00.000023820000,   6.20000,
,,,-00.000023800000,   7.00000,
,,,-00.000023780000,   7.40000,
,,,-00.000023760000,   8.00000,
,,,-00.000023740000,   8.40000,
,,,-00.000023720000,   8.80000,
,,,-00.000023700000,   9.40000,
,,,-00.000023680000,   9.80000,
,,,-00.000023660000,  10.20000,
,,,-00.000023640000,  10.20000,
,,,-00.000023620000,  10.20000,
,,,-00.000023600000,  10.40000,
,,,-00.000023580000,  10.40000,
,,,-00.000023560000,  10.60000,
,,,-00.000023540000,  11.00000,
,,,-00.000023520000,  10.80000,
,,,-00.000023500000,  10.80000,
,,,-00.000023480000,  10.60000,
,,,-00.000023460000,  10.60000,
,,,-00.000023440000,  10.20000,
,,,-00.000023420000,   9.80000,
,,,-00.000023400000,   9.80000,
,,,-00.000023380000,   9.20000,
,,,-00.000023360000,   8.80000,
,,,-00.000023340000,   8.40000,
,,,-00.000023320000,   8.00000,
,,,-00.000023300000,   7.60000,
,,,-00.000023280000,   7.20000,
,,,-00.000023260000,   6.40000,
,,,-00.000023240000,   5.60000,
,,,-00.000023220000,   5.20000,
,,,-00.000023200000,   4.40000,
,,,-00.000023180000,   3.60000,
,,,-00.000023160000,   2.80000,
,,,-00.000023140000,   2.40000,
,,,-00.000023120000,   1.80000,
,,,-00.000023100000,   1.00000,
,,,-00.000023080000,   0.00000,
,,,-00.000023060000,  -0.60000,
,,,-00.000023040000,  -1.40000,
,,,-00.000023020000,  -2.20000,
,,,-00.000023000000,  -2.60000,
,,,-00.000022980000,  -3.40000,
,,,-00.000022960000,  -4.20000,
,,,-00.000022940000,  -4.80000,
,,,-00.000022920000,  -5.40000,
,,,-00.000022900000,  -6.20000,
,,,-00.000022880000,  -6.80000,
,,,-00.000022860000,  -7.20000,
,,,-00.000022840000,  -8.00000,
,,,-00.000022820000,  -8.40000,
,,,-00.000022800000,  -8.60000,
,,,-00.000022780000,  -9.00000,
,,,-00.000022760000,  -9.80000,
,,,-00.000022740000, -10.00000,
,,,-00.000022720000, -10.20000,
,,,-00.000022700000, -10.60000,
,,,-00.000022680000, -10.80000,
,,,-00.000022660000, -10.80000,
,,,-00.000022640000, -11.00000,
,,,-00.000022620000, -11.00000,
,,,-00.000022600000, -11.20000,
,,,-00.000022580000, -11.00000,
,,,-00.000022560000, -11.00000,
,,,-00.000022540000, -10.60000,
,,,-00.000022520000, -10.40000,
,,,-00.000022500000, -10.40000,
,,,-00.000022480000, -10.00000,
,,,-00.000022460000,  -9.60000,
,,,-00.000022440000,  -9.20000,
,,,-00.000022420000,  -8.80000,
,,,-00.000022400000,  -8.40000,
,,,-00.000022380000,  -7.60000,
,,,-00.000022360000,  -7.20000,
,,,-00.000022340000,  -6.60000,
,,,-00.000022320000,  -6.20000,
,,,-00.000022300000,  -5.20000,
,,,-00.000022280000,  -4.80000,
,,,-00.000022260000,  -4.20000,
,,,-00.000022240000,  -3.40000,
,,,-00.000022220000,  -2.60000,
,,,-00.000022200000,  -1.80000,
,,,-00.000022180000,  -1.00000,
,,,-00.000022160000,  -0.60000,
,,,-00.000022140000,   0.20000,
,,,-00.000022120000,   1.00000,
,,,-00.000022100000,   1.60000,
,,,-00.000022080000,   2.60000,
,,,-00.000022060000,   3.40000,
,,,-00.000022040000,   4.00000,
,,,-00.000022020000,   4.60000,
,,,-00.000022000000,   5.40000,
,,,-00.000021980000,   6.00000,
,,,-00.000021960000,   6.60000,
,,,-00.000021940000,   7.00000,
,,,-00.000021920000,   7.60000,
,,,-00.000021900000,   8.40000,
,,,-00.000021880000,   8.40000,
,,,-00.000021860000,   9.20000,
,,,-00.000021840000,   9.60000,
,,,-00.000021820000,   9.80000,
,,,-00.000021800000,  10.00000,
,,,-00.000021780000,  10.60000,
,,,-00.000021760000,  10.80000,
,,,-00.000021740000,  10.80000,
,,,-00.000021720000,  11.00000,
,,,-00.000021700000,  11.20000,
,,,-00.000021680000,  11.00000,
,,,-00.000021660000,  11.00000,
,,,-00.000021640000,  10.80000,
,,,-00.000021620000,  11.00000,
,,,-00.000021600000,  10.40000,
,,,-00.000021580000,  10.20000,
,,,-00.000021560000,  10.00000,
,,,-00.000021540000,   9.80000,
,,,-00.000021520000,   9.20000,
,,,-00.000021500000,   9.00000,
,,,-00.000021480000,   8.40000,
,,,-00.000021460000,   8.00000,
,,,-00.000021440000,   7.40000,
,,,-00.000021420000,   6.80000,
,,,-00.000021400000,   6.20000,
,,,-00.000021380000,   5.60000,
,,,-00.000021360000,   5.20000,
,,,-00.000021340000,   4.40000,
,,,-00.000021320000,   3.60000,
,,,-00.000021300000,   3.20000,
,,,-00.000021280000,   2.20000,
,,,-00.000021260000,   1.40000,
,,,-00.000021240000,   0.80000,
,,,-00.000021220000,   0.00000,
,,,-00.000021200000,  -0.80000,
,,,-00.000021180000,  -1.40000,
,,,-00.000021160000,  -2.00000,
,,,-00.000021140000,  -3.00000,
,,,-00.000021120000,  -3.60000,
,,,-00.000021100000,  -4.40000,
,,,-00.000021080000,  -5.20000,
,,,-00.000021060000,  -5.80000,
,,,-00.000021040000,  -6.20000,
,,,-00.000021020000,  -6.80000,
,,,-00.000021000000,  -7.40000,
,,,-00.000020980000,  -7.80000,
,,,-00.000020960000,  -8.40000,
,,,-00.000020940000,  -8.80000,
,,,-00.000020920000,  -9.00000,
,,,-00.000020900000,  -9.60000,
,,,-00.000020880000, -10.00000,
,,,-00.000020860000, -10.20000,
,,,-00.000020840000, -10.20000,
,,,-00.000020820000, -10.40000,
,,,-00.000020800000, -10.60000,
,,,-00.000020780000, -10.80000,
,,,-00.000020760000, -11.00000,
,,,-00.000020740000, -10.80000,
,,,-00.000020720000, -11.00000,
,,,-00.000020700000, -10.80000,
,,,-00.000020680000, -10.60000,
,,,-00.000020660000, -10.20000,
,,,-00.000020640000, -10.00000,
,,,-00.000020620000,  -9.60000,
,,,-00.000020600000,  -9.20000,
,,,-00.000020580000,  -8.80000,
,,,-00.000020560000,  -8.40000,
,,,-00.000020540000,  -7.80000,
,,,-00.000020520000,  -7.40000,
,,,-00.000020500000,  -7.20000,
,,,-00.000020480000,  -6.20000,
,,,-00.000020460000,  -5.80000,
,,,-00.000020440000,  -5.20000,
,,,-00.000020420000,  -4.40000,
,,,-00.000020400000,  -3.60000,
,,,-00.000020380000,  -3.00000,
,,,-00.000020360000,  -2.20000,
,,,-00.000020340000,  -1.40000,
,,,-00.000020320000,  -0.80000,
,,,-00.000020300000,   0.00000,
,,,-00.000020280000,   0.60000,
,,,-00.000020260000,   1.40000,
,,,-00.000020240000,   2.40000,
,,,-00.000020220000,   3.00000,
,,,-00.000020200000,   3.80000,
,,,-00.000020180000,   4.40000,
,,,-00.000020160000,   5.00000,
,,,-00.000020140000,   5.60000,
,,,-00.000020120000,   6.20000,
,,,-00.000020100000,   6.80000,
,,,-00.000020080000,   7.60000,
,,,-00.000020060000,   7.80000,
,,,-00.000020040000,   8.20000,
,,,-00.000020020000,   9.00000,
,,,-00.000020000000,   9.40000,
,,,-00.000019980000,   9.80000,
,,,-00.000019960000,  10.00000,
,,,-00.000019940000,  10.40000,
,,,-00.000019920000,  10.40000,
,,,-00.000019900000,  10.60000,
,,,-00.000019880000,  10.80000,
,,,-00.000019860000,  11.20000,
,,,-00.000019840000,  11.00000,
,,,-00.000019820000,  10.80000,
,,,-00.000019800000,  11.00000,
,,,-00.000019780000,  10.80000,
,,,-00.000019760000,  10.60000,
,,,-00.000019740000,  10.40000,
,,,-00.000019720000,  10.40000,
,,,-00.000019700000,  10.20000,
,,,-00.000019680000,   9.80000,
,,,-00.000019660000,   9.40000,
,,,-00.000019640000,   8.80000,
,,,-00.000019620000,   8.20000,
,,,-00.000019600000,   7.80000,
,,,-00.000019580000,   7.20000,
,,,-00.000019560000,   6.80000,
,,,-00.000019540000,   6.00000,
,,,-00.000019520000,   5.40000,
,,,-00.000019500000,   5.00000,
,,,-00.000019480000,   4.20000,
,,,-00.000019460000,   3.20000,
,,,-00.000019440000,   3.00000,
,,,-00.000019420000,   2.00000,
,,,-00.000019400000,   1.20000,
,,,-00.000019380000,   0.60000,
,,,-00.000019360000,  -0.20000,
,,,-00.000019340000,  -1.00000,
,,,-00.000019320000,  -1.40000,
,,,-00.000019300000,  -2.40000,
,,,-00.000019280000,  -3.20000,
,,,-00.000019260000,  -3.80000,
,,,-00.000019240000,  -4.40000,
,,,-00.000019220000,  -5.20000,
,,,-00.000019200000,  -5.80000,
,,,-00.000019180000,  -6.40000,
,,,-00.000019160000,  -7.00000,
,,,-00.000019140000,  -7.60000,
,,,-00.000019120000,  -7.80000,
,,,-00.000019100000,  -8.60000,
,,,-00.000019080000,  -9.20000,
,,,-00.000019060000,  -9.40000,
,,,-00.000019040000,  -9.60000,
,,,-00.000019020000, -10.00000,
,,,-00.000019000000, -10.20000,
,,,-00.000018980000, -10.40000,
,,,-00.000018960000, -10.60000,
,,,-00.000018940000, -10.80000,
,,,-00.000018920000, -10.80000,
,,,-00.000018900000, -10.80000,
,,,-00.000018880000, -10.60000,
,,,-00.000018860000, -10.60000,
,,,-00.000018840000, -10.40000,
,,,-00.000018820000, -10.20000,
,,,-00.000018800000, -10.20000,
,,,-00.000018780000,  -9.80000,
,,,-00.000018760000,  -9.60000,
,,,-00.000018740000,  -9.20000,
,,,-00.000018720000,  -8.80000,
,,,-00.000018700000,  -8.20000,
,,,-00.000018680000,  -7.60000,
,,,-00.000018660000,  -7.20000,
,,,-00.000018640000,  -6.60000,
,,,-00.000018620000,  -6.20000,
,,,-00.000018600000,  -5.60000,
,,,-00.000018580000,  -4.60000,
,,,-00.000018560000,  -4.00000,
,,,-00.000018540000,  -3.20000,
,,,-00.000018520000,  -2.80000,
,,,-00.000018500000,  -1.80000,
,,,-00.000018480000,  -1.20000,
,,,-00.000018460000,  -0.20000,
,,,-00.000018440000,   0.40000,
,,,-00.000018420000,   1.00000,
,,,-00.000018400000,   1.60000,
,,,-00.000018380000,   2.60000,
,,,-00.000018360000,   3.20000,
,,,-00.000018340000,   3.80000,
,,,-00.000018320000,   4.80000,
,,,-00.000018300000,   5.20000,
,,,-00.000018280000,   5.80000,
,,,-00.000018260000,   6.60000,
,,,-00.000018240000,   7.40000,
,,,-00.000018220000,   7.80000,
,,,-00.000018200000,   8.20000,
,,,-00.000018180000,   8.80000,
,,,-00.000018160000,   9.00000,
,,,-00.000018140000,   9.40000,
,,,-00.000018120000,  10.00000,
,,,-00.000018100000,  10.40000,
,,,-00.000018080000,  10.60000,
,,,-00.000018060000,  10.60000,
,,,-00.000018040000,  11.00000,
,,,-00.000018020000,  10.80000,
,,,-00.000018000000,  11.00000,
,,,-00.000017980000,  11.20000,
,,,-00.000017960000,  11.00000,
,,,-00.000017940000,  11.20000,
,,,-00.000017920000,  10.80000,
,,,-00.000017900000,  10.60000,
,,,-00.000017880000,  10.60000,
,,,-00.000017860000,  10.20000,
,,,-00.000017840000,   9.80000,
,,,-00.000017820000,   9.40000,
,,,-00.000017800000,   9.00000,
,,,-00.000017780000,   8.80000,
,,,-00.000017760000,   8.00000,
,,,-00.000017740000,   7.80000,
,,,-00.000017720000,   7.20000,
,,,-00.000017700000,   6.60000,
,,,-00.000017680000,   5.80000,
,,,-00.000017660000,   5.20000,
,,,-00.000017640000,   4.40000,
,,,-00.000017620000,   3.80000,
,,,-00.000017600000,   3.00000,
,,,-00.000017580000,   2.40000,
,,,-00.000017560000,   1.80000,
,,,-00.000017540000,   1.20000,
,,,-00.000017520000,   0.20000,
,,,-00.000017500000,  -0.60000,
,,,-00.000017480000,  -1.20000,
,,,-00.000017460000,  -1.80000,
,,,-00.000017440000,  -2.80000,
,,,-00.000017420000,  -3.60000,
,,,-00.000017400000,  -4.00000,
,,,-00.000017380000,  -4.80000,
,,,-00.000017360000,  -5.40000,
,,,-00.000017340000,  -5.80000,
,,,-00.000017320000,  -6.60000,
,,,-00.000017300000,  -7.00000,
,,,-00.000017280000,  -7.60000,
,,,-00.000017260000,  -8.20000,
,,,-00.000017240000,  -8.80000,
,,,-00.000017220000,  -9.20000,
,,,-00.000017200000,  -9.60000,
,,,-00.000017180000, -10.00000,
,,,-00.000017160000, -10.20000,
,,,-00.000017140000, -10.40000,
,,,-00.000017120000, -10.40000,
,,,-00.000017100000, -11.00000,
,,,-00.000017080000, -10.80000,
,,,-00.000017060000, -10.60000,
,,,-00.000017040000, -10.80000,
,,,-00.000017020000, -10.60000,
,,,-00.000017000000, -10.60000,
,,,-00.000016980000, -10.40000,
,,,-00.000016960000, -10.20000,
,,,-00.000016940000,  -9.80000,
,,,-00.000016920000,  -9.40000,
,,,-00.000016900000,  -9.40000,
,,,-00.000016880000,  -8.80000,
,,,-00.000016860000,  -8.20000,
,,,-00.000016840000,  -7.80000,
,,,-00.000016820000,  -7.60000,
,,,-00.000016800000,  -7.20000,
,,,-00.000016780000,  -6.20000,
,,,-00.000016760000,  -5.80000,
,,,-00.000016740000,  -5.20000,
,,,-00.000016720000,  -4.40000,
,,,-00.000016700000,  -3.60000,
,,,-00.000016680000,  -3.20000,
,,,-00.000016660000,  -2.40000,
,,,-00.000016640000,  -1.80000,
,,,-00.000016620000,  -0.80000,
,,,-00.000016600000,  -0.20000,
,,,-00.000016580000,   0.80000,
,,,-00.000016560000,   1.20000,
,,,-00.000016540000,   2.00000,
,,,-00.000016520000,   2.80000,
,,,-00.000016500000,   3.60000,
,,,-00.000016480000,   4.00000,
,,,-00.000016460000,   4.80000,
,,,-00.000016440000,   5.40000,
,,,-00.000016420000,   6.00000,
,,,-00.000016400000,   6.60000,
,,,-00.000016380000,   7.20000,
,,,-00.000016360000,   7.60000,
,,,-00.000016340000,   8.40000,
,,,-00.000016320000,   8.80000,
,,,-00.000016300000,   9.20000,
,,,-00.000016280000,   9.80000,
,,,-00.000016260000,  10.20000,
,,,-00.000016240000,  10.00000,
,,,-00.000016220000,  10.20000,
,,,-00.000016200000,  10.60000,
,,,-00.000016180000,  10.80000,
,,,-00.000016160000,  10.80000,
,,,-00.000016140000,  10.80000,
,,,-00.000016120000,  11.00000,
,,,-00.000016100000,  10.60000,
,,,-00.000016080000,  10.80000,
,,,-00.000016060000,  10.60000,
,,,-00.000016040000,  10.40000,
,,,-00.000016020000,  10.20000,
,,,-00.000016000000,  10.00000,
,,,-00.000015980000,   9.40000,
,,,-00.000015960000,   9.00000,
,,,-00.000015940000,   8.80000,
,,,-00.000015920000,   8.00000,
,,,-00.000015900000,   7.60000,
,,,-00.000015880000,   7.40000,
,,,-00.000015860000,   6.60000,
,,,-00.000015840000,   6.00000,
,,,-00.000015820000,   5.20000,
,,,-00.000015800000,   4.80000,
,,,-00.000015780000,   4.20000,
,,,-00.000015760000,   3.40000,
,,,-00.000015740000,   2.80000,
,,,-00.000015720000,   2.00000,
,,,-00.000015700000,   1.20000,
,,,-00.000015680000,   0.60000,
,,,-00.000015660000,  -0.40000,
,,,-00.000015640000,  -1.20000,
,,,-00.000015620000,  -1.60000,
,,,-00.000015600000,  -2.40000,
,,,-00.000015580000,  -3.20000,
,,,-00.000015560000,  -3.80000,
,,,-00.000015540000,  -4.60000,
,,,-00.000015520000,  -5.00000,
,,,-00.000015500000,  -5.80000,
,,,-00.000015480000,  -6.40000,
,,,-00.000015460000,  -7.20000,
,,,-00.000015440000,  -7.60000,
,,,-00.000015420000,  -8.00000,
,,,-00.000015400000,  -8.60000,
,,,-00.000015380000,  -9.00000,
,,,-00.000015360000,  -9.40000,
,,,-00.000015340000,  -9.60000,
,,,-00.000015320000, -10.20000,
,,,-00.000015300000, -10.40000,
,,,-00.000015280000, -10.40000,
,,,-00.000015260000, -10.80000,
,,,-00.000015240000, -11.00000,
,,,-00.000015220000, -11.00000,
,,,-00.000015200000, -11.00000,
,,,-00.000015180000, -10.80000,
,,,-00.000015160000, -10.80000,
,,,-00.000015140000, -10.80000,
,,,-00.000015120000, -10.60000,
,,,-00.000015100000, -10.40000,
,,,-00.000015080000,  -9.80000,
,,,-00.000015060000,  -9.60000,
,,,-00.000015040000,  -9.20000,
,,,-00.000015020000,  -8.80000,
,,,-00.000015000000,  -8.40000,
,,,-00.000014980000,  -8.20000,
,,,-00.000014960000,  -7.40000,
,,,-00.000014940000,  -6.80000,
,,,-00.000014920000,  -6.40000,
,,,-00.000014900000,  -5.40000,
,,,-00.000014880000,  -4.80000,
,,,-00.000014860000,  -4.20000,
,,,-00.000014840000,  -3.60000,
,,,-00.000014820000,  -2.80000,
,,,-00.000014800000,  -2.00000,
,,,-00.000014780000,  -1.40000,
,,,-00.000014760000,  -0.60000,
,,,-00.000014740000,   0.00000,
,,,-00.000014720000,   1.00000,
,,,-00.000014700000,   1.40000,
,,,-00.000014680000,   2.20000,
,,,-00.000014660000,   3.00000,
,,,-00.000014640000,   4.00000,
,,,-00.000014620000,   4.40000,
,,,-00.000014600000,   5.00000,
,,,-00.000014580000,   5.80000,
,,,-00.000014560000,   6.40000,
,,,-00.000014540000,   6.80000,
,,,-00.000014520000,   7.40000,
,,,-00.000014500000,   8.00000,
,,,-00.000014480000,   8.40000,
,,,-00.000014460000,   9.00000,
,,,-00.000014440000,   9.40000,
,,,-00.000014420000,   9.60000,
,,,-00.000014400000,  10.20000,
,,,-00.000014380000,  10.20000,
,,,-00.000014360000,  10.40000,
,,,-00.000014340000,  10.60000,
,,,-00.000014320000,  10.80000,
,,,-00.000014300000,  11.00000,
,,,-00.000014280000,  11.20000,
,,,-00.000014260000,  11.00000,
,,,-00.000014240000,  11.00000,
,,,-00.000014220000,  10.60000,
,,,-00.000014200000,  10.40000,
,,,-00.000014180000,  10.20000,
,,,-00.000014160000,  10.20000,
,,,-00.000014140000,   9.80000,
,,,-00.000014120000,   9.40000,
,,,-00.000014100000,   9.00000,
,,,-00.000014080000,   9.00000,
,,,-00.000014060000,   8.20000,
,,,-00.000014040000,   7.60000,
,,,-00.000014020000,   7.20000,
,,,-00.000014000000,   6.40000,
,,,-00.000013980000,   5.80000,
,,,-00.000013960000,   5.20000,
,,,-00.000013940000,   4.60000,
,,,-00.000013920000,   4.00000,
,,,-00.000013900000,   3.20000,
,,,-00.000013880000,   2.60000,
,,,-00.000013860000,   2.00000,
,,,-00.000013840000,   0.80000,
,,,-00.000013820000,   0.20000,
,,,-00.000013800000,  -0.60000,
,,,-00.000013780000,  -1.00000,
,,,-00.000013760000,  -1.60000,
,,,-00.000013740000,  -2.60000,
,,,-00.000013720000,  -3.20000,
,,,-00.000013700000,  -4.00000,
,,,-00.000013680000,  -5.00000,
,,,-00.000013660000,  -5.40000,
,,,-00.000013640000,  -6.00000,
,,,-00.000013620000,  -6.40000,
,,,-00.000013600000,  -7.20000,
,,,-00.000013580000,  -7.60000,
,,,-00.000013560000,  -8.00000,
,,,-00.000013540000,  -8.60000,
,,,-00.000013520000,  -9.00000,
,,,-00.000013500000,  -9.20000,
,,,-00.000013480000, -10.00000,
,,,-00.000013460000, -10.20000,
,,,-00.000013440000, -10.40000,
,,,-00.000013420000, -10.60000,
,,,-00.000013400000, -10.80000,
,,,-00.000013380000, -10.60000,
,,,-00.000013360000, -10.80000,
,,,-00.000013340000, -11.00000,
,,,-00.000013320000, -10.80000,
,,,-00.000013300000, -10.60000,
,,,-00.000013280000, -10.60000,
,,,-00.000013260000, -10.40000,
,,,-00.000013240000, -10.20000,
,,,-00.000013220000,  -9.80000,
,,,-00.000013200000,  -9.20000,
,,,-00.000013180000,  -9.20000,
,,,-00.000013160000,  -8.60000,
,,,-00.000013140000,  -8.20000,
,,,-00.000013120000,  -7.80000,
,,,-00.000013100000,  -7.00000,
,,,-00.000013080000,  -6.40000,
,,,-00.000013060000,  -5.80000,
,,,-00.000013040000,  -5.40000,
,,,-00.000013020000,  -4.60000,
,,,-00.000013000000,  -3.80000,
,,,-00.000012980000,  -3.20000,
,,,-00.000012960000,  -2.20000,
,,,-00.000012940000,  -1.80000,
,,,-00.000012920000,  -1.00000,
,,,-00.000012900000,   0.00000,
,,,-00.000012880000,   0.60000,
,,,-00.000012860000,   1.00000,
,,,-00.000012840000,   1.80000,
,,,-00.000012820000,   2.60000,
,,,-00.000012800000,   3.20000,
,,,-00.000012780000,   4.00000,
,,,-00.000012760000,   4.80000,
,,,-00.000012740000,   5.60000,
