furier_c2/ALL0017/F0017FFT.CSV

Record Length,1.024000e+03,,          0.00000, -46.54850,
Sample Interval,4.932134e+00,,          4.93213,   0.25150,
Trigger Point,-0.000000000000e+00,,          9.86427,   5.45150,
,,,         14.79640,   5.85150,
,,,         19.72854,   5.05150,
,,,         24.66067,  -3.34850,
Source,FFT,,         29.59280, -26.94850,
Vertical Units,dB,,         34.52494,  -6.54850,
Vertical Scale,1.000000e+01,,         39.45707,  -3.74850,
Vertical Offset,0.000000e+00,,         44.38920,  -3.74850,
Horizontal Units,Hz,,         49.32134,  -5.74850,
Horizontal Scale,5.050505e+02,,         54.25347, -19.34850,
Pt Fmt,Y,,         59.18561, -22.54850,
Yzero,-1.494850e+01,,         64.11774,  -9.34850,
Probe Atten,1.000000e+00,,         69.04987,  -8.14850,
Model Number,TBS1052B-EDU,,         73.98201,  -8.14850,
Serial Number,C027597,,         78.91414, -11.74850,
Firmware Version,FV:v4.06,,         83.84628, -30.14850,
,,,88.77841, -18.94850,
,,,93.71054, -11.34850,
,,,98.64267, -10.94850,
,,,103.57480, -11.34850,
,,,108.50693, -18.14850,
,,,113.43906, -37.74850,
,,,118.37119, -17.34850,
,,,123.30332, -12.94850,
,,,128.23545, -12.94850,
,,,133.16758, -13.74850,
,,,138.09971, -24.14850,
,,,143.03184, -32.54850,
,,,147.96397, -16.54850,
,,,152.89610, -14.14850,
,,,157.82823, -14.14850,
,,,162.76036, -16.54850,
,,,167.69249, -30.94850,
,,,172.62462, -25.34850,
,,,177.55675, -16.14850,
,,,182.48888, -15.34850,
,,,187.42101, -15.34850,
,,,192.35314, -20.14850,
,,,197.28527, -39.34850,
,,,202.21740, -22.54850,
,,,207.14953, -16.54850,
,,,212.08166, -16.14850,
,,,217.01379, -16.94850,
,,,221.94592, -24.54850,
,,,226.87805, -39.34850,
,,,231.81018, -20.54850,
,,,236.74231, -16.94850,
,,,241.67444, -16.94850,
,,,246.60657, -18.54850,
,,,251.53870, -30.94850,
,,,256.47083, -32.54850,
,,,261.40296, -19.34850,
,,,266.33509, -17.34850,
,,,271.26722, -17.74850,
,,,276.19935, -20.94850,
,,,281.13148, -40.14850,
,,,286.06361, -27.34850,
,,,290.99574, -18.54850,
,,,295.92787, -17.74850,
,,,300.86000, -18.14850,
,,,305.79213, -23.74850,
,,,310.72426, -46.54850,
,,,315.65639, -22.94850,
,,,320.58852, -18.14850,
,,,325.52065, -17.74850,
,,,330.45278, -18.54850,
,,,335.38491, -28.14850,
,,,340.31704, -37.74850,
,,,345.24917, -20.54850,
,,,350.18130, -17.74850,
,,,355.11343, -17.74850,
,,,360.04556, -19.74850,
,,,364.97769, -33.34850,
,,,369.90982, -29.34850,
,,,374.84195, -18.94850,
,,,379.77408, -17.74850,
,,,384.70621, -17.74850,
,,,389.63834, -21.74850,
,,,394.57047, -40.54850,
,,,399.50260, -24.94850,
,,,404.43473, -18.14850,
,,,409.36686, -17.74850,
,,,414.29899, -18.14850,
,,,419.23112, -24.94850,
,,,424.16325, -41.34850,
,,,429.09538, -21.74850,
,,,434.02751, -17.34850,
,,,438.95964, -17.34850,
,,,443.89177, -18.54850,
,,,448.82390, -29.34850,
,,,453.75603, -32.94850,
,,,458.68816, -19.34850,
,,,463.62029, -17.34850,
,,,468.55242, -17.34850,
,,,473.48455, -20.14850,
,,,478.41668, -37.34850,
,,,483.34881, -27.74850,
,,,488.28094, -18.14850,
,,,493.21307, -16.94850,
,,,498.14520, -17.34850,
,,,503.07733, -22.14850,
,,,508.00946, -41.34850,
,,,512.94159, -23.34850,
,,,517.87372, -17.34850,
,,,522.80585, -17.34850,
,,,527.73798, -17.74850,
,,,532.67011, -26.14850,
,,,537.60224, -38.14850,
,,,542.53437, -20.94850,
,,,547.46650, -17.74850,
,,,552.39863, -17.74850,
,,,557.33076, -19.34850,
,,,562.26289, -32.54850,
,,,567.19502, -32.54850,
,,,572.12715, -19.74850,
,,,577.05928, -18.14850,
,,,581.99141, -18.54850,
,,,586.92354, -21.74850,
,,,591.85567, -39.34850,
,,,596.78780, -27.74850,
,,,601.71993, -19.74850,
,,,606.65206, -19.34850,
,,,611.58419, -19.74850,
,,,616.51632, -25.74850,
,,,621.44845, -42.94850,
,,,626.38058, -25.34850,
,,,631.31271, -20.54850,
,,,636.24484, -20.54850,
,,,641.17697, -21.34850,
,,,646.10910, -31.34850,
,,,651.04123, -39.74850,
,,,655.97336, -24.54850,
,,,660.90549, -21.74850,
,,,665.83762, -21.74850,
,,,670.76975, -24.14850,
,,,675.70188, -38.54850,
,,,680.63401, -34.54850,
,,,685.56614, -23.74850,
,,,690.49827, -22.54850,
,,,695.43040, -22.94850,
,,,700.36253, -26.94850,
,,,705.29466, -45.34850,
,,,710.22679, -30.14850,
,,,715.15892, -24.14850,
,,,720.09105, -24.14850,
,,,725.02318, -24.14850,
,,,729.95531, -31.34850,
,,,734.88744, -43.34850,
,,,739.81957, -28.54850,
,,,744.75170, -24.54850,
,,,749.68383, -24.94850,
,,,754.61596, -26.14850,
,,,759.54809, -37.34850,
,,,764.48022, -42.94850,
,,,769.41235, -27.74850,
,,,774.34448, -25.74850,
,,,779.27661, -25.74850,
,,,784.20874, -28.54850,
,,,789.14087, -45.74850,
,,,794.07300, -36.14850,
,,,799.00513, -27.34850,
,,,803.93726, -26.54850,
,,,808.86939, -26.54850,
,,,813.80152, -31.74850,
,,,818.73365, -49.34850,
,,,823.66578, -32.54850,
,,,828.59791, -27.34850,
,,,833.53004, -26.94850,
,,,838.46217, -27.74850,
,,,843.39430, -36.14850,
,,,848.32643, -49.34850,
,,,853.25856, -30.94850,
,,,858.19069, -27.34850,
,,,863.12282, -27.34850,
,,,868.05495, -29.34850,
,,,872.98708, -43.34850,
,,,877.91921, -45.74850,
,,,882.85134, -30.14850,
,,,887.78347, -28.54850,
,,,892.71560, -28.54850,
,,,897.64773, -32.54850,
,,,902.57986, -52.54850,
,,,907.51199, -37.34850,
,,,912.44412, -28.94850,
,,,917.37625, -28.94850,
,,,922.30838, -29.34850,
,,,927.24051, -35.34850,
,,,932.17264, -48.54850,
,,,937.10477, -33.74850,
,,,942.03690, -28.94850,
,,,946.96903, -28.94850,
,,,951.90116, -29.74850,
,,,956.83329, -38.54850,
,,,961.76542, -42.94850,
,,,966.69755, -30.94850,
,,,971.62968, -28.54850,
,,,976.56181, -28.54850,
,,,981.49394, -31.34850,
,,,986.42607, -43.34850,
,,,991.35820, -39.74850,
,,,996.29033, -30.14850,
,,,1001.22246, -29.34850,
,,,1006.15459, -29.74850,
,,,1011.08672, -33.74850,
,,,1016.01885, -54.94850,
,,,1020.95098, -36.14850,
,,,1025.88311, -29.74850,
,,,1030.81524, -29.34850,
,,,1035.74737, -29.34850,
,,,1040.67950, -36.14850,
,,,1045.61163, -48.54850,
,,,1050.54376, -32.54850,
,,,1055.47589, -29.34850,
,,,1060.40802, -29.74850,
,,,1065.34015, -30.94850,
,,,1070.27228, -41.34850,
,,,1075.20441, -43.34850,
,,,1080.13654, -31.74850,
,,,1085.06867, -29.74850,
,,,1090.00080, -30.14850,
,,,1094.93293, -33.74850,
,,,1099.86506, -49.34850,
,,,1104.79719, -38.54850,
,,,1109.72932, -30.54850,
,,,1114.66145, -30.14850,
,,,1119.59358, -30.54850,
,,,1124.52571, -36.14850,
,,,1129.45784, -54.94850,
,,,1134.38997, -35.74850,
,,,1139.32210, -30.94850,
,,,1144.25423, -30.94850,
,,,1149.18636, -32.14850,
,,,1154.11849, -42.54850,
,,,1159.05062, -54.94850,
,,,1163.98275, -35.74850,
,,,1168.91488, -32.54850,
,,,1173.84701, -32.14850,
,,,1178.77914, -33.34850,
,,,1183.71127, -46.54850,
,,,1188.64340, -42.94850,
,,,1193.57553, -33.34850,
,,,1198.50766, -33.34850,
,,,1203.43979, -33.74850,
,,,1208.37192, -37.34850,
,,,1213.30405, -52.54850,
,,,1218.23618, -42.54850,
,,,1223.16831, -34.54850,
,,,1228.10044, -35.34850,
,,,1233.03257, -35.74850,
,,,1237.96470, -44.14850,
,,,1242.89683, -54.94850,
,,,1247.82896, -41.34850,
,,,1252.76109, -37.74850,
,,,1257.69322, -36.54850,
,,,1262.62535, -38.14850,
,,,1267.55748, -48.54850,
,,,1272.48961, -52.54850,
,,,1277.42174, -40.94850,
,,,1282.35387, -40.14850,
,,,1287.28600, -38.14850,
,,,1292.21813, -42.54850,
,,,1297.15026, -54.94850,
,,,1302.08239, -49.34850,
,,,1307.01452, -41.34850,
,,,1311.94665, -41.34850,
,,,1316.87878, -41.34850,
,,,1321.81091, -46.54850,
,,,1326.74304, -52.54850,
,,,1331.67517, -48.54850,
,,,1336.60730, -42.54850,
,,,1341.53943, -42.54850,
,,,1346.47156, -41.34850,
,,,1351.40369, -48.54850,
,,,1356.33582, -52.54850,
,,,1361.26795, -42.94850,
,,,1366.20008, -42.94850,
,,,1371.13221, -41.34850,
,,,1376.06434, -46.54850,
,,,1380.99647, -52.54850,
,,,1385.92860, -54.94850,
,,,1390.86073, -44.14850,
,,,1395.79286, -42.54850,
,,,1400.72499, -42.54850,
,,,1405.65712, -44.14850,
,,,1410.58925, -52.54850,
,,,1415.52138, -54.94850,
,,,1420.45351, -44.14850,
,,,1425.38564, -45.74850,
,,,1430.31777, -49.34850,
,,,1435.24990, -54.94850,
,,,1440.18203, -54.94850,
,,,1445.11416, -54.94850,
,,,1450.04629, -48.54850,
,,,1454.97842, -48.54850,
,,,1459.91055, -49.34850,
,,,1464.84268, -54.94850,
,,,1469.77481, -54.94850,
,,,1474.70694, -49.34850,
,,,1479.63907, -49.34850,
,,,1484.57120, -52.54850,
,,,1489.50333, -52.54850,
,,,1494.43546, -54.94850,
,,,1499.36759, -48.54850,
,,,1504.29972, -48.54850,
,,,1509.23185, -49.34850,
,,,1514.16398, -52.54850,
,,,1519.09611, -52.54850,
,,,1524.02824, -52.54850,
,,,1528.96037, -54.94850,
,,,1533.89250, -54.94850,
,,,1538.82463, -45.34850,
,,,1543.75676, -49.34850,
,,,1548.68889, -54.94850,
,,,1553.62102, -54.94850,
,,,1558.55315, -54.94850,
,,,1563.48528, -54.94850,
,,,1568.41741, -54.94850,
,,,1573.34954, -54.94850,
,,,1578.28167, -54.94850,
,,,1583.21380, -54.94850,
,,,1588.14593, -54.94850,
,,,1593.07806, -52.54850,
,,,1598.01019, -52.54850,
,,,1602.94232, -54.94850,
,,,1607.87445, -49.34850,
,,,1612.80658, -54.94850,
,,,1617.73871, -54.94850,
,,,1622.67084, -54.94850,
,,,1627.60297, -54.94850,
,,,1632.53510, -54.94850,
,,,1637.46723, -54.94850,
,,,1642.39936, -54.94850,
,,,1647.33149, -48.54850,
,,,1652.26362, -48.54850,
,,,1657.19575, -45.74850,
,,,1662.12788, -52.54850,
,,,1667.06001, -52.54850,
,,,1671.99214, -49.34850,
,,,1676.92427, -49.34850,
,,,1681.85640, -54.94850,
,,,1686.78853, -54.94850,
,,,1691.72066, -54.94850,
,,,1696.65279, -54.94850,
,,,1701.58492, -54.94850,
,,,1706.51705, -54.94850,
,,,1711.44918, -54.94850,
,,,1716.38131, -54.94850,
,,,1721.31344, -54.94850,
,,,1726.24557, -54.94850,
,,,1731.17770, -52.54850,
,,,1736.10983, -52.54850,
,,,1741.04196, -49.34850,
,,,1745.97409, -54.94850,
,,,1750.90622, -54.94850,
,,,1755.83835, -52.54850,
,,,1760.77048, -54.94850,
,,,1765.70261, -52.54850,
,,,1770.63474, -52.54850,
,,,1775.56687, -54.94850,
,,,1780.49900, -54.94850,
,,,1785.43113, -54.94850,
,,,1790.36326, -54.94850,
,,,1795.29539, -54.94850,
,,,1800.22752, -54.94850,
,,,1805.15965, -54.94850,
,,,1810.09178, -54.94850,
,,,1815.02391, -54.94850,
,,,1819.95604, -54.94850,
,,,1824.88817, -54.94850,
,,,1829.82030, -52.54850,
,,,1834.75243, -54.94850,
,,,1839.68456, -54.94850,
,,,1844.61669, -52.54850,
,,,1849.54882, -52.54850,
,,,1854.48095, -54.94850,
,,,1859.41308, -54.94850,
,,,1864.34521, -54.94850,
,,,1869.27734, -54.94850,
,,,1874.20947, -54.94850,
,,,1879.14160, -54.94850,
,,,1884.07373, -54.94850,
,,,1889.00586, -54.94850,
,,,1893.93799, -54.94850,
,,,1898.87012, -54.94850,
,,,1903.80225, -54.94850,
,,,1908.73438, -54.94850,
,,,1913.66651, -54.94850,
,,,1918.59864, -54.94850,
,,,1923.53077, -54.94850,
,,,1928.46290, -54.94850,
,,,1933.39503, -54.94850,
,,,1938.32716, -52.54850,
,,,1943.25929, -52.54850,
,,,1948.19142, -54.94850,
,,,1953.12355, -54.94850,
,,,1958.05568, -54.94850,
,,,1962.98781, -54.94850,
,,,1967.91994, -54.94850,
,,,1972.85207, -54.94850,
,,,1977.78420, -54.94850,
,,,1982.71633, -54.94850,
,,,1987.64846, -52.54850,
,,,1992.58059, -54.94850,
,,,1997.51272, -54.94850,
,,,2002.44485, -54.94850,
,,,2007.37698, -54.94850,
,,,2012.30911, -54.94850,
,,,2017.24124, -52.54850,
,,,2022.17337, -48.54850,
,,,2027.10550, -54.94850,
,,,2032.03763, -52.54850,
,,,2036.96976, -54.94850,
,,,2041.90189, -54.94850,
,,,2046.83402, -48.54850,
,,,2051.76615, -54.94850,
,,,2056.69828, -54.94850,
,,,2061.63041, -54.94850,
,,,2066.56254, -54.94850,
,,,2071.49467, -54.94850,
,,,2076.42680, -54.94850,
,,,2081.35893, -54.94850,
,,,2086.29106, -54.94850,
,,,2091.22319, -54.94850,
,,,2096.15532, -54.94850,
,,,2101.08745, -54.94850,
,,,2106.01958, -54.94850,
,,,2110.95171, -52.54850,
,,,2115.88384, -49.34850,
,,,2120.81597, -54.94850,
,,,2125.74810, -52.54850,
,,,2130.68023, -54.94850,
,,,2135.61236, -52.54850,
,,,2140.54449, -54.94850,
,,,2145.47662, -54.94850,
,,,2150.40875, -54.94850,
,,,2155.34088, -54.94850,
,,,2160.27301, -49.34850,
,,,2165.20514, -52.54850,
,,,2170.13727, -54.94850,
,,,2175.06940, -52.54850,
,,,2180.00153, -54.94850,
,,,2184.93366, -54.94850,
,,,2189.86579, -52.54850,
,,,2194.79792, -54.94850,
,,,2199.73005, -54.94850,
,,,2204.66218, -54.94850,
,,,2209.59431, -54.94850,
,,,2214.52644, -54.94850,
,,,2219.45857, -54.94850,
,,,2224.39070, -54.94850,
,,,2229.32283, -52.54850,
,,,2234.25496, -52.54850,
,,,2239.18709, -52.54850,
,,,2244.11922, -54.94850,
,,,2249.05135, -52.54850,
,,,2253.98348, -54.94850,
,,,2258.91561, -54.94850,
,,,2263.84774, -54.94850,
,,,2268.77987, -54.94850,
,,,2273.71200, -54.94850,
,,,2278.64413, -54.94850,
,,,2283.57626, -52.54850,
,,,2288.50839, -54.94850,
,,,2293.44052, -54.94850,
,,,2298.37265, -52.54850,
,,,2303.30478, -54.94850,
,,,2308.23691, -54.94850,
,,,2313.16904, -54.94850,
,,,2318.10117, -52.54850,
,,,2323.03330, -54.94850,
,,,2327.96543, -54.94850,
,,,2332.89756, -54.94850,
,,,2337.82969, -54.94850,
,,,2342.76182, -49.34850,
,,,2347.69395, -54.94850,
,,,2352.62608, -52.54850,
,,,2357.55821, -54.94850,
,,,2362.49034, -54.94850,
,,,2367.42247, -54.94850,
,,,2372.35460, -49.34850,
,,,2377.28673, -49.34850,
,,,2382.21886, -54.94850,
,,,2387.15099, -54.94850,
,,,2392.08312, -52.54850,
,,,2397.01525, -54.94850,
,,,2401.94738, -54.94850,
,,,2406.87951, -52.54850,
,,,2411.81164, -54.94850,
,,,2416.74377, -52.54850,
,,,2421.67590, -54.94850,
,,,2426.60803, -52.54850,
,,,2431.54016, -52.54850,
,,,2436.47229, -54.94850,
,,,2441.40442, -54.94850,
,,,2446.33655, -54.94850,
,,,2451.26868, -52.54850,
,,,2456.20081, -52.54850,
,,,2461.13294, -52.54850,
,,,2466.06507, -54.94850,
,,,2470.99720, -54.94850,
,,,2475.92933, -54.94850,
,,,2480.86146, -54.94850,
,,,2485.79359, -54.94850,
,,,2490.72572, -54.94850,
,,,2495.65785, -54.94850,
,,,2500.58998, -54.94850,
,,,2505.52211, -54.94850,
,,,2510.45424, -54.94850,
,,,2515.38637, -54.94850,
,,,2520.31850, -54.94850,
,,,2525.25063, -54.94850,
,,,2530.18276, -54.94850,
,,,2535.11489, -54.94850,
,,,2540.04702, -54.94850,
,,,2544.97915, -54.94850,
,,,2549.91128, -54.94850,
,,,2554.84341, -54.94850,
,,,2559.77554, -54.94850,
,,,2564.70767, -54.94850,
,,,2569.63980, -54.94850,
,,,2574.57193, -52.54850,
,,,2579.50406, -54.94850,
,,,2584.43619, -49.34850,
,,,2589.36832, -54.94850,
,,,2594.30045, -54.94850,
,,,2599.23258, -52.54850,
,,,2604.16471, -54.94850,
,,,2609.09684, -54.94850,
,,,2614.02897, -54.94850,
,,,2618.96110, -54.94850,
,,,2623.89323, -54.94850,
,,,2628.82536, -48.54850,
,,,2633.75749, -49.34850,
,,,2638.68962, -54.94850,
,,,2643.62175, -54.94850,
,,,2648.55388, -52.54850,
,,,2653.48601, -52.54850,
,,,2658.41814, -54.94850,
,,,2663.35027, -54.94850,
,,,2668.28240, -52.54850,
,,,2673.21453, -54.94850,
,,,2678.14666, -49.34850,
,,,2683.07879, -54.94850,
,,,2688.01092, -54.94850,
,,,2692.94305, -54.94850,
,,,2697.87518, -52.54850,
,,,2702.80731, -54.94850,
,,,2707.73944, -52.54850,
,,,2712.67157, -54.94850,
,,,2717.60370, -54.94850,
,,,2722.53583, -54.94850,
,,,2727.46796, -49.34850,
,,,2732.40009, -52.54850,
,,,2737.33222, -54.94850,
,,,2742.26435, -54.94850,
,,,2747.19648, -52.54850,
,,,2752.12861, -54.94850,
,,,2757.06074, -54.94850,
,,,2761.99287, -54.94850,
,,,2766.92500, -54.94850,
,,,2771.85713, -54.94850,
,,,2776.78926, -54.94850,
,,,2781.72139, -52.54850,
,,,2786.65352, -52.54850,
,,,2791.58565, -54.94850,
,,,2796.51778, -54.94850,
,,,2801.44991, -54.94850,
,,,2806.38204, -54.94850,
,,,2811.31417, -54.94850,
,,,2816.24630, -54.94850,
,,,2821.17843, -49.34850,
,,,2826.11056, -54.94850,
,,,2831.04269, -54.94850,
,,,2835.97482, -54.94850,
,,,2840.90695, -54.94850,
,,,2845.83908, -54.94850,
,,,2850.77121, -54.94850,
,,,2855.70334, -54.94850,
,,,2860.63547, -52.54850,
,,,2865.56760, -54.94850,
,,,2870.49973, -54.94850,
,,,2875.43186, -54.94850,
,,,2880.36399, -54.94850,
,,,2885.29612, -52.54850,
,,,2890.22825, -52.54850,
,,,2895.16038, -54.94850,
,,,2900.09251, -54.94850,
,,,2905.02464, -54.94850,
,,,2909.95677, -54.94850,
,,,2914.88890, -48.54850,
,,,2919.82103, -54.94850,
,,,2924.75316, -54.94850,
,,,2929.68529, -54.94850,
,,,2934.61742, -54.94850,
,,,2939.54955, -54.94850,
,,,2944.48168, -54.94850,
,,,2949.41381, -52.54850,
,,,2954.34594, -48.54850,
,,,2959.27807, -52.54850,
,,,2964.21020, -49.34850,
,,,2969.14233, -52.54850,
,,,2974.07446, -54.94850,
,,,2979.00659, -54.94850,
,,,2983.93872, -54.94850,
,,,2988.87085, -54.94850,
,,,2993.80298, -54.94850,
,,,2998.73511, -54.94850,
,,,3003.66724, -54.94850,
,,,3008.59937, -52.54850,
,,,3013.53150, -52.54850,
,,,3018.46363, -54.94850,
,,,3023.39576, -54.94850,
,,,3028.32789, -54.94850,
,,,3033.26002, -52.54850,
,,,3038.19215, -49.34850,
,,,3043.12428, -52.54850,
,,,3048.05641, -54.94850,
,,,3052.98854, -54.94850,
,,,3057.92067, -52.54850,
,,,3062.85280, -52.54850,
,,,3067.78493, -54.94850,
,,,3072.71706, -54.94850,
,,,3077.64919, -54.94850,
,,,3082.58132, -54.94850,
,,,3087.51345, -54.94850,
,,,3092.44558, -54.94850,
,,,3097.37771, -54.94850,
,,,3102.30984, -54.94850,
,,,3107.24197, -49.34850,
,,,3112.17410, -52.54850,
,,,3117.10623, -52.54850,
,,,3122.03836, -54.94850,
,,,3126.97049, -54.94850,
,,,3131.90262, -54.94850,
,,,3136.83475, -54.94850,
,,,3141.76688, -54.94850,
,,,3146.69901, -54.94850,
,,,3151.63114, -54.94850,
,,,3156.56327, -54.94850,
,,,3161.49540, -54.94850,
,,,3166.42753, -54.94850,
,,,3171.35966, -54.94850,
,,,3176.29179, -54.94850,
,,,3181.22392, -54.94850,
,,,3186.15605, -54.94850,
,,,3191.08818, -52.54850,
,,,3196.02031, -54.94850,
,,,3200.95244, -54.94850,
,,,3205.88457, -52.54850,
,,,3210.81670, -54.94850,
,,,3215.74883, -54.94850,
,,,3220.68096, -54.94850,
,,,3225.61309, -54.94850,
,,,3230.54522, -54.94850,
,,,3235.47735, -52.54850,
,,,3240.40948, -54.94850,
,,,3245.34161, -54.94850,
,,,3250.27374, -54.94850,
,,,3255.20587, -52.54850,
,,,3260.13800, -52.54850,
,,,3265.07013, -54.94850,
,,,3270.00226, -54.94850,
,,,3274.93439, -48.54850,
,,,3279.86652, -48.54850,
,,,3284.79865, -48.54850,
,,,3289.73078, -54.94850,
,,,3294.66291, -49.34850,
,,,3299.59504, -54.94850,
,,,3304.52717, -54.94850,
,,,3309.45930, -54.94850,
,,,3314.39143, -54.94850,
,,,3319.32356, -54.94850,
,,,3324.25569, -54.94850,
,,,3329.18782, -54.94850,
,,,3334.11995, -54.94850,
,,,3339.05208, -54.94850,
,,,3343.98421, -52.54850,
,,,3348.91634, -54.94850,
,,,3353.84847, -54.94850,
,,,3358.78060, -54.94850,
,,,3363.71273, -54.94850,
,,,3368.64486, -52.54850,
,,,3373.57699, -49.34850,
,,,3378.50912, -49.34850,
,,,3383.44125, -49.34850,
,,,3388.37338, -54.94850,
,,,3393.30551, -54.94850,
,,,3398.23764, -54.94850,
,,,3403.16977, -54.94850,
,,,3408.10190, -54.94850,
,,,3413.03403, -49.34850,
,,,3417.96616, -54.94850,
,,,3422.89829, -54.94850,
,,,3427.83042, -54.94850,
,,,3432.76255, -52.54850,
,,,3437.69468, -52.54850,
,,,3442.62681, -52.54850,
,,,3447.55894, -54.94850,
,,,3452.49107, -54.94850,
,,,3457.42320, -54.94850,
,,,3462.35533, -52.54850,
,,,3467.28746, -52.54850,
,,,3472.21959, -52.54850,
,,,3477.15172, -48.54850,
,,,3482.08385, -54.94850,
,,,3487.01598, -54.94850,
,,,3491.94811, -54.94850,
,,,3496.88024, -54.94850,
,,,3501.81237, -54.94850,
,,,3506.74450, -54.94850,
,,,3511.67663, -52.54850,
,,,3516.60876, -48.54850,
,,,3521.54089, -49.34850,
,,,3526.47302, -49.34850,
,,,3531.40515, -54.94850,
,,,3536.33728, -54.94850,
,,,3541.26941, -54.94850,
,,,3546.20154, -54.94850,
,,,3551.13367, -54.94850,
,,,3556.06580, -54.94850,
,,,3560.99793, -54.94850,
,,,3565.93006, -54.94850,
,,,3570.86219, -54.94850,
,,,3575.79432, -54.94850,
,,,3580.72645, -54.94850,
,,,3585.65858, -52.54850,
,,,3590.59071, -54.94850,
,,,3595.52284, -52.54850,
,,,3600.45497, -54.94850,
,,,3605.38710, -52.54850,
,,,3610.31923, -52.54850,
,,,3615.25136, -54.94850,
,,,3620.18349, -54.94850,
,,,3625.11562, -54.94850,
,,,3630.04775, -54.94850,
,,,3634.97988, -52.54850,
,,,3639.91201, -54.94850,
,,,3644.84414, -54.94850,
,,,3649.77627, -52.54850,
,,,3654.70840, -54.94850,
,,,3659.64053, -54.94850,
,,,3664.57266, -54.94850,
,,,3669.50479, -54.94850,
,,,3674.43692, -54.94850,
,,,3679.36905, -52.54850,
,,,3684.30118, -52.54850,
,,,3689.23331, -52.54850,
,,,3694.16544, -54.94850,
,,,3699.09757, -52.54850,
,,,3704.02970, -54.94850,
,,,3708.96183, -52.54850,
,,,3713.89396, -49.34850,
,,,3718.82609, -49.34850,
,,,3723.75822, -49.34850,
,,,3728.69035, -52.54850,
,,,3733.62248, -54.94850,
,,,3738.55461, -54.94850,
