furier_c1/ALL0017/F0017FFT.CSV

Record Length,1.024000e+03,,          0.00000,   7.01030,
Sample Interval,4.932134e+00,,          4.93213,  14.21030,
Trigger Point,-0.000000000000e+00,,          9.86427,  15.81030,
,,,         14.79640,  16.21030,
,,,         19.72854,  11.81030,
,,,         24.66067,   7.81030,
Source,FFT,,         29.59280,   3.41030,
Vertical Units,dB,,         34.52494,   2.21030,
Vertical Scale,1.000000e+01,,         39.45707,   5.41030,
Vertical Offset,0.000000e+00,,         44.38920,   5.01030,
Horizontal Units,Hz,,         49.32134,   1.81030,
Horizontal Scale,5.050505e+02,,         54.25347,  -0.98970,
Pt Fmt,Y,,         59.18561,  -3.38970,
Yzero,-6.989700e+00,,         64.11774,  -1.38970,
Probe Atten,1.000000e+00,,         69.04987,   1.41030,
Model Number,TBS1052B-EDU,,         73.98201,  -0.58970,
Serial Number,C027597,,         78.91414,  -2.58970,
Firmware Version,FV:v4.06,,         83.84628,  -5.78970,
,,,88.77841,  -6.58970,
,,,93.71054,  -2.98970,
,,,98.64267,  -1.78970,
,,,103.57480,  -4.18970,
,,,108.50693,  -6.18970,
,,,113.43906,  -9.78970,
,,,118.37119,  -8.18970,
,,,123.30332,  -4.18970,
,,,128.23545,  -4.98970,
,,,133.16758,  -6.58970,
,,,138.09971,  -8.98970,
,,,143.03184, -12.18970,
,,,147.96397,  -8.58970,
,,,152.89610,  -6.18970,
,,,157.82823,  -7.38970,
,,,162.76036,  -8.58970,
,,,167.69249, -12.58970,
,,,172.62462, -13.38970,
,,,177.55675,  -8.58970,
,,,182.48888,  -8.18970,
,,,187.42101,  -8.98970,
,,,192.35314, -10.98970,
,,,197.28527, -15.78970,
,,,202.21740, -12.98970,
,,,207.14953,  -9.38970,
,,,212.08166,  -9.78970,
,,,217.01379, -10.58970,
,,,221.94592, -14.18970,
,,,226.87805, -18.18970,
,,,231.81018, -12.98970,
,,,236.74231, -10.98970,
,,,241.67444, -11.38970,
,,,246.60657, -12.18970,
,,,251.53870, -16.98970,
,,,256.47083, -17.78970,
,,,261.40296, -12.58970,
,,,266.33509, -12.18970,
,,,271.26722, -12.18970,
,,,276.19935, -14.58970,
,,,281.13148, -19.78970,
,,,286.06361, -16.18970,
,,,290.99574, -13.38970,
,,,295.92787, -13.38970,
,,,300.86000, -13.38970,
,,,305.79213, -17.38970,
,,,310.72426, -20.98970,
,,,315.65639, -15.78970,
,,,320.58852, -14.58970,
,,,325.52065, -14.18970,
,,,330.45278, -14.98970,
,,,335.38491, -20.58970,
,,,340.31704, -20.18970,
,,,345.24917, -16.18970,
,,,350.18130, -15.38970,
,,,355.11343, -14.58970,
,,,360.04556, -17.38970,
,,,364.97769, -22.18970,
,,,369.90982, -19.38970,
,,,374.84195, -16.58970,
,,,379.77408, -15.78970,
,,,384.70621, -16.18970,
,,,389.63834, -19.78970,
,,,394.57047, -22.58970,
,,,399.50260, -18.98970,
,,,404.43473, -17.78970,
,,,409.36686, -16.18970,
,,,414.29899, -17.38970,
,,,419.23112, -21.78970,
,,,424.16325, -22.58970,
,,,429.09538, -19.38970,
,,,434.02751, -18.58970,
,,,438.95964, -17.38970,
,,,443.89177, -20.18970,
,,,448.82390, -24.18970,
,,,453.75603, -22.18970,
,,,458.68816, -20.18970,
,,,463.62029, -18.18970,
,,,468.55242, -18.18970,
,,,473.48455, -22.98970,
,,,478.41668, -24.18970,
,,,483.34881, -22.18970,
,,,488.28094, -20.98970,
,,,493.21307, -18.58970,
,,,498.14520, -20.58970,
,,,503.07733, -24.18970,
,,,508.00946, -24.98970,
,,,512.94159, -22.18970,
,,,517.87372, -20.58970,
,,,522.80585, -19.78970,
,,,527.73798, -22.58970,
,,,532.67011, -24.98970,
,,,537.60224, -24.98970,
,,,542.53437, -23.38970,
,,,547.46650, -20.98970,
,,,552.39863, -20.98970,
,,,557.33076, -23.78970,
,,,562.26289, -26.18970,
,,,567.19502, -25.78970,
,,,572.12715, -23.78970,
,,,577.05928, -20.98970,
,,,581.99141, -22.98970,
,,,586.92354, -25.78970,
,,,591.85567, -27.38970,
,,,596.78780, -27.38970,
,,,601.71993, -23.38970,
,,,606.65206, -22.18970,
,,,611.58419, -24.18970,
,,,616.51632, -25.78970,
,,,621.44845, -28.18970,
,,,626.38058, -26.18970,
,,,631.31271, -22.58970,
,,,636.24484, -23.38970,
,,,641.17697, -25.78970,
,,,646.10910, -27.78970,
,,,651.04123, -29.78970,
,,,655.97336, -25.78970,
,,,660.90549, -23.38970,
,,,665.83762, -24.58970,
,,,670.76975, -25.78970,
,,,675.70188, -30.18970,
,,,680.63401, -30.18970,
,,,685.56614, -25.78970,
,,,690.49827, -25.78970,
,,,695.43040, -26.58970,
,,,700.36253, -27.38970,
,,,705.29466, -31.38970,
,,,710.22679, -28.98970,
,,,715.15892, -25.78970,
,,,720.09105, -26.18970,
,,,725.02318, -27.38970,
,,,729.95531, -30.18970,
,,,734.88744, -32.58970,
,,,739.81957, -27.38970,
,,,744.75170, -24.98970,
,,,749.68383, -26.58970,
,,,754.61596, -28.18970,
,,,759.54809, -30.98970,
,,,764.48022, -31.38970,
,,,769.41235, -26.98970,
,,,774.34448, -27.38970,
,,,779.27661, -27.38970,
,,,784.20874, -30.58970,
,,,789.14087, -34.58970,
,,,794.07300, -31.38970,
,,,799.00513, -27.38970,
,,,803.93726, -27.78970,
,,,808.86939, -28.18970,
,,,813.80152, -33.38970,
,,,818.73365, -38.58970,
,,,823.66578, -31.38970,
,,,828.59791, -28.58970,
,,,833.53004, -26.98970,
,,,838.46217, -28.18970,
,,,843.39430, -34.58970,
,,,848.32643, -33.38970,
,,,853.25856, -28.98970,
,,,858.19069, -27.78970,
,,,863.12282, -27.38970,
,,,868.05495, -30.18970,
,,,872.98708, -34.58970,
,,,877.91921, -32.58970,
,,,882.85134, -29.78970,
,,,887.78347, -28.98970,
,,,892.71560, -27.38970,
,,,897.64773, -31.78970,
,,,902.57986, -34.98970,
,,,907.51199, -31.38970,
,,,912.44412, -30.18970,
,,,917.37625, -28.18970,
,,,922.30838, -29.38970,
,,,927.24051, -33.38970,
,,,932.17264, -32.18970,
,,,937.10477, -30.58970,
,,,942.03690, -29.78970,
,,,946.96903, -29.38970,
,,,951.90116, -30.58970,
,,,956.83329, -33.38970,
,,,961.76542, -32.18970,
,,,966.69755, -29.78970,
,,,971.62968, -30.18970,
,,,976.56181, -30.58970,
,,,981.49394, -33.38970,
,,,986.42607, -34.98970,
,,,991.35820, -31.38970,
,,,996.29033, -30.18970,
,,,1001.22246, -28.98970,
,,,1006.15459, -30.58970,
,,,1011.08672, -33.38970,
,,,1016.01885, -33.38970,
,,,1020.95098, -33.38970,
,,,1025.88311, -30.58970,
,,,1030.81524, -29.38970,
,,,1035.74737, -33.38970,
,,,1040.67950, -37.78970,
,,,1045.61163, -36.18970,
,,,1050.54376, -32.58970,
,,,1055.47589, -31.38970,
,,,1060.40802, -31.78970,
,,,1065.34015, -33.38970,
,,,1070.27228, -34.58970,
,,,1075.20441, -32.18970,
,,,1080.13654, -31.38970,
,,,1085.06867, -30.18970,
,,,1090.00080, -33.38970,
,,,1094.93293, -37.38970,
,,,1099.86506, -38.58970,
,,,1104.79719, -33.38970,
,,,1109.72932, -32.98970,
,,,1114.66145, -30.18970,
,,,1119.59358, -33.38970,
,,,1124.52571, -34.98970,
,,,1129.45784, -36.18970,
,,,1134.38997, -34.58970,
,,,1139.32210, -31.78970,
,,,1144.25423, -31.78970,
,,,1149.18636, -33.38970,
,,,1154.11849, -37.78970,
,,,1159.05062, -38.58970,
,,,1163.98275, -33.38970,
,,,1168.91488, -31.38970,
,,,1173.84701, -34.98970,
,,,1178.77914, -37.38970,
,,,1183.71127, -41.38970,
,,,1188.64340, -40.58970,
,,,1193.57553, -34.98970,
,,,1198.50766, -33.38970,
,,,1203.43979, -37.38970,
,,,1208.37192, -36.18970,
,,,1213.30405, -41.38970,
,,,1218.23618, -37.78970,
,,,1223.16831, -33.38970,
,,,1228.10044, -33.38970,
,,,1233.03257, -32.98970,
,,,1237.96470, -34.98970,
,,,1242.89683, -37.78970,
,,,1247.82896, -34.98970,
,,,1252.76109, -34.98970,
,,,1257.69322, -37.78970,
,,,1262.62535, -40.58970,
,,,1267.55748, -41.38970,
,,,1272.48961, -46.98970,
,,,1277.42174, -35.38970,
,,,1282.35387, -35.38970,
,,,1287.28600, -37.38970,
,,,1292.21813, -38.58970,
,,,1297.15026, -46.98970,
,,,1302.08239, -37.78970,
,,,1307.01452, -33.38970,
,,,1311.94665, -34.58970,
,,,1316.87878, -33.38970,
,,,1321.81091, -38.58970,
,,,1326.74304, -40.58970,
,,,1331.67517, -34.98970,
,,,1336.60730, -34.98970,
,,,1341.53943, -37.38970,
,,,1346.47156, -41.38970,
,,,1351.40369, -46.98970,
,,,1356.33582, -44.58970,
,,,1361.26795, -37.38970,
,,,1366.20008, -37.38970,
,,,1371.13221, -38.58970,
,,,1376.06434, -40.58970,
,,,1380.99647, -46.98970,
,,,1385.92860, -41.38970,
,,,1390.86073, -37.78970,
,,,1395.79286, -34.98970,
,,,1400.72499, -34.98970,
,,,1405.65712, -36.18970,
,,,1410.58925, -40.58970,
,,,1415.52138, -37.38970,
,,,1420.45351, -37.78970,
,,,1425.38564, -34.98970,
,,,1430.31777, -37.38970,
,,,1435.24990, -44.58970,
,,,1440.18203, -40.58970,
,,,1445.11416, -40.58970,
,,,1450.04629, -40.58970,
,,,1454.97842, -36.18970,
,,,1459.91055, -38.58970,
,,,1464.84268, -41.38970,
,,,1469.77481, -46.98970,
,,,1474.70694, -46.98970,
,,,1479.63907, -38.58970,
,,,1484.57120, -38.58970,
,,,1489.50333, -40.58970,
,,,1494.43546, -40.58970,
,,,1499.36759, -41.38970,
,,,1504.29972, -35.38970,
,,,1509.23185, -37.38970,
,,,1514.16398, -37.38970,
,,,1519.09611, -46.98970,
,,,1524.02824, -41.38970,
,,,1528.96037, -40.58970,
,,,1533.89250, -37.38970,
,,,1538.82463, -37.38970,
,,,1543.75676, -40.58970,
,,,1548.68889, -46.98970,
,,,1553.62102, -46.98970,
,,,1558.55315, -46.98970,
,,,1563.48528, -40.58970,
,,,1568.41741, -44.58970,
,,,1573.34954, -40.58970,
,,,1578.28167, -44.58970,
,,,1583.21380, -37.78970,
,,,1588.14593, -41.38970,
,,,1593.07806, -40.58970,
,,,1598.01019, -41.38970,
,,,1602.94232, -46.98970,
,,,1607.87445, -40.58970,
,,,1612.80658, -40.58970,
,,,1617.73871, -37.38970,
,,,1622.67084, -37.38970,
,,,1627.60297, -40.58970,
,,,1632.53510, -46.98970,
,,,1637.46723, -46.98970,
,,,1642.39936, -46.98970,
,,,1647.33149, -46.98970,
,,,1652.26362, -41.38970,
,,,1657.19575, -41.38970,
,,,1662.12788, -41.38970,
,,,1667.06001, -40.58970,
,,,1671.99214, -37.78970,
,,,1676.92427, -41.38970,
,,,1681.85640, -40.58970,
,,,1686.78853, -44.58970,
,,,1691.72066, -38.58970,
,,,1696.65279, -44.58970,
,,,1701.58492, -40.58970,
,,,1706.51705, -41.38970,
,,,1711.44918, -46.98970,
,,,1716.38131, -46.98970,
,,,1721.31344, -46.98970,
,,,1726.24557, -46.98970,
,,,1731.17770, -46.98970,
,,,1736.10983, -41.38970,
,,,1741.04196, -44.58970,
,,,1745.97409, -44.58970,
,,,1750.90622, -44.58970,
,,,1755.83835, -41.38970,
,,,1760.77048, -37.78970,
,,,1765.70261, -41.38970,
,,,1770.63474, -40.58970,
,,,1775.56687, -41.38970,
,,,1780.49900, -41.38970,
,,,1785.43113, -37.78970,
,,,1790.36326, -37.78970,
,,,1795.29539, -40.58970,
,,,1800.22752, -44.58970,
,,,1805.15965, -46.98970,
,,,1810.09178, -46.98970,
,,,1815.02391, -40.58970,
,,,1819.95604, -40.58970,
,,,1824.88817, -38.58970,
,,,1829.82030, -44.58970,
,,,1834.75243, -44.58970,
,,,1839.68456, -40.58970,
,,,1844.61669, -40.58970,
,,,1849.54882, -40.58970,
,,,1854.48095, -40.58970,
,,,1859.41308, -46.98970,
,,,1864.34521, -46.98970,
,,,1869.27734, -46.98970,
,,,1874.20947, -46.98970,
,,,1879.14160, -44.58970,
,,,1884.07373, -41.38970,
,,,1889.00586, -41.38970,
,,,1893.93799, -41.38970,
,,,1898.87012, -41.38970,
,,,1903.80225, -41.38970,
,,,1908.73438, -40.58970,
,,,1913.66651, -37.38970,
,,,1918.59864, -40.58970,
,,,1923.53077, -37.38970,
,,,1928.46290, -44.58970,
,,,1933.39503, -44.58970,
,,,1938.32716, -44.58970,
,,,1943.25929, -46.98970,
,,,1948.19142, -46.98970,
,,,1953.12355, -46.98970,
,,,1958.05568, -46.98970,
,,,1962.98781, -44.58970,
,,,1967.91994, -44.58970,
,,,1972.85207, -44.58970,
,,,1977.78420, -41.38970,
,,,1982.71633, -41.38970,
,,,1987.64846, -46.98970,
,,,1992.58059, -46.98970,
,,,1997.51272, -46.98970,
,,,2002.44485, -44.58970,
,,,2007.37698, -40.58970,
,,,2012.30911, -40.58970,
,,,2017.24124, -40.58970,
,,,2022.17337, -46.98970,
,,,2027.10550, -44.58970,
,,,2032.03763, -44.58970,
,,,2036.96976, -46.98970,
,,,2041.90189, -46.98970,
,,,2046.83402, -44.58970,
,,,2051.76615, -40.58970,
,,,2056.69828, -44.58970,
,,,2061.63041, -40.58970,
,,,2066.56254, -40.58970,
,,,2071.49467, -40.58970,
,,,2076.42680, -44.58970,
,,,2081.35893, -46.98970,
,,,2086.29106, -44.58970,
,,,2091.22319, -46.98970,
,,,2096.15532, -44.58970,
,,,2101.08745, -46.98970,
,,,2106.01958, -46.98970,
,,,2110.95171, -46.98970,
,,,2115.88384, -46.98970,
,,,2120.81597, -44.58970,
,,,2125.74810, -41.38970,
,,,2130.68023, -37.78970,
,,,2135.61236, -41.38970,
,,,2140.54449, -41.38970,
,,,2145.47662, -44.58970,
,,,2150.40875, -44.58970,
,,,2155.34088, -46.98970,
,,,2160.27301, -44.58970,
,,,2165.20514, -46.98970,
,,,2170.13727, -46.98970,
,,,2175.06940, -46.98970,
,,,2180.00153, -44.58970,
,,,2184.93366, -46.98970,
,,,2189.86579, -46.98970,
,,,2194.79792, -46.98970,
,,,2199.73005, -46.98970,
,,,2204.66218, -46.98970,
,,,2209.59431, -44.58970,
,,,2214.52644, -41.38970,
,,,2219.45857, -41.38970,
,,,2224.39070, -44.58970,
,,,2229.32283, -46.98970,
,,,2234.25496, -46.98970,
,,,2239.18709, -44.58970,
,,,2244.11922, -44.58970,
,,,2249.05135, -46.98970,
,,,2253.98348, -46.98970,
,,,2258.91561, -46.98970,
,,,2263.84774, -46.98970,
,,,2268.77987, -44.58970,
,,,2273.71200, -46.98970,
,,,2278.64413, -46.98970,
,,,2283.57626, -44.58970,
,,,2288.50839, -44.58970,
,,,2293.44052, -44.58970,
,,,2298.37265, -41.38970,
,,,2303.30478, -41.38970,
,,,2308.23691, -46.98970,
,,,2313.16904, -46.98970,
,,,2318.10117, -46.98970,
,,,2323.03330, -41.38970,
,,,2327.96543, -46.98970,
,,,2332.89756, -40.58970,
,,,2337.82969, -44.58970,
,,,2342.76182, -44.58970,
,,,2347.69395, -41.38970,
,,,2352.62608, -40.58970,
,,,2357.55821, -41.38970,
,,,2362.49034, -41.38970,
,,,2367.42247, -40.58970,
,,,2372.35460, -46.98970,
,,,2377.28673, -46.98970,
,,,2382.21886, -41.38970,
,,,2387.15099, -41.38970,
,,,2392.08312, -41.38970,
,,,2397.01525, -46.98970,
,,,2401.94738, -44.58970,
,,,2406.87951, -46.98970,
,,,2411.81164, -41.38970,
,,,2416.74377, -46.98970,
,,,2421.67590, -46.98970,
,,,2426.60803, -44.58970,
,,,2431.54016, -46.98970,
,,,2436.47229, -44.58970,
,,,2441.40442, -46.98970,
,,,2446.33655, -44.58970,
,,,2451.26868, -46.98970,
,,,2456.20081, -46.98970,
,,,2461.13294, -46.98970,
,,,2466.06507, -44.58970,
,,,2470.99720, -46.98970,
,,,2475.92933, -40.58970,
,,,2480.86146, -41.38970,
,,,2485.79359, -46.98970,
,,,2490.72572, -46.98970,
,,,2495.65785, -46.98970,
,,,2500.58998, -44.58970,
,,,2505.52211, -46.98970,
,,,2510.45424, -46.98970,
,,,2515.38637, -46.98970,
,,,2520.31850, -46.98970,
,,,2525.25063, -46.98970,
,,,2530.18276, -46.98970,
,,,2535.11489, -46.98970,
,,,2540.04702, -46.98970,
,,,2544.97915, -46.98970,
,,,2549.91128, -44.58970,
,,,2554.84341, -44.58970,
,,,2559.77554, -46.98970,
,,,2564.70767, -46.98970,
,,,2569.63980, -46.98970,
,,,2574.57193, -46.98970,
,,,2579.50406, -44.58970,
,,,2584.43619, -44.58970,
,,,2589.36832, -44.58970,
,,,2594.30045, -46.98970,
,,,2599.23258, -46.98970,
,,,2604.16471, -46.98970,
,,,2609.09684, -46.98970,
,,,2614.02897, -46.98970,
,,,2618.96110, -46.98970,
,,,2623.89323, -44.58970,
,,,2628.82536, -46.98970,
,,,2633.75749, -46.98970,
,,,2638.68962, -44.58970,
,,,2643.62175, -46.98970,
,,,2648.55388, -46.98970,
,,,2653.48601, -46.98970,
,,,2658.41814, -46.98970,
,,,2663.35027, -46.98970,
,,,2668.28240, -46.98970,
,,,2673.21453, -46.98970,
,,,2678.14666, -46.98970,
,,,2683.07879, -44.58970,
,,,2688.01092, -46.98970,
,,,2692.94305, -46.98970,
,,,2697.87518, -46.98970,
,,,2702.80731, -46.98970,
,,,2707.73944, -41.38970,
,,,2712.67157, -41.38970,
,,,2717.60370, -46.98970,
,,,2722.53583, -46.98970,
,,,2727.46796, -44.58970,
,,,2732.40009, -46.98970,
,,,2737.33222, -44.58970,
,,,2742.26435, -46.98970,
,,,2747.19648, -46.98970,
,,,2752.12861, -44.58970,
,,,2757.06074, -46.98970,
,,,2761.99287, -46.98970,
,,,2766.92500, -46.98970,
,,,2771.85713, -46.98970,
,,,2776.78926, -46.98970,
,,,2781.72139, -46.98970,
,,,2786.65352, -46.98970,
,,,2791.58565, -46.98970,
,,,2796.51778, -46.98970,
,,,2801.44991, -46.98970,
,,,2806.38204, -46.98970,
,,,2811.31417, -46.98970,
,,,2816.24630, -44.58970,
,,,2821.17843, -46.98970,
,,,2826.11056, -46.98970,
,,,2831.04269, -44.58970,
,,,2835.97482, -46.98970,
,,,2840.90695, -41.38970,
,,,2845.83908, -46.98970,
,,,2850.77121, -44.58970,
,,,2855.70334, -46.98970,
,,,2860.63547, -44.58970,
,,,2865.56760, -46.98970,
,,,2870.49973, -46.98970,
,,,2875.43186, -46.98970,
,,,2880.36399, -46.98970,
,,,2885.29612, -46.98970,
,,,2890.22825, -44.58970,
,,,2895.16038, -46.98970,
,,,2900.09251, -44.58970,
,,,2905.02464, -44.58970,
,,,2909.95677, -41.38970,
,,,2914.88890, -46.98970,
,,,2919.82103, -46.98970,
,,,2924.75316, -44.58970,
,,,2929.68529, -46.98970,
,,,2934.61742, -46.98970,
,,,2939.54955, -46.98970,
,,,2944.48168, -46.98970,
,,,2949.41381, -41.38970,
,,,2954.34594, -41.38970,
,,,2959.27807, -44.58970,
,,,2964.21020, -46.98970,
,,,2969.14233, -46.98970,
,,,2974.07446, -44.58970,
,,,2979.00659, -40.58970,
,,,2983.93872, -40.58970,
,,,2988.87085, -44.58970,
,,,2993.80298, -46.98970,
,,,2998.73511, -46.98970,
,,,3003.66724, -46.98970,
,,,3008.59937, -46.98970,
,,,3013.53150, -40.58970,
,,,3018.46363, -44.58970,
,,,3023.39576, -46.98970,
,,,3028.32789, -46.98970,
,,,3033.26002, -44.58970,
,,,3038.19215, -44.58970,
,,,3043.12428, -44.58970,
,,,3048.05641, -41.38970,
,,,3052.98854, -46.98970,
,,,3057.92067, -46.98970,
,,,3062.85280, -46.98970,
,,,3067.78493, -44.58970,
,,,3072.71706, -46.98970,
,,,3077.64919, -46.98970,
,,,3082.58132, -46.98970,
,,,3087.51345, -46.98970,
,,,3092.44558, -44.58970,
,,,3097.37771, -46.98970,
,,,3102.30984, -46.98970,
,,,3107.24197, -46.98970,
,,,3112.17410, -46.98970,
,,,3117.10623, -46.98970,
,,,3122.03836, -44.58970,
,,,3126.97049, -44.58970,
,,,3131.90262, -46.98970,
,,,3136.83475, -44.58970,
,,,3141.76688, -44.58970,
,,,3146.69901, -44.58970,
,,,3151.63114, -46.98970,
,,,3156.56327, -46.98970,
,,,3161.49540, -46.98970,
,,,3166.42753, -46.98970,
,,,3171.35966, -46.98970,
,,,3176.29179, -44.58970,
,,,3181.22392, -40.58970,
,,,3186.15605, -44.58970,
,,,3191.08818, -44.58970,
,,,3196.02031, -46.98970,
,,,3200.95244, -46.98970,
,,,3205.88457, -46.98970,
,,,3210.81670, -46.98970,
,,,3215.74883, -46.98970,
,,,3220.68096, -46.98970,
,,,3225.61309, -46.98970,
,,,3230.54522, -46.98970,
,,,3235.47735, -44.58970,
,,,3240.40948, -46.98970,
,,,3245.34161, -46.98970,
,,,3250.27374, -41.38970,
,,,3255.20587, -40.58970,
,,,3260.13800, -44.58970,
,,,3265.07013, -44.58970,
,,,3270.00226, -46.98970,
,,,3274.93439, -44.58970,
,,,3279.86652, -46.98970,
,,,3284.79865, -46.98970,
,,,3289.73078, -46.98970,
,,,3294.66291, -46.98970,
,,,3299.59504, -46.98970,
,,,3304.52717, -46.98970,
,,,3309.45930, -44.58970,
,,,3314.39143, -44.58970,
,,,3319.32356, -40.58970,
,,,3324.25569, -41.38970,
,,,3329.18782, -46.98970,
,,,3334.11995, -44.58970,
,,,3339.05208, -46.98970,
,,,3343.98421, -46.98970,
,,,3348.91634, -46.98970,
,,,3353.84847, -46.98970,
,,,3358.78060, -46.98970,
,,,3363.71273, -44.58970,
,,,3368.64486, -44.58970,
,,,3373.57699, -40.58970,
,,,3378.50912, -46.98970,
,,,3383.44125, -46.98970,
,,,3388.37338, -46.98970,
,,,3393.30551, -41.38970,
,,,3398.23764, -46.98970,
,,,3403.16977, -46.98970,
,,,3408.10190, -46.98970,
,,,3413.03403, -44.58970,
,,,3417.96616, -44.58970,
,,,3422.89829, -44.58970,
,,,3427.83042, -46.98970,
,,,3432.76255, -46.98970,
,,,3437.69468, -46.98970,
,,,3442.62681, -46.98970,
,,,3447.55894, -46.98970,
,,,3452.49107, -46.98970,
,,,3457.42320, -46.98970,
,,,3462.35533, -46.98970,
,,,3467.28746, -46.98970,
,,,3472.21959, -46.98970,
,,,3477.15172, -46.98970,
,,,3482.08385, -46.98970,
,,,3487.01598, -46.98970,
,,,3491.94811, -44.58970,
,,,3496.88024, -44.58970,
,,,3501.81237, -46.98970,
,,,3506.74450, -46.98970,
,,,3511.67663, -46.98970,
,,,3516.60876, -46.98970,
,,,3521.54089, -46.98970,
,,,3526.47302, -46.98970,
,,,3531.40515, -46.98970,
,,,3536.33728, -41.38970,
,,,3541.26941, -46.98970,
,,,3546.20154, -44.58970,
,,,3551.13367, -44.58970,
,,,3556.06580, -46.98970,
,,,3560.99793, -41.38970,
,,,3565.93006, -44.58970,
,,,3570.86219, -46.98970,
,,,3575.79432, -46.98970,
,,,3580.72645, -46.98970,
,,,3585.65858, -46.98970,
,,,3590.59071, -44.58970,
,,,3595.52284, -44.58970,
,,,3600.45497, -44.58970,
,,,3605.38710, -44.58970,
,,,3610.31923, -44.58970,
,,,3615.25136, -46.98970,
,,,3620.18349, -46.98970,
,,,3625.11562, -46.98970,
,,,3630.04775, -46.98970,
,,,3634.97988, -46.98970,
,,,3639.91201, -44.58970,
,,,3644.84414, -44.58970,
,,,3649.77627, -41.38970,
,,,3654.70840, -40.58970,
,,,3659.64053, -44.58970,
,,,3664.57266, -46.98970,
,,,3669.50479, -46.98970,
,,,3674.43692, -46.98970,
,,,3679.36905, -46.98970,
,,,3684.30118, -40.58970,
,,,3689.23331, -41.38970,
,,,3694.16544, -44.58970,
,,,3699.09757, -46.98970,
,,,3704.02970, -46.98970,
,,,3708.96183, -46.98970,
,,,3713.89396, -46.98970,
,,,3718.82609, -46.98970,
,,,3723.75822, -44.58970,
,,,3728.69035, -46.98970,
,,,3733.62248, -46.98970,
,,,3738.55461, -46.98970,
