RLCC_FFT_C1/ALL0015/F0015FFT.CSV

Record Length,1.024000e+03,,          0.00000,  11.81030,
Sample Interval,4.932134e+00,,          4.93213,  15.01030,
Trigger Point,-0.000000000000e+00,,          9.86427,  17.01030,
,,,         14.79640,  15.81030,
,,,         19.72854,  12.61030,
,,,         24.66067,   7.81030,
Source,FFT,,         29.59280,   2.61030,
Vertical Units,dB,,         34.52494,   3.81030,
Vertical Scale,1.000000e+01,,         39.45707,   5.41030,
Vertical Offset,0.000000e+00,,         44.38920,   5.01030,
Horizontal Units,Hz,,         49.32134,   2.61030,
Horizontal Scale,5.050505e+02,,         54.25347,  -1.38970,
Pt Fmt,Y,,         59.18561,  -2.98970,
Yzero,-6.989700e+00,,         64.11774,  -0.18970,
Probe Atten,1.000000e+00,,         69.04987,   1.01030,
Model Number,TBS1052B-EDU,,         73.98201,   0.61030,
Serial Number,C027597,,         78.91414,  -2.18970,
Firmware Version,FV:v4.06,,         83.84628,  -6.18970,
,,,88.77841,  -5.38970,
,,,93.71054,  -2.58970,
,,,98.64267,  -1.78970,
,,,103.57480,  -2.98970,
,,,108.50693,  -6.18970,
,,,113.43906,  -9.38970,
,,,118.37119,  -6.58970,
,,,123.30332,  -4.58970,
,,,128.23545,  -4.18970,
,,,133.16758,  -5.78970,
,,,138.09971,  -9.78970,
,,,143.03184, -10.98970,
,,,147.96397,  -7.78970,
,,,152.89610,  -5.78970,
,,,157.82823,  -6.18970,
,,,162.76036,  -8.58970,
,,,167.69249, -12.18970,
,,,172.62462, -11.38970,
,,,177.55675,  -8.18970,
,,,182.48888,  -6.98970,
,,,187.42101,  -8.18970,
,,,192.35314, -10.98970,
,,,197.28527, -14.18970,
,,,202.21740, -12.18970,
,,,207.14953,  -8.98970,
,,,212.08166,  -8.58970,
,,,217.01379,  -9.78970,
,,,221.94592, -13.38970,
,,,226.87805, -15.38970,
,,,231.81018, -12.18970,
,,,236.74231, -10.18970,
,,,241.67444, -10.18970,
,,,246.60657, -11.78970,
,,,251.53870, -15.78970,
,,,256.47083, -15.78970,
,,,261.40296, -12.18970,
,,,266.33509, -10.58970,
,,,271.26722, -10.98970,
,,,276.19935, -13.78970,
,,,281.13148, -17.38970,
,,,286.06361, -15.38970,
,,,290.99574, -12.58970,
,,,295.92787, -11.78970,
,,,300.86000, -12.58970,
,,,305.79213, -15.78970,
,,,310.72426, -18.18970,
,,,315.65639, -14.98970,
,,,320.58852, -12.98970,
,,,325.52065, -12.58970,
,,,330.45278, -14.18970,
,,,335.38491, -17.38970,
,,,340.31704, -18.18970,
,,,345.24917, -14.58970,
,,,350.18130, -12.98970,
,,,355.11343, -13.38970,
,,,360.04556, -15.38970,
,,,364.97769, -18.98970,
,,,369.90982, -17.78970,
,,,374.84195, -14.98970,
,,,379.77408, -14.18970,
,,,384.70621, -14.98970,
,,,389.63834, -18.18970,
,,,394.57047, -20.98970,
,,,399.50260, -18.18970,
,,,404.43473, -15.38970,
,,,409.36686, -14.58970,
,,,414.29899, -16.18970,
,,,419.23112, -19.38970,
,,,424.16325, -21.38970,
,,,429.09538, -18.18970,
,,,434.02751, -15.78970,
,,,438.95964, -15.78970,
,,,443.89177, -17.38970,
,,,448.82390, -21.38970,
,,,453.75603, -20.98970,
,,,458.68816, -18.18970,
,,,463.62029, -16.18970,
,,,468.55242, -16.98970,
,,,473.48455, -19.38970,
,,,478.41668, -23.38970,
,,,483.34881, -20.58970,
,,,488.28094, -17.78970,
,,,493.21307, -16.98970,
,,,498.14520, -17.38970,
,,,503.07733, -20.58970,
,,,508.00946, -23.38970,
,,,512.94159, -20.18970,
,,,517.87372, -17.78970,
,,,522.80585, -17.78970,
,,,527.73798, -19.78970,
,,,532.67011, -22.98970,
,,,537.60224, -23.78970,
,,,542.53437, -20.18970,
,,,547.46650, -18.18970,
,,,552.39863, -18.58970,
,,,557.33076, -20.98970,
,,,562.26289, -24.98970,
,,,567.19502, -23.38970,
,,,572.12715, -20.18970,
,,,577.05928, -18.58970,
,,,581.99141, -19.78970,
,,,586.92354, -22.98970,
,,,591.85567, -25.78970,
,,,596.78780, -22.58970,
,,,601.71993, -20.18970,
,,,606.65206, -19.38970,
,,,611.58419, -20.58970,
,,,616.51632, -24.18970,
,,,621.44845, -26.98970,
,,,626.38058, -22.98970,
,,,631.31271, -20.58970,
,,,636.24484, -20.58970,
,,,641.17697, -22.18970,
,,,646.10910, -25.38970,
,,,651.04123, -26.18970,
,,,655.97336, -23.38970,
,,,660.90549, -21.78970,
,,,665.83762, -21.78970,
,,,670.76975, -24.58970,
,,,675.70188, -26.98970,
,,,680.63401, -25.38970,
,,,685.56614, -22.18970,
,,,690.49827, -21.38970,
,,,695.43040, -22.18970,
,,,700.36253, -25.78970,
,,,705.29466, -28.58970,
,,,710.22679, -25.38970,
,,,715.15892, -22.98970,
,,,720.09105, -22.18970,
,,,725.02318, -23.78970,
,,,729.95531, -26.58970,
,,,734.88744, -27.78970,
,,,739.81957, -24.98970,
,,,744.75170, -22.98970,
,,,749.68383, -23.38970,
,,,754.61596, -25.78970,
,,,759.54809, -29.78970,
,,,764.48022, -27.38970,
,,,769.41235, -24.98970,
,,,774.34448, -23.78970,
,,,779.27661, -23.78970,
,,,784.20874, -26.58970,
,,,789.14087, -29.78970,
,,,794.07300, -27.38970,
,,,799.00513, -24.58970,
,,,803.93726, -24.58970,
,,,808.86939, -25.78970,
,,,813.80152, -28.18970,
,,,818.73365, -30.98970,
,,,823.66578, -27.38970,
,,,828.59791, -25.38970,
,,,833.53004, -24.58970,
,,,838.46217, -26.58970,
,,,843.39430, -30.18970,
,,,848.32643, -28.58970,
,,,853.25856, -25.78970,
,,,858.19069, -24.18970,
,,,863.12282, -24.98970,
,,,868.05495, -28.18970,
,,,872.98708, -31.78970,
,,,877.91921, -29.38970,
,,,882.85134, -26.58970,
,,,887.78347, -25.38970,
,,,892.71560, -25.78970,
,,,897.64773, -29.38970,
,,,902.57986, -31.38970,
,,,907.51199, -28.58970,
,,,912.44412, -26.58970,
,,,917.37625, -26.18970,
,,,922.30838, -28.18970,
,,,927.24051, -31.78970,
,,,932.17264, -34.58970,
,,,937.10477, -28.58970,
,,,942.03690, -26.98970,
,,,946.96903, -27.38970,
,,,951.90116, -28.18970,
,,,956.83329, -33.38970,
,,,961.76542, -30.58970,
,,,966.69755, -29.38970,
,,,971.62968, -26.98970,
,,,976.56181, -27.38970,
,,,981.49394, -29.38970,
,,,986.42607, -31.78970,
,,,991.35820, -28.58970,
,,,996.29033, -26.18970,
,,,1001.22246, -26.18970,
,,,1006.15459, -27.38970,
,,,1011.08672, -30.58970,
,,,1016.01885, -34.58970,
,,,1020.95098, -29.78970,
,,,1025.88311, -28.58970,
,,,1030.81524, -27.38970,
,,,1035.74737, -28.98970,
,,,1040.67950, -33.38970,
,,,1045.61163, -33.38970,
,,,1050.54376, -30.18970,
,,,1055.47589, -28.18970,
,,,1060.40802, -28.18970,
,,,1065.34015, -31.38970,
,,,1070.27228, -33.38970,
,,,1075.20441, -30.98970,
,,,1080.13654, -27.78970,
,,,1085.06867, -26.98970,
,,,1090.00080, -28.18970,
,,,1094.93293, -31.78970,
,,,1099.86506, -33.38970,
,,,1104.79719, -30.98970,
,,,1109.72932, -28.98970,
,,,1114.66145, -28.18970,
,,,1119.59358, -30.58970,
,,,1124.52571, -33.38970,
,,,1129.45784, -34.98970,
,,,1134.38997, -31.38970,
,,,1139.32210, -29.38970,
,,,1144.25423, -28.18970,
,,,1149.18636, -31.38970,
,,,1154.11849, -33.38970,
,,,1159.05062, -33.38970,
,,,1163.98275, -31.38970,
,,,1168.91488, -29.38970,
,,,1173.84701, -30.18970,
,,,1178.77914, -32.98970,
,,,1183.71127, -34.98970,
,,,1188.64340, -32.98970,
,,,1193.57553, -28.98970,
,,,1198.50766, -29.38970,
,,,1203.43979, -30.58970,
,,,1208.37192, -34.98970,
,,,1213.30405, -34.98970,
,,,1218.23618, -31.38970,
,,,1223.16831, -30.58970,
,,,1228.10044, -30.58970,
,,,1233.03257, -32.18970,
,,,1237.96470, -36.18970,
,,,1242.89683, -37.38970,
,,,1247.82896, -31.38970,
,,,1252.76109, -30.58970,
,,,1257.69322, -31.78970,
,,,1262.62535, -33.38970,
,,,1267.55748, -34.98970,
,,,1272.48961, -35.38970,
,,,1277.42174, -31.78970,
,,,1282.35387, -30.58970,
,,,1287.28600, -32.98970,
,,,1292.21813, -36.18970,
,,,1297.15026, -37.38970,
,,,1302.08239, -33.38970,
,,,1307.01452, -31.78970,
,,,1311.94665, -31.78970,
,,,1316.87878, -32.98970,
,,,1321.81091, -34.58970,
,,,1326.74304, -37.78970,
,,,1331.67517, -35.38970,
,,,1336.60730, -33.38970,
,,,1341.53943, -33.38970,
,,,1346.47156, -34.98970,
,,,1351.40369, -37.38970,
,,,1356.33582, -37.78970,
,,,1361.26795, -33.38970,
,,,1366.20008, -31.78970,
,,,1371.13221, -33.38970,
,,,1376.06434, -34.98970,
,,,1380.99647, -41.38970,
,,,1385.92860, -35.38970,
,,,1390.86073, -33.38970,
,,,1395.79286, -31.78970,
,,,1400.72499, -34.58970,
,,,1405.65712, -37.38970,
,,,1410.58925, -41.38970,
,,,1415.52138, -37.78970,
,,,1420.45351, -34.98970,
,,,1425.38564, -34.98970,
,,,1430.31777, -36.18970,
,,,1435.24990, -38.58970,
,,,1440.18203, -41.38970,
,,,1445.11416, -37.78970,
,,,1450.04629, -34.98970,
,,,1454.97842, -34.58970,
,,,1459.91055, -37.38970,
,,,1464.84268, -41.38970,
,,,1469.77481, -40.58970,
,,,1474.70694, -37.78970,
,,,1479.63907, -35.38970,
,,,1484.57120, -34.58970,
,,,1489.50333, -40.58970,
,,,1494.43546, -46.98970,
,,,1499.36759, -37.38970,
,,,1504.29972, -35.38970,
,,,1509.23185, -34.98970,
,,,1514.16398, -34.58970,
,,,1519.09611, -38.58970,
,,,1524.02824, -37.78970,
,,,1528.96037, -37.78970,
,,,1533.89250, -37.78970,
,,,1538.82463, -37.78970,
,,,1543.75676, -40.58970,
,,,1548.68889, -41.38970,
,,,1553.62102, -41.38970,
,,,1558.55315, -37.38970,
,,,1563.48528, -36.18970,
,,,1568.41741, -36.18970,
,,,1573.34954, -36.18970,
,,,1578.28167, -37.78970,
,,,1583.21380, -34.98970,
,,,1588.14593, -34.98970,
,,,1593.07806, -35.38970,
,,,1598.01019, -37.38970,
,,,1602.94232, -40.58970,
,,,1607.87445, -46.98970,
,,,1612.80658, -40.58970,
,,,1617.73871, -36.18970,
,,,1622.67084, -36.18970,
,,,1627.60297, -40.58970,
,,,1632.53510, -46.98970,
,,,1637.46723, -46.98970,
,,,1642.39936, -46.98970,
,,,1647.33149, -37.38970,
,,,1652.26362, -38.58970,
,,,1657.19575, -44.58970,
,,,1662.12788, -40.58970,
,,,1667.06001, -37.78970,
,,,1671.99214, -35.38970,
,,,1676.92427, -34.98970,
,,,1681.85640, -36.18970,
,,,1686.78853, -40.58970,
,,,1691.72066, -40.58970,
,,,1696.65279, -41.38970,
,,,1701.58492, -37.78970,
,,,1706.51705, -41.38970,
,,,1711.44918, -40.58970,
,,,1716.38131, -44.58970,
,,,1721.31344, -44.58970,
,,,1726.24557, -40.58970,
,,,1731.17770, -41.38970,
,,,1736.10983, -40.58970,
,,,1741.04196, -44.58970,
,,,1745.97409, -46.98970,
,,,1750.90622, -44.58970,
,,,1755.83835, -37.78970,
,,,1760.77048, -37.38970,
,,,1765.70261, -40.58970,
,,,1770.63474, -46.98970,
,,,1775.56687, -46.98970,
,,,1780.49900, -41.38970,
,,,1785.43113, -40.58970,
,,,1790.36326, -37.38970,
,,,1795.29539, -37.38970,
,,,1800.22752, -41.38970,
,,,1805.15965, -37.38970,
,,,1810.09178, -40.58970,
,,,1815.02391, -41.38970,
,,,1819.95604, -40.58970,
,,,1824.88817, -44.58970,
,,,1829.82030, -46.98970,
,,,1834.75243, -41.38970,
,,,1839.68456, -34.98970,
,,,1844.61669, -34.98970,
,,,1849.54882, -40.58970,
,,,1854.48095, -46.98970,
,,,1859.41308, -44.58970,
,,,1864.34521, -40.58970,
,,,1869.27734, -40.58970,
,,,1874.20947, -36.18970,
,,,1879.14160, -36.18970,
,,,1884.07373, -38.58970,
,,,1889.00586, -44.58970,
,,,1893.93799, -41.38970,
,,,1898.87012, -41.38970,
,,,1903.80225, -40.58970,
,,,1908.73438, -44.58970,
,,,1913.66651, -44.58970,
,,,1918.59864, -46.98970,
,,,1923.53077, -44.58970,
,,,1928.46290, -41.38970,
,,,1933.39503, -46.98970,
,,,1938.32716, -44.58970,
,,,1943.25929, -46.98970,
,,,1948.19142, -46.98970,
,,,1953.12355, -46.98970,
,,,1958.05568, -44.58970,
,,,1962.98781, -44.58970,
,,,1967.91994, -46.98970,
,,,1972.85207, -46.98970,
,,,1977.78420, -41.38970,
,,,1982.71633, -37.38970,
,,,1987.64846, -40.58970,
,,,1992.58059, -38.58970,
,,,1997.51272, -46.98970,
,,,2002.44485, -46.98970,
,,,2007.37698, -44.58970,
,,,2012.30911, -46.98970,
,,,2017.24124, -41.38970,
,,,2022.17337, -46.98970,
,,,2027.10550, -46.98970,
,,,2032.03763, -40.58970,
,,,2036.96976, -44.58970,
,,,2041.90189, -41.38970,
,,,2046.83402, -40.58970,
,,,2051.76615, -44.58970,
,,,2056.69828, -46.98970,
,,,2061.63041, -46.98970,
,,,2066.56254, -41.38970,
,,,2071.49467, -40.58970,
,,,2076.42680, -40.58970,
,,,2081.35893, -44.58970,
,,,2086.29106, -44.58970,
,,,2091.22319, -46.98970,
,,,2096.15532, -46.98970,
,,,2101.08745, -46.98970,
,,,2106.01958, -46.98970,
,,,2110.95171, -46.98970,
,,,2115.88384, -40.58970,
,,,2120.81597, -40.58970,
,,,2125.74810, -37.38970,
,,,2130.68023, -40.58970,
,,,2135.61236, -44.58970,
,,,2140.54449, -46.98970,
,,,2145.47662, -46.98970,
,,,2150.40875, -44.58970,
,,,2155.34088, -44.58970,
,,,2160.27301, -44.58970,
,,,2165.20514, -46.98970,
,,,2170.13727, -46.98970,
,,,2175.06940, -44.58970,
,,,2180.00153, -44.58970,
,,,2184.93366, -46.98970,
,,,2189.86579, -46.98970,
,,,2194.79792, -46.98970,
,,,2199.73005, -46.98970,
,,,2204.66218, -40.58970,
,,,2209.59431, -40.58970,
,,,2214.52644, -41.38970,
,,,2219.45857, -46.98970,
,,,2224.39070, -46.98970,
,,,2229.32283, -46.98970,
,,,2234.25496, -41.38970,
,,,2239.18709, -44.58970,
,,,2244.11922, -40.58970,
,,,2249.05135, -44.58970,
,,,2253.98348, -46.98970,
,,,2258.91561, -46.98970,
,,,2263.84774, -46.98970,
,,,2268.77987, -46.98970,
,,,2273.71200, -46.98970,
,,,2278.64413, -46.98970,
,,,2283.57626, -46.98970,
,,,2288.50839, -46.98970,
,,,2293.44052, -41.38970,
,,,2298.37265, -46.98970,
,,,2303.30478, -46.98970,
,,,2308.23691, -44.58970,
,,,2313.16904, -44.58970,
,,,2318.10117, -44.58970,
,,,2323.03330, -46.98970,
,,,2327.96543, -40.58970,
,,,2332.89756, -44.58970,
,,,2337.82969, -41.38970,
,,,2342.76182, -41.38970,
,,,2347.69395, -41.38970,
,,,2352.62608, -46.98970,
,,,2357.55821, -46.98970,
,,,2362.49034, -46.98970,
,,,2367.42247, -46.98970,
,,,2372.35460, -46.98970,
,,,2377.28673, -46.98970,
,,,2382.21886, -44.58970,
,,,2387.15099, -46.98970,
,,,2392.08312, -46.98970,
,,,2397.01525, -46.98970,
,,,2401.94738, -46.98970,
,,,2406.87951, -46.98970,
,,,2411.81164, -46.98970,
,,,2416.74377, -41.38970,
,,,2421.67590, -40.58970,
,,,2426.60803, -46.98970,
,,,2431.54016, -44.58970,
,,,2436.47229, -46.98970,
,,,2441.40442, -46.98970,
,,,2446.33655, -44.58970,
,,,2451.26868, -46.98970,
,,,2456.20081, -46.98970,
,,,2461.13294, -46.98970,
,,,2466.06507, -46.98970,
,,,2470.99720, -46.98970,
,,,2475.92933, -46.98970,
,,,2480.86146, -44.58970,
,,,2485.79359, -40.58970,
,,,2490.72572, -46.98970,
,,,2495.65785, -46.98970,
,,,2500.58998, -46.98970,
,,,2505.52211, -46.98970,
,,,2510.45424, -46.98970,
,,,2515.38637, -40.58970,
,,,2520.31850, -40.58970,
,,,2525.25063, -41.38970,
,,,2530.18276, -40.58970,
,,,2535.11489, -46.98970,
,,,2540.04702, -41.38970,
,,,2544.97915, -46.98970,
,,,2549.91128, -41.38970,
,,,2554.84341, -46.98970,
,,,2559.77554, -46.98970,
,,,2564.70767, -46.98970,
,,,2569.63980, -46.98970,
,,,2574.57193, -46.98970,
,,,2579.50406, -46.98970,
,,,2584.43619, -46.98970,
,,,2589.36832, -46.98970,
,,,2594.30045, -46.98970,
,,,2599.23258, -46.98970,
,,,2604.16471, -46.98970,
,,,2609.09684, -46.98970,
,,,2614.02897, -46.98970,
,,,2618.96110, -46.98970,
,,,2623.89323, -44.58970,
,,,2628.82536, -44.58970,
,,,2633.75749, -46.98970,
,,,2638.68962, -46.98970,
,,,2643.62175, -46.98970,
,,,2648.55388, -46.98970,
,,,2653.48601, -46.98970,
,,,2658.41814, -46.98970,
,,,2663.35027, -41.38970,
,,,2668.28240, -40.58970,
,,,2673.21453, -46.98970,
,,,2678.14666, -46.98970,
,,,2683.07879, -46.98970,
,,,2688.01092, -46.98970,
,,,2692.94305, -46.98970,
,,,2697.87518, -46.98970,
,,,2702.80731, -46.98970,
,,,2707.73944, -46.98970,
,,,2712.67157, -44.58970,
,,,2717.60370, -46.98970,
,,,2722.53583, -46.98970,
,,,2727.46796, -46.98970,
,,,2732.40009, -44.58970,
,,,2737.33222, -46.98970,
,,,2742.26435, -46.98970,
,,,2747.19648, -41.38970,
,,,2752.12861, -46.98970,
,,,2757.06074, -46.98970,
,,,2761.99287, -46.98970,
,,,2766.92500, -46.98970,
,,,2771.85713, -46.98970,
,,,2776.78926, -46.98970,
,,,2781.72139, -46.98970,
,,,2786.65352, -46.98970,
,,,2791.58565, -46.98970,
,,,2796.51778, -44.58970,
,,,2801.44991, -44.58970,
,,,2806.38204, -44.58970,
,,,2811.31417, -46.98970,
,,,2816.24630, -46.98970,
,,,2821.17843, -46.98970,
,,,2826.11056, -46.98970,
,,,2831.04269, -44.58970,
,,,2835.97482, -44.58970,
,,,2840.90695, -46.98970,
,,,2845.83908, -46.98970,
,,,2850.77121, -46.98970,
,,,2855.70334, -44.58970,
,,,2860.63547, -46.98970,
,,,2865.56760, -46.98970,
,,,2870.49973, -46.98970,
,,,2875.43186, -44.58970,
,,,2880.36399, -44.58970,
,,,2885.29612, -46.98970,
,,,2890.22825, -46.98970,
,,,2895.16038, -46.98970,
,,,2900.09251, -46.98970,
,,,2905.02464, -46.98970,
,,,2909.95677, -46.98970,
,,,2914.88890, -44.58970,
,,,2919.82103, -44.58970,
,,,2924.75316, -41.38970,
,,,2929.68529, -40.58970,
,,,2934.61742, -41.38970,
,,,2939.54955, -46.98970,
,,,2944.48168, -46.98970,
,,,2949.41381, -46.98970,
,,,2954.34594, -44.58970,
,,,2959.27807, -44.58970,
,,,2964.21020, -46.98970,
,,,2969.14233, -46.98970,
,,,2974.07446, -46.98970,
,,,2979.00659, -46.98970,
,,,2983.93872, -44.58970,
,,,2988.87085, -44.58970,
,,,2993.80298, -46.98970,
,,,2998.73511, -46.98970,
,,,3003.66724, -46.98970,
,,,3008.59937, -46.98970,
,,,3013.53150, -46.98970,
,,,3018.46363, -41.38970,
,,,3023.39576, -41.38970,
,,,3028.32789, -41.38970,
,,,3033.26002, -40.58970,
,,,3038.19215, -46.98970,
,,,3043.12428, -46.98970,
,,,3048.05641, -46.98970,
,,,3052.98854, -46.98970,
,,,3057.92067, -46.98970,
,,,3062.85280, -46.98970,
,,,3067.78493, -46.98970,
,,,3072.71706, -46.98970,
,,,3077.64919, -46.98970,
,,,3082.58132, -46.98970,
,,,3087.51345, -46.98970,
,,,3092.44558, -46.98970,
,,,3097.37771, -46.98970,
,,,3102.30984, -46.98970,
,,,3107.24197, -44.58970,
,,,3112.17410, -46.98970,
,,,3117.10623, -41.38970,
,,,3122.03836, -41.38970,
,,,3126.97049, -46.98970,
,,,3131.90262, -40.58970,
,,,3136.83475, -46.98970,
,,,3141.76688, -46.98970,
,,,3146.69901, -46.98970,
,,,3151.63114, -46.98970,
,,,3156.56327, -46.98970,
,,,3161.49540, -46.98970,
,,,3166.42753, -44.58970,
,,,3171.35966, -46.98970,
,,,3176.29179, -46.98970,
,,,3181.22392, -46.98970,
,,,3186.15605, -46.98970,
,,,3191.08818, -46.98970,
,,,3196.02031, -46.98970,
,,,3200.95244, -44.58970,
,,,3205.88457, -44.58970,
,,,3210.81670, -46.98970,
,,,3215.74883, -46.98970,
,,,3220.68096, -46.98970,
,,,3225.61309, -46.98970,
,,,3230.54522, -46.98970,
,,,3235.47735, -46.98970,
,,,3240.40948, -41.38970,
,,,3245.34161, -41.38970,
,,,3250.27374, -44.58970,
,,,3255.20587, -44.58970,
,,,3260.13800, -46.98970,
,,,3265.07013, -46.98970,
,,,3270.00226, -46.98970,
,,,3274.93439, -44.58970,
,,,3279.86652, -46.98970,
,,,3284.79865, -46.98970,
,,,3289.73078, -46.98970,
,,,3294.66291, -46.98970,
,,,3299.59504, -46.98970,
,,,3304.52717, -40.58970,
,,,3309.45930, -46.98970,
,,,3314.39143, -41.38970,
,,,3319.32356, -46.98970,
,,,3324.25569, -44.58970,
,,,3329.18782, -44.58970,
,,,3334.11995, -44.58970,
,,,3339.05208, -44.58970,
,,,3343.98421, -46.98970,
,,,3348.91634, -46.98970,
,,,3353.84847, -46.98970,
,,,3358.78060, -44.58970,
,,,3363.71273, -46.98970,
,,,3368.64486, -40.58970,
,,,3373.57699, -46.98970,
,,,3378.50912, -46.98970,
,,,3383.44125, -46.98970,
,,,3388.37338, -46.98970,
,,,3393.30551, -40.58970,
,,,3398.23764, -40.58970,
,,,3403.16977, -40.58970,
,,,3408.10190, -46.98970,
,,,3413.03403, -46.98970,
,,,3417.96616, -46.98970,
,,,3422.89829, -44.58970,
,,,3427.83042, -46.98970,
,,,3432.76255, -46.98970,
,,,3437.69468, -40.58970,
,,,3442.62681, -44.58970,
,,,3447.55894, -46.98970,
,,,3452.49107, -44.58970,
,,,3457.42320, -44.58970,
,,,3462.35533, -46.98970,
,,,3467.28746, -46.98970,
,,,3472.21959, -46.98970,
,,,3477.15172, -46.98970,
,,,3482.08385, -44.58970,
,,,3487.01598, -46.98970,
,,,3491.94811, -46.98970,
,,,3496.88024, -46.98970,
,,,3501.81237, -41.38970,
,,,3506.74450, -44.58970,
,,,3511.67663, -46.98970,
,,,3516.60876, -46.98970,
,,,3521.54089, -46.98970,
,,,3526.47302, -46.98970,
,,,3531.40515, -46.98970,
,,,3536.33728, -46.98970,
,,,3541.26941, -46.98970,
,,,3546.20154, -41.38970,
,,,3551.13367, -46.98970,
,,,3556.06580, -46.98970,
,,,3560.99793, -46.98970,
,,,3565.93006, -46.98970,
,,,3570.86219, -46.98970,
,,,3575.79432, -46.98970,
,,,3580.72645, -46.98970,
,,,3585.65858, -44.58970,
,,,3590.59071, -44.58970,
,,,3595.52284, -46.98970,
,,,3600.45497, -46.98970,
,,,3605.38710, -46.98970,
,,,3610.31923, -46.98970,
,,,3615.25136, -44.58970,
,,,3620.18349, -46.98970,
,,,3625.11562, -46.98970,
,,,3630.04775, -46.98970,
,,,3634.97988, -46.98970,
,,,3639.91201, -46.98970,
,,,3644.84414, -46.98970,
,,,3649.77627, -46.98970,
,,,3654.70840, -46.98970,
,,,3659.64053, -46.98970,
,,,3664.57266, -44.58970,
,,,3669.50479, -46.98970,
,,,3674.43692, -46.98970,
,,,3679.36905, -46.98970,
,,,3684.30118, -44.58970,
,,,3689.23331, -44.58970,
,,,3694.16544, -46.98970,
,,,3699.09757, -46.98970,
,,,3704.02970, -46.98970,
,,,3708.96183, -41.38970,
,,,3713.89396, -41.38970,
,,,3718.82609, -46.98970,
,,,3723.75822, -46.98970,
,,,3728.69035, -46.98970,
,,,3733.62248, -44.58970,
,,,3738.55461, -46.98970,
