furier_c1/ALL0004/F0004FFT.CSV

Record Length,1.024000e+03,,          0.00000,   4.21030,
Sample Interval,4.932134e+00,,          4.93213,  13.81030,
Trigger Point,-0.000000000000e+00,,          9.86427,  15.41030,
,,,         14.79640,  15.81030,
,,,         19.72854,  11.81030,
,,,         24.66067,   6.61030,
Source,FFT,,         29.59280,   3.81030,
Vertical Units,dB,,         34.52494,   3.01030,
Vertical Scale,1.000000e+01,,         39.45707,   4.21030,
Vertical Offset,0.000000e+00,,         44.38920,   5.01030,
Horizontal Units,Hz,,         49.32134,   1.41030,
Horizontal Scale,5.050505e+02,,         54.25347,  -2.58970,
Pt Fmt,Y,,         59.18561,  -2.58970,
Yzero,-6.989700e+00,,         64.11774,  -0.98970,
Probe Atten,1.000000e+00,,         69.04987,  -0.18970,
Model Number,TBS1052B-EDU,,         73.98201,   0.21030,
Serial Number,C027597,,         78.91414,  -3.78970,
Firmware Version,FV:v4.06,,         83.84628,  -8.18970,
,,,88.77841,  -5.38970,
,,,93.71054,  -3.78970,
,,,98.64267,  -3.38970,
,,,103.57480,  -3.38970,
,,,108.50693,  -7.78970,
,,,113.43906, -11.38970,
,,,118.37119,  -6.98970,
,,,123.30332,  -5.38970,
,,,128.23545,  -5.78970,
,,,133.16758,  -6.18970,
,,,138.09971, -10.98970,
,,,143.03184, -12.98970,
,,,147.96397,  -8.18970,
,,,152.89610,  -6.98970,
,,,157.82823,  -7.78970,
,,,162.76036,  -8.98970,
,,,167.69249, -13.78970,
,,,172.62462, -13.78970,
,,,177.55675,  -8.98970,
,,,182.48888,  -8.18970,
,,,187.42101,  -9.78970,
,,,192.35314, -10.98970,
,,,197.28527, -14.98970,
,,,202.21740, -14.18970,
,,,207.14953, -10.18970,
,,,212.08166,  -9.78970,
,,,217.01379, -11.78970,
,,,221.94592, -13.78970,
,,,226.87805, -16.18970,
,,,231.81018, -14.58970,
,,,236.74231, -10.98970,
,,,241.67444, -11.38970,
,,,246.60657, -14.58970,
,,,251.53870, -16.58970,
,,,256.47083, -16.98970,
,,,261.40296, -14.98970,
,,,266.33509, -12.18970,
,,,271.26722, -12.98970,
,,,276.19935, -16.58970,
,,,281.13148, -18.58970,
,,,286.06361, -17.38970,
,,,290.99574, -15.78970,
,,,295.92787, -13.38970,
,,,300.86000, -14.58970,
,,,305.79213, -18.58970,
,,,310.72426, -19.78970,
,,,315.65639, -17.38970,
,,,320.58852, -16.18970,
,,,325.52065, -14.58970,
,,,330.45278, -16.58970,
,,,335.38491, -22.18970,
,,,340.31704, -20.98970,
,,,345.24917, -17.78970,
,,,350.18130, -17.38970,
,,,355.11343, -15.78970,
,,,360.04556, -18.58970,
,,,364.97769, -23.38970,
,,,369.90982, -20.98970,
,,,374.84195, -17.78970,
,,,379.77408, -17.78970,
,,,384.70621, -17.38970,
,,,389.63834, -20.58970,
,,,394.57047, -26.58970,
,,,399.50260, -21.38970,
,,,404.43473, -18.58970,
,,,409.36686, -18.98970,
,,,414.29899, -19.38970,
,,,419.23112, -22.98970,
,,,424.16325, -27.38970,
,,,429.09538, -21.78970,
,,,434.02751, -18.98970,
,,,438.95964, -20.58970,
,,,443.89177, -21.38970,
,,,448.82390, -24.98970,
,,,453.75603, -26.98970,
,,,458.68816, -22.18970,
,,,463.62029, -19.78970,
,,,468.55242, -21.78970,
,,,473.48455, -22.98970,
,,,478.41668, -26.18970,
,,,483.34881, -26.18970,
,,,488.28094, -22.18970,
,,,493.21307, -20.98970,
,,,498.14520, -22.58970,
,,,503.07733, -24.58970,
,,,508.00946, -26.18970,
,,,512.94159, -24.98970,
,,,517.87372, -21.78970,
,,,522.80585, -21.78970,
,,,527.73798, -24.58970,
,,,532.67011, -26.58970,
,,,537.60224, -26.58970,
,,,542.53437, -25.38970,
,,,547.46650, -22.98970,
,,,552.39863, -22.58970,
,,,557.33076, -26.58970,
,,,562.26289, -28.18970,
,,,567.19502, -25.78970,
,,,572.12715, -24.58970,
,,,577.05928, -24.18970,
,,,581.99141, -24.58970,
,,,586.92354, -28.18970,
,,,591.85567, -30.58970,
,,,596.78780, -26.58970,
,,,601.71993, -25.38970,
,,,606.65206, -24.58970,
,,,611.58419, -24.98970,
,,,616.51632, -30.58970,
,,,621.44845, -30.18970,
,,,626.38058, -26.18970,
,,,631.31271, -25.78970,
,,,636.24484, -24.98970,
,,,641.17697, -26.58970,
,,,646.10910, -31.78970,
,,,651.04123, -30.98970,
,,,655.97336, -26.18970,
,,,660.90549, -26.18970,
,,,665.83762, -24.98970,
,,,670.76975, -26.58970,
,,,675.70188, -30.58970,
,,,680.63401, -30.18970,
,,,685.56614, -26.98970,
,,,690.49827, -26.58970,
,,,695.43040, -28.18970,
,,,700.36253, -30.58970,
,,,705.29466, -34.98970,
,,,710.22679, -31.38970,
,,,715.15892, -26.98970,
,,,720.09105, -27.38970,
,,,725.02318, -28.98970,
,,,729.95531, -31.78970,
,,,734.88744, -32.98970,
,,,739.81957, -28.98970,
,,,744.75170, -26.18970,
,,,749.68383, -28.18970,
,,,754.61596, -30.18970,
,,,759.54809, -33.38970,
,,,764.48022, -32.18970,
,,,769.41235, -29.78970,
,,,774.34448, -27.38970,
,,,779.27661, -30.58970,
,,,784.20874, -32.98970,
,,,789.14087, -33.38970,
,,,794.07300, -32.18970,
,,,799.00513, -28.98970,
,,,803.93726, -28.18970,
,,,808.86939, -31.78970,
,,,813.80152, -34.98970,
,,,818.73365, -34.58970,
,,,823.66578, -31.38970,
,,,828.59791, -28.18970,
,,,833.53004, -27.38970,
,,,838.46217, -31.38970,
,,,843.39430, -34.58970,
,,,848.32643, -35.38970,
,,,853.25856, -32.98970,
,,,858.19069, -30.58970,
,,,863.12282, -29.38970,
,,,868.05495, -31.78970,
,,,872.98708, -35.38970,
,,,877.91921, -33.38970,
,,,882.85134, -30.98970,
,,,887.78347, -30.58970,
,,,892.71560, -31.78970,
,,,897.64773, -34.98970,
,,,902.57986, -41.38970,
,,,907.51199, -34.98970,
,,,912.44412, -31.78970,
,,,917.37625, -31.38970,
,,,922.30838, -32.18970,
,,,927.24051, -34.58970,
,,,932.17264, -37.78970,
,,,937.10477, -33.38970,
,,,942.03690, -30.58970,
,,,946.96903, -31.78970,
,,,951.90116, -32.98970,
,,,956.83329, -37.78970,
,,,961.76542, -37.38970,
,,,966.69755, -31.78970,
,,,971.62968, -30.58970,
,,,976.56181, -31.38970,
,,,981.49394, -32.98970,
,,,986.42607, -35.38970,
,,,991.35820, -33.38970,
,,,996.29033, -30.58970,
,,,1001.22246, -30.18970,
,,,1006.15459, -32.18970,
,,,1011.08672, -34.58970,
,,,1016.01885, -37.78970,
,,,1020.95098, -34.98970,
,,,1025.88311, -31.78970,
,,,1030.81524, -30.58970,
,,,1035.74737, -34.58970,
,,,1040.67950, -34.58970,
,,,1045.61163, -34.98970,
,,,1050.54376, -34.98970,
,,,1055.47589, -31.78970,
,,,1060.40802, -32.98970,
,,,1065.34015, -36.18970,
,,,1070.27228, -34.98970,
,,,1075.20441, -32.98970,
,,,1080.13654, -33.38970,
,,,1085.06867, -31.78970,
,,,1090.00080, -34.98970,
,,,1094.93293, -41.38970,
,,,1099.86506, -41.38970,
,,,1104.79719, -36.18970,
,,,1109.72932, -34.98970,
,,,1114.66145, -33.38970,
,,,1119.59358, -34.98970,
,,,1124.52571, -41.38970,
,,,1129.45784, -41.38970,
,,,1134.38997, -34.98970,
,,,1139.32210, -33.38970,
,,,1144.25423, -32.98970,
,,,1149.18636, -32.98970,
,,,1154.11849, -40.58970,
,,,1159.05062, -37.78970,
,,,1163.98275, -35.38970,
,,,1168.91488, -37.38970,
,,,1173.84701, -33.38970,
,,,1178.77914, -34.98970,
,,,1183.71127, -40.58970,
,,,1188.64340, -37.78970,
,,,1193.57553, -35.38970,
,,,1198.50766, -34.98970,
,,,1203.43979, -36.18970,
,,,1208.37192, -40.58970,
,,,1213.30405, -41.38970,
,,,1218.23618, -34.98970,
,,,1223.16831, -35.38970,
,,,1228.10044, -34.98970,
,,,1233.03257, -36.18970,
,,,1237.96470, -37.78970,
,,,1242.89683, -41.38970,
,,,1247.82896, -35.38970,
,,,1252.76109, -34.58970,
,,,1257.69322, -34.58970,
,,,1262.62535, -38.58970,
,,,1267.55748, -37.38970,
,,,1272.48961, -37.38970,
,,,1277.42174, -34.98970,
,,,1282.35387, -34.58970,
,,,1287.28600, -38.58970,
,,,1292.21813, -40.58970,
,,,1297.15026, -41.38970,
,,,1302.08239, -37.38970,
,,,1307.01452, -35.38970,
,,,1311.94665, -34.98970,
,,,1316.87878, -40.58970,
,,,1321.81091, -46.98970,
,,,1326.74304, -41.38970,
,,,1331.67517, -41.38970,
,,,1336.60730, -40.58970,
,,,1341.53943, -37.38970,
,,,1346.47156, -40.58970,
,,,1351.40369, -40.58970,
,,,1356.33582, -37.78970,
,,,1361.26795, -37.78970,
,,,1366.20008, -37.38970,
,,,1371.13221, -36.18970,
,,,1376.06434, -44.58970,
,,,1380.99647, -40.58970,
,,,1385.92860, -40.58970,
,,,1390.86073, -37.38970,
,,,1395.79286, -38.58970,
,,,1400.72499, -38.58970,
,,,1405.65712, -38.58970,
,,,1410.58925, -38.58970,
,,,1415.52138, -36.18970,
,,,1420.45351, -36.18970,
,,,1425.38564, -38.58970,
,,,1430.31777, -38.58970,
,,,1435.24990, -40.58970,
,,,1440.18203, -40.58970,
,,,1445.11416, -40.58970,
,,,1450.04629, -40.58970,
,,,1454.97842, -38.58970,
,,,1459.91055, -44.58970,
,,,1464.84268, -46.98970,
,,,1469.77481, -46.98970,
,,,1474.70694, -41.38970,
,,,1479.63907, -44.58970,
,,,1484.57120, -46.98970,
,,,1489.50333, -46.98970,
,,,1494.43546, -46.98970,
,,,1499.36759, -46.98970,
,,,1504.29972, -41.38970,
,,,1509.23185, -41.38970,
,,,1514.16398, -46.98970,
,,,1519.09611, -46.98970,
,,,1524.02824, -44.58970,
,,,1528.96037, -46.98970,
,,,1533.89250, -46.98970,
,,,1538.82463, -46.98970,
,,,1543.75676, -44.58970,
,,,1548.68889, -46.98970,
,,,1553.62102, -44.58970,
,,,1558.55315, -40.58970,
,,,1563.48528, -38.58970,
,,,1568.41741, -38.58970,
,,,1573.34954, -37.38970,
,,,1578.28167, -40.58970,
,,,1583.21380, -40.58970,
,,,1588.14593, -40.58970,
,,,1593.07806, -40.58970,
,,,1598.01019, -46.98970,
,,,1602.94232, -46.98970,
,,,1607.87445, -46.98970,
,,,1612.80658, -46.98970,
,,,1617.73871, -40.58970,
,,,1622.67084, -37.38970,
,,,1627.60297, -44.58970,
,,,1632.53510, -44.58970,
,,,1637.46723, -41.38970,
,,,1642.39936, -41.38970,
,,,1647.33149, -38.58970,
,,,1652.26362, -40.58970,
,,,1657.19575, -38.58970,
,,,1662.12788, -44.58970,
,,,1667.06001, -41.38970,
,,,1671.99214, -41.38970,
,,,1676.92427, -44.58970,
,,,1681.85640, -44.58970,
,,,1686.78853, -44.58970,
,,,1691.72066, -44.58970,
,,,1696.65279, -46.98970,
,,,1701.58492, -40.58970,
,,,1706.51705, -44.58970,
,,,1711.44918, -40.58970,
,,,1716.38131, -44.58970,
,,,1721.31344, -41.38970,
,,,1726.24557, -40.58970,
,,,1731.17770, -38.58970,
,,,1736.10983, -40.58970,
,,,1741.04196, -44.58970,
,,,1745.97409, -46.98970,
,,,1750.90622, -41.38970,
,,,1755.83835, -41.38970,
,,,1760.77048, -46.98970,
,,,1765.70261, -46.98970,
,,,1770.63474, -44.58970,
,,,1775.56687, -46.98970,
,,,1780.49900, -46.98970,
,,,1785.43113, -41.38970,
,,,1790.36326, -41.38970,
,,,1795.29539, -46.98970,
,,,1800.22752, -46.98970,
,,,1805.15965, -46.98970,
,,,1810.09178, -46.98970,
,,,1815.02391, -44.58970,
,,,1819.95604, -44.58970,
,,,1824.88817, -46.98970,
,,,1829.82030, -46.98970,
,,,1834.75243, -44.58970,
,,,1839.68456, -40.58970,
,,,1844.61669, -37.38970,
,,,1849.54882, -37.78970,
,,,1854.48095, -41.38970,
,,,1859.41308, -46.98970,
,,,1864.34521, -46.98970,
,,,1869.27734, -46.98970,
,,,1874.20947, -46.98970,
,,,1879.14160, -46.98970,
,,,1884.07373, -46.98970,
,,,1889.00586, -46.98970,
,,,1893.93799, -46.98970,
,,,1898.87012, -46.98970,
,,,1903.80225, -46.98970,
,,,1908.73438, -46.98970,
,,,1913.66651, -46.98970,
,,,1918.59864, -41.38970,
,,,1923.53077, -41.38970,
,,,1928.46290, -44.58970,
,,,1933.39503, -44.58970,
,,,1938.32716, -46.98970,
,,,1943.25929, -46.98970,
,,,1948.19142, -44.58970,
,,,1953.12355, -40.58970,
,,,1958.05568, -44.58970,
,,,1962.98781, -40.58970,
,,,1967.91994, -44.58970,
,,,1972.85207, -46.98970,
,,,1977.78420, -41.38970,
,,,1982.71633, -44.58970,
,,,1987.64846, -44.58970,
,,,1992.58059, -46.98970,
,,,1997.51272, -46.98970,
,,,2002.44485, -46.98970,
,,,2007.37698, -46.98970,
,,,2012.30911, -44.58970,
,,,2017.24124, -44.58970,
,,,2022.17337, -46.98970,
,,,2027.10550, -46.98970,
,,,2032.03763, -46.98970,
,,,2036.96976, -46.98970,
,,,2041.90189, -46.98970,
,,,2046.83402, -46.98970,
,,,2051.76615, -46.98970,
,,,2056.69828, -46.98970,
,,,2061.63041, -46.98970,
,,,2066.56254, -44.58970,
,,,2071.49467, -46.98970,
,,,2076.42680, -46.98970,
,,,2081.35893, -46.98970,
,,,2086.29106, -44.58970,
,,,2091.22319, -41.38970,
,,,2096.15532, -41.38970,
,,,2101.08745, -41.38970,
,,,2106.01958, -46.98970,
,,,2110.95171, -46.98970,
,,,2115.88384, -46.98970,
,,,2120.81597, -44.58970,
,,,2125.74810, -44.58970,
,,,2130.68023, -40.58970,
,,,2135.61236, -46.98970,
,,,2140.54449, -44.58970,
,,,2145.47662, -46.98970,
,,,2150.40875, -46.98970,
,,,2155.34088, -46.98970,
,,,2160.27301, -46.98970,
,,,2165.20514, -46.98970,
,,,2170.13727, -46.98970,
,,,2175.06940, -46.98970,
,,,2180.00153, -44.58970,
,,,2184.93366, -46.98970,
,,,2189.86579, -40.58970,
,,,2194.79792, -46.98970,
,,,2199.73005, -46.98970,
,,,2204.66218, -46.98970,
,,,2209.59431, -46.98970,
,,,2214.52644, -46.98970,
,,,2219.45857, -44.58970,
,,,2224.39070, -46.98970,
,,,2229.32283, -46.98970,
,,,2234.25496, -46.98970,
,,,2239.18709, -46.98970,
,,,2244.11922, -46.98970,
,,,2249.05135, -46.98970,
,,,2253.98348, -46.98970,
,,,2258.91561, -44.58970,
,,,2263.84774, -46.98970,
,,,2268.77987, -46.98970,
,,,2273.71200, -46.98970,
,,,2278.64413, -44.58970,
,,,2283.57626, -40.58970,
,,,2288.50839, -44.58970,
,,,2293.44052, -46.98970,
,,,2298.37265, -46.98970,
,,,2303.30478, -44.58970,
,,,2308.23691, -46.98970,
,,,2313.16904, -41.38970,
,,,2318.10117, -40.58970,
,,,2323.03330, -41.38970,
,,,2327.96543, -40.58970,
,,,2332.89756, -44.58970,
,,,2337.82969, -40.58970,
,,,2342.76182, -41.38970,
,,,2347.69395, -46.98970,
,,,2352.62608, -46.98970,
,,,2357.55821, -46.98970,
,,,2362.49034, -46.98970,
,,,2367.42247, -46.98970,
,,,2372.35460, -46.98970,
,,,2377.28673, -41.38970,
,,,2382.21886, -46.98970,
,,,2387.15099, -46.98970,
,,,2392.08312, -46.98970,
,,,2397.01525, -46.98970,
,,,2401.94738, -46.98970,
,,,2406.87951, -46.98970,
,,,2411.81164, -46.98970,
,,,2416.74377, -46.98970,
,,,2421.67590, -46.98970,
,,,2426.60803, -46.98970,
,,,2431.54016, -46.98970,
,,,2436.47229, -46.98970,
,,,2441.40442, -46.98970,
,,,2446.33655, -46.98970,
,,,2451.26868, -46.98970,
,,,2456.20081, -46.98970,
,,,2461.13294, -44.58970,
,,,2466.06507, -46.98970,
,,,2470.99720, -46.98970,
,,,2475.92933, -46.98970,
,,,2480.86146, -44.58970,
,,,2485.79359, -46.98970,
,,,2490.72572, -46.98970,
,,,2495.65785, -46.98970,
,,,2500.58998, -46.98970,
,,,2505.52211, -46.98970,
,,,2510.45424, -46.98970,
,,,2515.38637, -46.98970,
,,,2520.31850, -44.58970,
,,,2525.25063, -46.98970,
,,,2530.18276, -46.98970,
,,,2535.11489, -44.58970,
,,,2540.04702, -44.58970,
,,,2544.97915, -46.98970,
,,,2549.91128, -46.98970,
,,,2554.84341, -46.98970,
,,,2559.77554, -46.98970,
,,,2564.70767, -46.98970,
,,,2569.63980, -46.98970,
,,,2574.57193, -46.98970,
,,,2579.50406, -46.98970,
,,,2584.43619, -46.98970,
,,,2589.36832, -46.98970,
,,,2594.30045, -46.98970,
,,,2599.23258, -46.98970,
,,,2604.16471, -46.98970,
,,,2609.09684, -46.98970,
,,,2614.02897, -46.98970,
,,,2618.96110, -46.98970,
,,,2623.89323, -46.98970,
,,,2628.82536, -46.98970,
,,,2633.75749, -46.98970,
,,,2638.68962, -46.98970,
,,,2643.62175, -46.98970,
,,,2648.55388, -46.98970,
,,,2653.48601, -46.98970,
,,,2658.41814, -46.98970,
,,,2663.35027, -46.98970,
,,,2668.28240, -44.58970,
,,,2673.21453, -46.98970,
,,,2678.14666, -46.98970,
,,,2683.07879, -44.58970,
,,,2688.01092, -40.58970,
,,,2692.94305, -40.58970,
,,,2697.87518, -44.58970,
,,,2702.80731, -46.98970,
,,,2707.73944, -46.98970,
,,,2712.67157, -46.98970,
,,,2717.60370, -46.98970,
,,,2722.53583, -44.58970,
,,,2727.46796, -44.58970,
,,,2732.40009, -44.58970,
,,,2737.33222, -46.98970,
,,,2742.26435, -46.98970,
,,,2747.19648, -44.58970,
,,,2752.12861, -46.98970,
,,,2757.06074, -46.98970,
,,,2761.99287, -46.98970,
,,,2766.92500, -46.98970,
,,,2771.85713, -46.98970,
,,,2776.78926, -46.98970,
,,,2781.72139, -46.98970,
,,,2786.65352, -46.98970,
,,,2791.58565, -44.58970,
,,,2796.51778, -44.58970,
,,,2801.44991, -46.98970,
,,,2806.38204, -46.98970,
,,,2811.31417, -46.98970,
,,,2816.24630, -46.98970,
,,,2821.17843, -46.98970,
,,,2826.11056, -46.98970,
,,,2831.04269, -46.98970,
,,,2835.97482, -46.98970,
,,,2840.90695, -46.98970,
,,,2845.83908, -46.98970,
,,,2850.77121, -46.98970,
,,,2855.70334, -46.98970,
,,,2860.63547, -46.98970,
,,,2865.56760, -46.98970,
,,,2870.49973, -46.98970,
,,,2875.43186, -46.98970,
,,,2880.36399, -46.98970,
,,,2885.29612, -46.98970,
,,,2890.22825, -46.98970,
,,,2895.16038, -46.98970,
,,,2900.09251, -46.98970,
,,,2905.02464, -46.98970,
,,,2909.95677, -46.98970,
,,,2914.88890, -46.98970,
,,,2919.82103, -46.98970,
,,,2924.75316, -46.98970,
,,,2929.68529, -44.58970,
,,,2934.61742, -46.98970,
,,,2939.54955, -46.98970,
,,,2944.48168, -46.98970,
,,,2949.41381, -46.98970,
,,,2954.34594, -46.98970,
,,,2959.27807, -46.98970,
,,,2964.21020, -44.58970,
,,,2969.14233, -44.58970,
,,,2974.07446, -46.98970,
,,,2979.00659, -46.98970,
,,,2983.93872, -46.98970,
,,,2988.87085, -46.98970,
,,,2993.80298, -46.98970,
,,,2998.73511, -46.98970,
,,,3003.66724, -46.98970,
,,,3008.59937, -46.98970,
,,,3013.53150, -44.58970,
,,,3018.46363, -44.58970,
,,,3023.39576, -44.58970,
,,,3028.32789, -46.98970,
,,,3033.26002, -46.98970,
,,,3038.19215, -44.58970,
,,,3043.12428, -46.98970,
,,,3048.05641, -46.98970,
,,,3052.98854, -46.98970,
,,,3057.92067, -46.98970,
,,,3062.85280, -44.58970,
,,,3067.78493, -46.98970,
,,,3072.71706, -46.98970,
,,,3077.64919, -44.58970,
,,,3082.58132, -44.58970,
,,,3087.51345, -44.58970,
,,,3092.44558, -46.98970,
,,,3097.37771, -46.98970,
,,,3102.30984, -46.98970,
,,,3107.24197, -44.58970,
,,,3112.17410, -44.58970,
,,,3117.10623, -44.58970,
,,,3122.03836, -44.58970,
,,,3126.97049, -44.58970,
,,,3131.90262, -46.98970,
,,,3136.83475, -46.98970,
,,,3141.76688, -46.98970,
,,,3146.69901, -46.98970,
,,,3151.63114, -46.98970,
,,,3156.56327, -46.98970,
,,,3161.49540, -44.58970,
,,,3166.42753, -46.98970,
,,,3171.35966, -46.98970,
,,,3176.29179, -46.98970,
,,,3181.22392, -46.98970,
,,,3186.15605, -44.58970,
,,,3191.08818, -44.58970,
,,,3196.02031, -40.58970,
,,,3200.95244, -44.58970,
,,,3205.88457, -41.38970,
,,,3210.81670, -46.98970,
,,,3215.74883, -46.98970,
,,,3220.68096, -46.98970,
,,,3225.61309, -44.58970,
,,,3230.54522, -38.58970,
,,,3235.47735, -40.58970,
,,,3240.40948, -44.58970,
,,,3245.34161, -46.98970,
,,,3250.27374, -46.98970,
,,,3255.20587, -46.98970,
,,,3260.13800, -46.98970,
,,,3265.07013, -46.98970,
,,,3270.00226, -44.58970,
,,,3274.93439, -44.58970,
,,,3279.86652, -46.98970,
,,,3284.79865, -46.98970,
,,,3289.73078, -44.58970,
,,,3294.66291, -44.58970,
,,,3299.59504, -46.98970,
,,,3304.52717, -44.58970,
,,,3309.45930, -44.58970,
,,,3314.39143, -44.58970,
,,,3319.32356, -44.58970,
,,,3324.25569, -44.58970,
,,,3329.18782, -46.98970,
,,,3334.11995, -46.98970,
,,,3339.05208, -44.58970,
,,,3343.98421, -46.98970,
,,,3348.91634, -46.98970,
,,,3353.84847, -46.98970,
,,,3358.78060, -46.98970,
,,,3363.71273, -40.58970,
,,,3368.64486, -46.98970,
,,,3373.57699, -46.98970,
,,,3378.50912, -46.98970,
,,,3383.44125, -46.98970,
,,,3388.37338, -44.58970,
,,,3393.30551, -44.58970,
,,,3398.23764, -46.98970,
,,,3403.16977, -46.98970,
,,,3408.10190, -44.58970,
,,,3413.03403, -46.98970,
,,,3417.96616, -46.98970,
,,,3422.89829, -46.98970,
,,,3427.83042, -46.98970,
,,,3432.76255, -46.98970,
,,,3437.69468, -46.98970,
,,,3442.62681, -46.98970,
,,,3447.55894, -44.58970,
,,,3452.49107, -46.98970,
,,,3457.42320, -40.58970,
,,,3462.35533, -40.58970,
,,,3467.28746, -40.58970,
,,,3472.21959, -44.58970,
,,,3477.15172, -46.98970,
,,,3482.08385, -46.98970,
,,,3487.01598, -46.98970,
,,,3491.94811, -46.98970,
,,,3496.88024, -46.98970,
,,,3501.81237, -46.98970,
,,,3506.74450, -46.98970,
,,,3511.67663, -46.98970,
,,,3516.60876, -46.98970,
,,,3521.54089, -46.98970,
,,,3526.47302, -46.98970,
,,,3531.40515, -46.98970,
,,,3536.33728, -46.98970,
,,,3541.26941, -46.98970,
,,,3546.20154, -46.98970,
,,,3551.13367, -46.98970,
,,,3556.06580, -44.58970,
,,,3560.99793, -40.58970,
,,,3565.93006, -44.58970,
,,,3570.86219, -44.58970,
,,,3575.79432, -46.98970,
,,,3580.72645, -46.98970,
,,,3585.65858, -46.98970,
,,,3590.59071, -46.98970,
,,,3595.52284, -46.98970,
,,,3600.45497, -46.98970,
,,,3605.38710, -46.98970,
,,,3610.31923, -46.98970,
,,,3615.25136, -46.98970,
,,,3620.18349, -44.58970,
,,,3625.11562, -44.58970,
,,,3630.04775, -46.98970,
,,,3634.97988, -46.98970,
,,,3639.91201, -46.98970,
,,,3644.84414, -46.98970,
,,,3649.77627, -46.98970,
,,,3654.70840, -46.98970,
,,,3659.64053, -46.98970,
,,,3664.57266, -46.98970,
,,,3669.50479, -46.98970,
,,,3674.43692, -40.58970,
,,,3679.36905, -40.58970,
,,,3684.30118, -44.58970,
,,,3689.23331, -46.98970,
,,,3694.16544, -46.98970,
,,,3699.09757, -44.58970,
,,,3704.02970, -46.98970,
,,,3708.96183, -46.98970,
,,,3713.89396, -44.58970,
,,,3718.82609, -46.98970,
,,,3723.75822, -46.98970,
,,,3728.69035, -46.98970,
,,,3733.62248, -46.98970,
,,,3738.55461, -46.98970,
