furier_c2/ALL0000/F0000FFT.CSV

Record Length,1.024000e+03,,          0.00000, -54.94850,
Sample Interval,4.932134e+00,,          4.93213,   1.85150,
Trigger Point,-0.000000000000e+00,,          9.86427,   7.05150,
,,,         14.79640,   7.45150,
,,,         19.72854,   6.65150,
,,,         24.66067,  -1.74850,
Source,FFT,,         29.59280, -25.74850,
Vertical Units,dB,,         34.52494,  -4.94850,
Vertical Scale,1.000000e+01,,         39.45707,  -2.14850,
Vertical Offset,0.000000e+00,,         44.38920,  -2.14850,
Horizontal Units,Hz,,         49.32134,  -4.14850,
Horizontal Scale,5.050505e+02,,         54.25347, -16.54850,
Pt Fmt,Y,,         59.18561, -19.74850,
Yzero,-1.494850e+01,,         64.11774,  -7.74850,
Probe Atten,1.000000e+00,,         69.04987,  -6.54850,
Model Number,TBS1052B-EDU,,         73.98201,  -6.54850,
Serial Number,C027597,,         78.91414, -10.14850,
Firmware Version,FV:v4.06,,         83.84628, -28.14850,
,,,88.77841, -17.34850,
,,,93.71054,  -9.74850,
,,,98.64267,  -9.34850,
,,,103.57480,  -9.34850,
,,,108.50693, -16.14850,
,,,113.43906, -34.94850,
,,,118.37119, -15.74850,
,,,123.30332, -10.94850,
,,,128.23545, -10.94850,
,,,133.16758, -12.14850,
,,,138.09971, -22.14850,
,,,143.03184, -29.74850,
,,,147.96397, -14.94850,
,,,152.89610, -12.54850,
,,,157.82823, -12.54850,
,,,162.76036, -14.94850,
,,,167.69249, -30.14850,
,,,172.62462, -24.94850,
,,,177.55675, -14.94850,
,,,182.48888, -13.74850,
,,,187.42101, -13.74850,
,,,192.35314, -18.54850,
,,,197.28527, -38.14850,
,,,202.21740, -21.34850,
,,,207.14953, -14.94850,
,,,212.08166, -14.54850,
,,,217.01379, -15.34850,
,,,221.94592, -22.94850,
,,,226.87805, -38.14850,
,,,231.81018, -18.94850,
,,,236.74231, -15.34850,
,,,241.67444, -15.34850,
,,,246.60657, -16.54850,
,,,251.53870, -28.54850,
,,,256.47083, -30.14850,
,,,261.40296, -17.34850,
,,,266.33509, -15.74850,
,,,271.26722, -15.74850,
,,,276.19935, -18.94850,
,,,281.13148, -36.54850,
,,,286.06361, -25.34850,
,,,290.99574, -16.54850,
,,,295.92787, -15.74850,
,,,300.86000, -16.14850,
,,,305.79213, -21.74850,
,,,310.72426, -40.14850,
,,,315.65639, -21.34850,
,,,320.58852, -16.14850,
,,,325.52065, -16.14850,
,,,330.45278, -16.94850,
,,,335.38491, -26.14850,
,,,340.31704, -34.94850,
,,,345.24917, -19.34850,
,,,350.18130, -16.14850,
,,,355.11343, -16.14850,
,,,360.04556, -18.14850,
,,,364.97769, -30.94850,
,,,369.90982, -28.54850,
,,,374.84195, -17.34850,
,,,379.77408, -16.14850,
,,,384.70621, -16.54850,
,,,389.63834, -20.14850,
,,,394.57047, -40.94850,
,,,399.50260, -23.74850,
,,,404.43473, -16.54850,
,,,409.36686, -16.14850,
,,,414.29899, -16.54850,
,,,419.23112, -23.34850,
,,,424.16325, -41.34850,
,,,429.09538, -20.94850,
,,,434.02751, -16.54850,
,,,438.95964, -16.54850,
,,,443.89177, -17.74850,
,,,448.82390, -27.74850,
,,,453.75603, -33.74850,
,,,458.68816, -18.94850,
,,,463.62029, -16.94850,
,,,468.55242, -16.94850,
,,,473.48455, -19.34850,
,,,478.41668, -35.34850,
,,,483.34881, -28.54850,
,,,488.28094, -18.54850,
,,,493.21307, -17.74850,
,,,498.14520, -17.74850,
,,,503.07733, -22.54850,
,,,508.00946, -45.34850,
,,,512.94159, -25.34850,
,,,517.87372, -18.94850,
,,,522.80585, -18.94850,
,,,527.73798, -19.34850,
,,,532.67011, -27.34850,
,,,537.60224, -40.94850,
,,,542.53437, -23.34850,
,,,547.46650, -19.74850,
,,,552.39863, -19.74850,
,,,557.33076, -21.74850,
,,,562.26289, -33.74850,
,,,567.19502, -35.74850,
,,,572.12715, -22.94850,
,,,577.05928, -21.34850,
,,,581.99141, -21.34850,
,,,586.92354, -24.54850,
,,,591.85567, -41.34850,
,,,596.78780, -31.74850,
,,,601.71993, -23.74850,
,,,606.65206, -22.94850,
,,,611.58419, -22.94850,
,,,616.51632, -28.94850,
,,,621.44845, -46.54850,
,,,626.38058, -28.94850,
,,,631.31271, -24.14850,
,,,636.24484, -24.14850,
,,,641.17697, -25.34850,
,,,646.10910, -34.14850,
,,,651.04123, -44.14850,
,,,655.97336, -28.14850,
,,,660.90549, -25.34850,
,,,665.83762, -25.34850,
,,,670.76975, -27.74850,
,,,675.70188, -41.34850,
,,,680.63401, -39.34850,
,,,685.56614, -28.54850,
,,,690.49827, -26.94850,
,,,695.43040, -27.34850,
,,,700.36253, -30.94850,
,,,705.29466, -48.54850,
,,,710.22679, -35.34850,
,,,715.15892, -28.54850,
,,,720.09105, -28.14850,
,,,725.02318, -28.54850,
,,,729.95531, -35.34850,
,,,734.88744, -54.94850,
,,,739.81957, -34.54850,
,,,744.75170, -30.14850,
,,,749.68383, -30.14850,
,,,754.61596, -30.94850,
,,,759.54809, -41.34850,
,,,764.48022, -48.54850,
,,,769.41235, -32.94850,
,,,774.34448, -30.94850,
,,,779.27661, -30.94850,
,,,784.20874, -34.54850,
,,,789.14087, -52.54850,
,,,794.07300, -44.14850,
,,,799.00513, -32.94850,
,,,803.93726, -31.34850,
,,,808.86939, -31.74850,
,,,813.80152, -36.94850,
,,,818.73365, -54.94850,
,,,823.66578, -37.74850,
,,,828.59791, -32.94850,
,,,833.53004, -32.94850,
,,,838.46217, -33.74850,
,,,843.39430, -40.94850,
,,,848.32643, -49.34850,
,,,853.25856, -36.14850,
,,,858.19069, -32.94850,
,,,863.12282, -33.34850,
,,,868.05495, -35.34850,
,,,872.98708, -45.34850,
,,,877.91921, -49.34850,
,,,882.85134, -35.34850,
,,,887.78347, -34.14850,
,,,892.71560, -34.94850,
,,,897.64773, -38.54850,
,,,902.57986, -52.54850,
,,,907.51199, -43.34850,
,,,912.44412, -35.74850,
,,,917.37625, -34.94850,
,,,922.30838, -34.94850,
,,,927.24051, -41.34850,
,,,932.17264, -52.54850,
,,,937.10477, -41.34850,
,,,942.03690, -36.94850,
,,,946.96903, -36.94850,
,,,951.90116, -38.54850,
,,,956.83329, -48.54850,
,,,961.76542, -54.94850,
,,,966.69755, -39.74850,
,,,971.62968, -37.34850,
,,,976.56181, -37.34850,
,,,981.49394, -39.74850,
,,,986.42607, -54.94850,
,,,991.35820, -54.94850,
,,,996.29033, -39.74850,
,,,1001.22246, -38.54850,
,,,1006.15459, -38.54850,
,,,1011.08672, -42.94850,
,,,1016.01885, -54.94850,
,,,1020.95098, -49.34850,
,,,1025.88311, -41.34850,
,,,1030.81524, -39.74850,
,,,1035.74737, -38.54850,
,,,1040.67950, -45.74850,
,,,1045.61163, -54.94850,
,,,1050.54376, -45.74850,
,,,1055.47589, -41.34850,
,,,1060.40802, -41.34850,
,,,1065.34015, -43.34850,
,,,1070.27228, -54.94850,
,,,1075.20441, -54.94850,
,,,1080.13654, -41.34850,
,,,1085.06867, -38.54850,
,,,1090.00080, -38.54850,
,,,1094.93293, -41.34850,
,,,1099.86506, -54.94850,
,,,1104.79719, -49.34850,
,,,1109.72932, -41.34850,
,,,1114.66145, -41.34850,
,,,1119.59358, -41.34850,
,,,1124.52571, -42.94850,
,,,1129.45784, -54.94850,
,,,1134.38997, -42.94850,
,,,1139.32210, -39.74850,
,,,1144.25423, -41.34850,
,,,1149.18636, -41.34850,
,,,1154.11849, -48.54850,
,,,1159.05062, -54.94850,
,,,1163.98275, -45.74850,
,,,1168.91488, -41.34850,
,,,1173.84701, -41.34850,
,,,1178.77914, -41.34850,
,,,1183.71127, -54.94850,
,,,1188.64340, -52.54850,
,,,1193.57553, -41.34850,
,,,1198.50766, -40.94850,
,,,1203.43979, -41.34850,
,,,1208.37192, -42.94850,
,,,1213.30405, -54.94850,
,,,1218.23618, -49.34850,
,,,1223.16831, -44.14850,
,,,1228.10044, -44.14850,
,,,1233.03257, -42.94850,
,,,1237.96470, -48.54850,
,,,1242.89683, -52.54850,
,,,1247.82896, -45.34850,
,,,1252.76109, -42.54850,
,,,1257.69322, -41.34850,
,,,1262.62535, -42.54850,
,,,1267.55748, -54.94850,
,,,1272.48961, -54.94850,
,,,1277.42174, -48.54850,
,,,1282.35387, -46.54850,
,,,1287.28600, -46.54850,
,,,1292.21813, -48.54850,
,,,1297.15026, -54.94850,
,,,1302.08239, -49.34850,
,,,1307.01452, -46.54850,
,,,1311.94665, -42.94850,
,,,1316.87878, -44.14850,
,,,1321.81091, -52.54850,
,,,1326.74304, -54.94850,
,,,1331.67517, -54.94850,
,,,1336.60730, -46.54850,
,,,1341.53943, -44.14850,
,,,1346.47156, -44.14850,
,,,1351.40369, -48.54850,
,,,1356.33582, -52.54850,
,,,1361.26795, -46.54850,
,,,1366.20008, -42.94850,
,,,1371.13221, -44.14850,
,,,1376.06434, -44.14850,
,,,1380.99647, -52.54850,
,,,1385.92860, -54.94850,
,,,1390.86073, -52.54850,
,,,1395.79286, -52.54850,
,,,1400.72499, -46.54850,
,,,1405.65712, -48.54850,
,,,1410.58925, -54.94850,
,,,1415.52138, -54.94850,
,,,1420.45351, -44.14850,
,,,1425.38564, -48.54850,
,,,1430.31777, -45.34850,
,,,1435.24990, -48.54850,
,,,1440.18203, -52.54850,
,,,1445.11416, -48.54850,
,,,1450.04629, -44.14850,
,,,1454.97842, -48.54850,
,,,1459.91055, -45.34850,
,,,1464.84268, -49.34850,
,,,1469.77481, -54.94850,
,,,1474.70694, -44.14850,
,,,1479.63907, -41.34850,
,,,1484.57120, -44.14850,
,,,1489.50333, -45.34850,
,,,1494.43546, -54.94850,
,,,1499.36759, -54.94850,
,,,1504.29972, -48.54850,
,,,1509.23185, -45.34850,
,,,1514.16398, -44.14850,
,,,1519.09611, -48.54850,
,,,1524.02824, -52.54850,
,,,1528.96037, -54.94850,
,,,1533.89250, -46.54850,
,,,1538.82463, -44.14850,
,,,1543.75676, -44.14850,
,,,1548.68889, -46.54850,
,,,1553.62102, -49.34850,
,,,1558.55315, -48.54850,
,,,1563.48528, -44.14850,
,,,1568.41741, -46.54850,
,,,1573.34954, -45.34850,
,,,1578.28167, -54.94850,
,,,1583.21380, -54.94850,
,,,1588.14593, -45.74850,
,,,1593.07806, -45.34850,
,,,1598.01019, -45.34850,
,,,1602.94232, -42.94850,
,,,1607.87445, -49.34850,
,,,1612.80658, -45.74850,
,,,1617.73871, -49.34850,
,,,1622.67084, -49.34850,
,,,1627.60297, -54.94850,
,,,1632.53510, -54.94850,
,,,1637.46723, -54.94850,
,,,1642.39936, -49.34850,
,,,1647.33149, -42.54850,
,,,1652.26362, -41.34850,
,,,1657.19575, -45.34850,
,,,1662.12788, -49.34850,
,,,1667.06001, -54.94850,
,,,1671.99214, -45.34850,
,,,1676.92427, -43.34850,
,,,1681.85640, -43.34850,
,,,1686.78853, -45.34850,
,,,1691.72066, -54.94850,
,,,1696.65279, -54.94850,
,,,1701.58492, -45.34850,
,,,1706.51705, -43.34850,
,,,1711.44918, -43.34850,
,,,1716.38131, -43.34850,
,,,1721.31344, -49.34850,
,,,1726.24557, -49.34850,
,,,1731.17770, -45.34850,
,,,1736.10983, -45.74850,
,,,1741.04196, -48.54850,
,,,1745.97409, -52.54850,
,,,1750.90622, -54.94850,
,,,1755.83835, -54.94850,
,,,1760.77048, -48.54850,
,,,1765.70261, -45.34850,
,,,1770.63474, -48.54850,
,,,1775.56687, -54.94850,
,,,1780.49900, -54.94850,
,,,1785.43113, -48.54850,
,,,1790.36326, -48.54850,
,,,1795.29539, -49.34850,
,,,1800.22752, -48.54850,
,,,1805.15965, -54.94850,
,,,1810.09178, -54.94850,
,,,1815.02391, -49.34850,
,,,1819.95604, -49.34850,
,,,1824.88817, -45.74850,
,,,1829.82030, -49.34850,
,,,1834.75243, -54.94850,
,,,1839.68456, -48.54850,
,,,1844.61669, -45.74850,
,,,1849.54882, -48.54850,
,,,1854.48095, -48.54850,
,,,1859.41308, -54.94850,
,,,1864.34521, -54.94850,
,,,1869.27734, -54.94850,
,,,1874.20947, -45.34850,
,,,1879.14160, -45.74850,
,,,1884.07373, -48.54850,
,,,1889.00586, -52.54850,
,,,1893.93799, -54.94850,
,,,1898.87012, -48.54850,
,,,1903.80225, -49.34850,
,,,1908.73438, -48.54850,
,,,1913.66651, -52.54850,
,,,1918.59864, -54.94850,
,,,1923.53077, -54.94850,
,,,1928.46290, -48.54850,
,,,1933.39503, -48.54850,
,,,1938.32716, -48.54850,
,,,1943.25929, -54.94850,
,,,1948.19142, -54.94850,
,,,1953.12355, -48.54850,
,,,1958.05568, -48.54850,
,,,1962.98781, -48.54850,
,,,1967.91994, -48.54850,
,,,1972.85207, -54.94850,
,,,1977.78420, -54.94850,
,,,1982.71633, -54.94850,
,,,1987.64846, -46.54850,
,,,1992.58059, -44.14850,
,,,1997.51272, -46.54850,
,,,2002.44485, -52.54850,
,,,2007.37698, -54.94850,
,,,2012.30911, -54.94850,
,,,2017.24124, -49.34850,
,,,2022.17337, -54.94850,
,,,2027.10550, -49.34850,
,,,2032.03763, -54.94850,
,,,2036.96976, -49.34850,
,,,2041.90189, -42.54850,
,,,2046.83402, -44.14850,
,,,2051.76615, -45.74850,
,,,2056.69828, -54.94850,
,,,2061.63041, -54.94850,
,,,2066.56254, -54.94850,
,,,2071.49467, -45.34850,
,,,2076.42680, -45.34850,
,,,2081.35893, -48.54850,
,,,2086.29106, -54.94850,
,,,2091.22319, -54.94850,
,,,2096.15532, -49.34850,
,,,2101.08745, -49.34850,
,,,2106.01958, -49.34850,
,,,2110.95171, -54.94850,
,,,2115.88384, -54.94850,
,,,2120.81597, -54.94850,
,,,2125.74810, -48.54850,
,,,2130.68023, -45.74850,
,,,2135.61236, -43.34850,
,,,2140.54449, -49.34850,
,,,2145.47662, -54.94850,
,,,2150.40875, -54.94850,
,,,2155.34088, -48.54850,
,,,2160.27301, -44.14850,
,,,2165.20514, -45.34850,
,,,2170.13727, -49.34850,
,,,2175.06940, -54.94850,
,,,2180.00153, -49.34850,
,,,2184.93366, -42.94850,
,,,2189.86579, -45.74850,
,,,2194.79792, -49.34850,
,,,2199.73005, -54.94850,
,,,2204.66218, -54.94850,
,,,2209.59431, -45.74850,
,,,2214.52644, -43.34850,
,,,2219.45857, -43.34850,
,,,2224.39070, -49.34850,
,,,2229.32283, -54.94850,
,,,2234.25496, -54.94850,
,,,2239.18709, -45.74850,
,,,2244.11922, -49.34850,
,,,2249.05135, -45.74850,
,,,2253.98348, -52.54850,
,,,2258.91561, -52.54850,
,,,2263.84774, -46.54850,
,,,2268.77987, -42.94850,
,,,2273.71200, -45.74850,
,,,2278.64413, -48.54850,
,,,2283.57626, -54.94850,
,,,2288.50839, -54.94850,
,,,2293.44052, -48.54850,
,,,2298.37265, -43.34850,
,,,2303.30478, -43.34850,
,,,2308.23691, -45.74850,
,,,2313.16904, -54.94850,
,,,2318.10117, -54.94850,
,,,2323.03330, -54.94850,
,,,2327.96543, -52.54850,
,,,2332.89756, -54.94850,
,,,2337.82969, -52.54850,
,,,2342.76182, -54.94850,
,,,2347.69395, -54.94850,
,,,2352.62608, -54.94850,
,,,2357.55821, -49.34850,
,,,2362.49034, -52.54850,
,,,2367.42247, -54.94850,
,,,2372.35460, -54.94850,
,,,2377.28673, -54.94850,
,,,2382.21886, -48.54850,
,,,2387.15099, -52.54850,
,,,2392.08312, -52.54850,
,,,2397.01525, -54.94850,
,,,2401.94738, -54.94850,
,,,2406.87951, -52.54850,
,,,2411.81164, -54.94850,
,,,2416.74377, -54.94850,
,,,2421.67590, -54.94850,
,,,2426.60803, -54.94850,
,,,2431.54016, -54.94850,
,,,2436.47229, -54.94850,
,,,2441.40442, -54.94850,
,,,2446.33655, -52.54850,
,,,2451.26868, -54.94850,
,,,2456.20081, -54.94850,
,,,2461.13294, -54.94850,
,,,2466.06507, -48.54850,
,,,2470.99720, -48.54850,
,,,2475.92933, -48.54850,
,,,2480.86146, -52.54850,
,,,2485.79359, -54.94850,
,,,2490.72572, -54.94850,
,,,2495.65785, -54.94850,
,,,2500.58998, -54.94850,
,,,2505.52211, -52.54850,
,,,2510.45424, -54.94850,
,,,2515.38637, -54.94850,
,,,2520.31850, -52.54850,
,,,2525.25063, -54.94850,
,,,2530.18276, -54.94850,
,,,2535.11489, -54.94850,
,,,2540.04702, -52.54850,
,,,2544.97915, -54.94850,
,,,2549.91128, -54.94850,
,,,2554.84341, -54.94850,
,,,2559.77554, -54.94850,
,,,2564.70767, -54.94850,
,,,2569.63980, -54.94850,
,,,2574.57193, -48.54850,
,,,2579.50406, -52.54850,
,,,2584.43619, -52.54850,
,,,2589.36832, -54.94850,
,,,2594.30045, -54.94850,
,,,2599.23258, -54.94850,
,,,2604.16471, -54.94850,
,,,2609.09684, -54.94850,
,,,2614.02897, -54.94850,
,,,2618.96110, -54.94850,
,,,2623.89323, -54.94850,
,,,2628.82536, -54.94850,
,,,2633.75749, -52.54850,
,,,2638.68962, -54.94850,
,,,2643.62175, -52.54850,
,,,2648.55388, -54.94850,
,,,2653.48601, -54.94850,
,,,2658.41814, -54.94850,
,,,2663.35027, -54.94850,
,,,2668.28240, -54.94850,
,,,2673.21453, -54.94850,
,,,2678.14666, -54.94850,
,,,2683.07879, -54.94850,
,,,2688.01092, -54.94850,
,,,2692.94305, -54.94850,
,,,2697.87518, -54.94850,
,,,2702.80731, -54.94850,
,,,2707.73944, -54.94850,
,,,2712.67157, -54.94850,
,,,2717.60370, -54.94850,
,,,2722.53583, -54.94850,
,,,2727.46796, -54.94850,
,,,2732.40009, -54.94850,
,,,2737.33222, -54.94850,
,,,2742.26435, -54.94850,
,,,2747.19648, -52.54850,
,,,2752.12861, -54.94850,
,,,2757.06074, -54.94850,
,,,2761.99287, -49.34850,
,,,2766.92500, -48.54850,
,,,2771.85713, -48.54850,
,,,2776.78926, -49.34850,
,,,2781.72139, -54.94850,
,,,2786.65352, -52.54850,
,,,2791.58565, -54.94850,
,,,2796.51778, -54.94850,
,,,2801.44991, -54.94850,
,,,2806.38204, -54.94850,
,,,2811.31417, -52.54850,
,,,2816.24630, -54.94850,
,,,2821.17843, -52.54850,
,,,2826.11056, -52.54850,
,,,2831.04269, -54.94850,
,,,2835.97482, -54.94850,
,,,2840.90695, -54.94850,
,,,2845.83908, -54.94850,
,,,2850.77121, -54.94850,
,,,2855.70334, -54.94850,
,,,2860.63547, -54.94850,
,,,2865.56760, -52.54850,
,,,2870.49973, -48.54850,
,,,2875.43186, -52.54850,
,,,2880.36399, -52.54850,
,,,2885.29612, -52.54850,
,,,2890.22825, -54.94850,
,,,2895.16038, -54.94850,
,,,2900.09251, -52.54850,
,,,2905.02464, -54.94850,
,,,2909.95677, -54.94850,
,,,2914.88890, -52.54850,
,,,2919.82103, -54.94850,
,,,2924.75316, -54.94850,
,,,2929.68529, -49.34850,
,,,2934.61742, -52.54850,
,,,2939.54955, -54.94850,
,,,2944.48168, -54.94850,
,,,2949.41381, -54.94850,
,,,2954.34594, -54.94850,
,,,2959.27807, -54.94850,
,,,2964.21020, -54.94850,
,,,2969.14233, -54.94850,
,,,2974.07446, -54.94850,
,,,2979.00659, -54.94850,
,,,2983.93872, -54.94850,
,,,2988.87085, -54.94850,
,,,2993.80298, -54.94850,
,,,2998.73511, -54.94850,
,,,3003.66724, -52.54850,
,,,3008.59937, -54.94850,
,,,3013.53150, -54.94850,
,,,3018.46363, -54.94850,
,,,3023.39576, -54.94850,
,,,3028.32789, -54.94850,
,,,3033.26002, -52.54850,
,,,3038.19215, -54.94850,
,,,3043.12428, -52.54850,
,,,3048.05641, -54.94850,
,,,3052.98854, -52.54850,
,,,3057.92067, -54.94850,
,,,3062.85280, -54.94850,
,,,3067.78493, -54.94850,
,,,3072.71706, -54.94850,
,,,3077.64919, -54.94850,
,,,3082.58132, -54.94850,
,,,3087.51345, -54.94850,
,,,3092.44558, -54.94850,
,,,3097.37771, -54.94850,
,,,3102.30984, -54.94850,
,,,3107.24197, -54.94850,
,,,3112.17410, -54.94850,
,,,3117.10623, -54.94850,
,,,3122.03836, -54.94850,
,,,3126.97049, -54.94850,
,,,3131.90262, -52.54850,
,,,3136.83475, -54.94850,
,,,3141.76688, -52.54850,
,,,3146.69901, -49.34850,
,,,3151.63114, -48.54850,
,,,3156.56327, -52.54850,
,,,3161.49540, -54.94850,
,,,3166.42753, -54.94850,
,,,3171.35966, -54.94850,
,,,3176.29179, -54.94850,
,,,3181.22392, -54.94850,
,,,3186.15605, -54.94850,
,,,3191.08818, -54.94850,
,,,3196.02031, -54.94850,
,,,3200.95244, -54.94850,
,,,3205.88457, -52.54850,
,,,3210.81670, -54.94850,
,,,3215.74883, -54.94850,
,,,3220.68096, -52.54850,
,,,3225.61309, -49.34850,
,,,3230.54522, -52.54850,
,,,3235.47735, -54.94850,
,,,3240.40948, -54.94850,
,,,3245.34161, -54.94850,
,,,3250.27374, -49.34850,
,,,3255.20587, -49.34850,
,,,3260.13800, -54.94850,
,,,3265.07013, -48.54850,
,,,3270.00226, -48.54850,
,,,3274.93439, -48.54850,
,,,3279.86652, -54.94850,
,,,3284.79865, -52.54850,
,,,3289.73078, -54.94850,
,,,3294.66291, -54.94850,
,,,3299.59504, -54.94850,
,,,3304.52717, -54.94850,
,,,3309.45930, -54.94850,
,,,3314.39143, -54.94850,
,,,3319.32356, -54.94850,
,,,3324.25569, -52.54850,
,,,3329.18782, -54.94850,
,,,3334.11995, -52.54850,
,,,3339.05208, -54.94850,
,,,3343.98421, -54.94850,
,,,3348.91634, -54.94850,
,,,3353.84847, -49.34850,
,,,3358.78060, -54.94850,
,,,3363.71273, -54.94850,
,,,3368.64486, -52.54850,
,,,3373.57699, -48.54850,
,,,3378.50912, -49.34850,
,,,3383.44125, -54.94850,
,,,3388.37338, -54.94850,
,,,3393.30551, -54.94850,
,,,3398.23764, -54.94850,
,,,3403.16977, -54.94850,
,,,3408.10190, -54.94850,
,,,3413.03403, -54.94850,
,,,3417.96616, -48.54850,
,,,3422.89829, -54.94850,
,,,3427.83042, -52.54850,
,,,3432.76255, -54.94850,
,,,3437.69468, -54.94850,
,,,3442.62681, -52.54850,
,,,3447.55894, -52.54850,
,,,3452.49107, -54.94850,
,,,3457.42320, -52.54850,
,,,3462.35533, -54.94850,
,,,3467.28746, -52.54850,
,,,3472.21959, -54.94850,
,,,3477.15172, -54.94850,
,,,3482.08385, -54.94850,
,,,3487.01598, -54.94850,
,,,3491.94811, -54.94850,
,,,3496.88024, -54.94850,
,,,3501.81237, -54.94850,
,,,3506.74450, -54.94850,
,,,3511.67663, -54.94850,
,,,3516.60876, -54.94850,
,,,3521.54089, -54.94850,
,,,3526.47302, -54.94850,
,,,3531.40515, -54.94850,
,,,3536.33728, -54.94850,
,,,3541.26941, -54.94850,
,,,3546.20154, -54.94850,
,,,3551.13367, -54.94850,
,,,3556.06580, -54.94850,
,,,3560.99793, -54.94850,
,,,3565.93006, -54.94850,
,,,3570.86219, -54.94850,
,,,3575.79432, -54.94850,
,,,3580.72645, -54.94850,
,,,3585.65858, -54.94850,
,,,3590.59071, -54.94850,
,,,3595.52284, -48.54850,
,,,3600.45497, -54.94850,
,,,3605.38710, -54.94850,
,,,3610.31923, -54.94850,
,,,3615.25136, -52.54850,
,,,3620.18349, -48.54850,
,,,3625.11562, -49.34850,
,,,3630.04775, -54.94850,
,,,3634.97988, -54.94850,
,,,3639.91201, -54.94850,
,,,3644.84414, -54.94850,
,,,3649.77627, -54.94850,
,,,3654.70840, -54.94850,
,,,3659.64053, -54.94850,
,,,3664.57266, -54.94850,
,,,3669.50479, -54.94850,
,,,3674.43692, -54.94850,
,,,3679.36905, -54.94850,
,,,3684.30118, -52.54850,
,,,3689.23331, -54.94850,
,,,3694.16544, -54.94850,
,,,3699.09757, -52.54850,
,,,3704.02970, -54.94850,
,,,3708.96183, -54.94850,
,,,3713.89396, -54.94850,
,,,3718.82609, -54.94850,
,,,3723.75822, -52.54850,
,,,3728.69035, -54.94850,
,,,3733.62248, -54.94850,
,,,3738.55461, -52.54850,
