CSVs/DS0053.CSV

Memory Length,4000,
Trigger Level,-4.000E-01,
Source,CH2,
Probe,1X,
Vertical Units,V,
Vertical Scale,1.000E+01,
Vertical Position,0.000E+00,
Horizontal Units,s,
Horizontal Scale,1.000E-03,
Horizontal Position,0.000E+00,
Horizontal Mode,Main,
Sampling Period,4.000E-06,
Firmware,V1.13.001,
Time, ,
Mode,Fast,
Waveform Data,
-31,
-31,
25,
26,
26,
26,
26,
26,
26,
26,
26,
26,
26,
26,
26,
26,
26,
26,
26,
26,
26,
26,
27,
26,
26,
26,
26,
26,
26,
26,
27,
26,
26,
27,
26,
26,
26,
26,
26,
26,
26,
26,
26,
27,
26,
26,
26,
26,
26,
26,
27,
26,
26,
26,
26,
26,
26,
26,
27,
26,
26,
26,
26,
26,
26,
26,
26,
26,
26,
26,
26,
26,
26,
26,
26,
26,
26,
26,
26,
26,
26,
26,
25,
26,
25,
25,
25,
26,
25,
25,
25,
25,
25,
25,
25,
25,
24,
25,
26,
25,
25,
24,
25,
25,
25,
25,
24,
25,
25,
25,
24,
24,
25,
24,
24,
25,
24,
24,
25,
24,
24,
25,
24,
24,
24,
24,
24,
25,
24,
24,
24,
24,
24,
24,
25,
24,
24,
24,
25,
24,
25,
25,
24,
24,
25,
24,
25,
25,
25,
25,
25,
24,
25,
24,
25,
24,
25,
25,
25,
25,
25,
25,
25,
25,
24,
25,
25,
25,
25,
25,
25,
25,
25,
25,
25,
25,
25,
25,
25,
25,
25,
25,
25,
25,
25,
25,
25,
25,
25,
26,
25,
25,
25,
25,
25,
25,
25,
25,
25,
26,
25,
25,
25,
25,
25,
26,
25,
25,
26,
25,
26,
26,
25,
25,
26,
25,
25,
25,
26,
25,
26,
25,
25,
26,
25,
25,
24,
25,
25,
25,
25,
26,
26,
25,
25,
25,
25,
25,
25,
25,
25,
25,
25,
25,
25,
24,
25,
25,
25,
25,
25,
24,
25,
25,
24,
25,
25,
25,
25,
24,
25,
25,
24,
24,
25,
24,
24,
24,
25,
25,
25,
24,
25,
25,
25,
24,
24,
24,
25,
24,
24,
24,
24,
24,
24,
24,
24,
24,
24,
24,
24,
24,
24,
24,
24,
24,
24,
25,
24,
24,
24,
24,
24,
24,
24,
24,
24,
24,
24,
24,
24,
24,
24,
24,
24,
24,
24,
25,
24,
24,
24,
24,
24,
25,
24,
24,
24,
25,
24,
24,
24,
24,
24,
24,
24,
24,
24,
24,
24,
24,
24,
25,
24,
24,
24,
25,
25,
24,
24,
24,
25,
24,
25,
25,
24,
24,
25,
24,
25,
25,
24,
25,
25,
24,
24,
24,
24,
24,
25,
24,
24,
24,
25,
25,
24,
24,
24,
24,
24,
25,
24,
24,
24,
25,
24,
24,
25,
25,
25,
24,
24,
24,
24,
24,
24,
25,
24,
24,
24,
25,
24,
24,
25,
24,
24,
25,
24,
24,
23,
23,
23,
22,
22,
21,
20,
19,
18,
17,
16,
15,
14,
13,
11,
10,
8,
6,
5,
3,
1,
0,
-1,
-3,
-5,
-6,
-9,
-10,
-12,
-14,
-16,
-18,
-20,
-22,
-24,
-25,
-28,
-30,
-31,
-33,
-34,
-37,
-38,
-40,
-42,
-43,
-45,
-46,
-49,
-50,
-51,
-52,
-54,
-56,
-56,
-57,
-58,
-61,
-61,
-62,
-62,
-63,
-64,
-65,
-66,
-66,
-66,
-66,
-66,
-66,
-67,
-67,
-67,
-67,
-67,
-67,
-67,
-66,
-66,
-66,
-65,
-65,
-65,
-64,
-63,
-62,
-62,
-60,
-60,
-59,
-58,
-57,
-55,
-55,
-54,
-52,
-51,
-50,
-49,
-47,
-46,
-46,
-44,
-42,
-41,
-40,
-38,
-37,
-36,
-34,
-32,
-32,
-30,
-28,
-27,
-26,
-24,
-24,
-22,
-21,
-20,
-18,
-18,
-16,
-15,
-14,
-13,
-12,
-11,
-11,
-9,
-9,
-8,
-7,
-6,
-5,
-5,
-4,
-4,
-4,
-3,
-2,
-2,
-2,
-2,
-2,
-2,
-1,
-2,
-1,
-2,
-2,
-2,
-2,
-2,
-2,
-3,
-3,
-3,
-4,
-4,
-5,
-6,
-6,
-6,
-7,
-8,
-9,
-10,
-10,
-11,
-11,
-12,
-13,
-14,
-15,
-16,
-17,
-18,
-18,
-19,
-21,
-21,
-22,
-22,
-24,
-25,
-25,
-26,
-27,
-29,
-29,
-30,
-31,
-32,
-33,
-34,
-34,
-35,
-36,
-37,
-37,
-38,
-38,
-40,
-40,
-40,
-41,
-42,
-42,
-42,
-42,
-44,
-43,
-45,
-44,
-45,
-44,
-45,
-45,
-46,
-46,
-46,
-46,
-46,
-46,
-45,
-46,
-46,
-45,
-45,
-46,
-45,
-45,
-45,
-45,
-45,
-44,
-44,
-43,
-43,
-42,
-42,
-42,
-41,
-41,
-40,
-40,
-39,
-39,
-38,
-38,
-38,
-37,
-37,
-36,
-35,
-34,
-34,
-33,
-33,
-33,
-32,
-32,
-32,
-30,
-30,
-30,
-29,
-28,
-27,
-27,
-27,
-26,
-26,
-26,
-26,
-24,
-24,
-24,
-23,
-23,
-22,
-22,
-22,
-22,
-21,
-21,
-21,
-21,
-20,
-20,
-20,
-20,
-19,
-20,
-19,
-19,
-19,
-19,
-19,
-18,
-19,
-19,
-19,
-19,
-19,
-19,
-19,
-19,
-19,
-19,
-20,
-19,
-20,
-20,
-20,
-20,
-20,
-21,
-21,
-21,
-21,
-22,
-22,
-22,
-22,
-22,
-22,
-23,
-23,
-24,
-24,
-24,
-24,
-25,
-25,
-25,
-25,
-26,
-26,
-26,
-26,
-26,
-27,
-27,
-27,
-27,
-28,
-29,
-29,
-29,
-30,
-29,
-29,
-30,
-30,
-30,
-31,
-30,
-31,
-31,
-30,
-31,
-31,
-32,
-32,
-31,
-32,
-31,
-32,
-32,
-32,
-32,
-33,
-33,
-32,
-32,
-33,
-33,
-33,
-33,
-33,
-33,
-33,
-33,
-33,
-33,
-33,
-33,
-33,
-33,
-33,
-32,
-33,
-33,
-32,
-32,
-33,
-32,
-32,
-32,
-32,
-31,
-33,
-32,
-32,
-32,
-32,
-32,
-32,
-31,
-32,
-32,
-32,
-31,
-31,
-31,
-31,
-30,
-31,
-31,
-30,
-30,
-30,
-30,
-30,
-30,
-30,
-30,
-30,
-30,
-30,
-30,
-30,
-29,
-30,
-30,
-29,
-29,
-29,
-30,
-29,
-29,
-29,
-29,
-29,
-28,
-28,
-29,
-28,
-29,
-28,
-29,
-28,
-29,
-28,
-29,
-27,
-27,
-27,
-28,
-27,
-28,
-27,
-27,
-28,
-27,
-28,
-27,
-27,
-27,
-27,
-27,
-27,
-26,
-27,
-27,
-26,
-26,
-26,
-26,
-26,
-26,
-26,
-26,
-26,
-26,
-26,
-26,
-26,
-26,
-26,
-26,
-26,
-26,
-26,
-26,
-26,
-26,
-26,
-26,
-26,
-26,
-25,
-26,
-26,
-26,
-26,
-26,
-25,
-25,
-26,
-25,
-25,
-26,
-25,
-26,
-25,
-25,
-25,
-25,
-25,
-25,
-25,
-25,
-26,
-25,
-26,
-26,
-26,
-26,
-26,
-26,
-26,
-26,
-26,
-26,
-26,
-26,
-26,
-26,
-26,
-26,
-26,
-27,
-26,
-27,
-27,
-27,
-27,
-27,
-28,
-28,
-28,
-28,
-29,
-28,
-29,
-29,
-29,
-29,
-29,
-29,
-30,
-30,
-29,
-30,
-30,
-30,
-30,
-30,
-30,
-30,
-30,
-30,
-31,
-31,
-31,
-31,
-31,
-31,
-31,
-32,
-32,
-32,
-32,
-32,
-31,
-31,
-32,
-32,
-32,
-32,
-32,
-32,
-32,
-31,
-31,
-32,
-32,
-33,
-32,
-32,
-33,
-32,
-31,
-31,
-32,
-31,
-31,
-32,
-32,
-31,
-31,
-31,
-30,
-31,
-30,
-31,
-30,
-30,
-30,
-30,
-30,
-29,
-30,
-29,
-29,
-29,
-29,
-29,
-29,
-28,
-28,
-29,
-27,
-27,
-27,
-28,
-28,
-27,
-27,
-26,
-27,
-26,
-26,
-26,
-26,
-26,
-26,
-25,
-25,
-25,
-25,
-25,
-25,
-25,
-24,
-24,
-24,
-24,
-24,
-24,
-24,
-24,
-23,
-24,
-23,
-24,
-23,
-24,
-24,
-24,
-23,
-23,
-23,
-24,
-23,
-24,
-24,
-23,
-24,
-24,
-23,
-24,
-23,
-24,
-24,
-24,
-24,
-24,
-24,
-24,
-24,
-24,
-25,
-25,
-25,
-25,
-25,
-25,
-25,
-25,
-25,
-26,
-26,
-26,
-26,
-26,
-26,
-26,
-27,
-27,
-27,
-27,
-27,
-28,
-28,
-28,
-28,
-29,
-29,
-29,
-29,
-29,
-29,
-29,
-30,
-30,
-30,
-30,
-30,
-31,
-30,
-30,
-31,
-30,
-31,
-31,
-31,
-31,
-30,
-31,
-31,
-31,
-32,
-31,
-32,
-32,
-32,
-32,
-31,
-32,
-32,
-31,
-32,
-32,
-31,
-32,
-32,
-31,
-32,
-32,
-32,
-31,
-31,
-31,
-30,
-31,
-31,
-30,
-30,
-31,
-31,
-30,
-30,
-30,
-30,
-30,
-30,
-30,
-30,
-30,
-29,
-29,
-29,
-29,
-28,
-28,
-28,
-27,
-27,
-27,
-27,
-26,
-26,
-27,
-26,
-26,
-26,
-26,
-25,
-26,
-25,
-26,
-25,
-25,
-26,
-24,
-25,
-25,
-25,
-24,
-24,
-24,
-24,
-25,
-24,
-24,
-24,
-24,
-23,
-24,
-23,
-24,
-23,
-23,
-23,
-23,
-23,
-23,
-23,
-23,
-24,
-23,
-23,
-23,
-23,
-24,
-24,
-24,
-23,
-23,
-24,
-24,
-24,
-24,
-24,
-24,
-24,
-24,
-24,
-25,
-25,
-25,
-24,
-25,
-26,
-25,
-25,
-25,
-26,
-25,
-26,
-26,
-26,
-26,
-26,
-26,
-26,
-26,
-26,
-27,
-27,
-27,
-27,
-28,
-27,
-28,
-27,
-28,
-27,
-28,
-29,
-28,
-29,
-29,
-29,
-29,
-29,
-29,
-29,
-29,
-30,
-30,
-30,
-30,
-30,
-30,
-30,
-29,
-30,
-30,
-30,
-30,
-30,
-30,
-30,
-30,
-30,
-30,
-29,
-30,
-30,
-30,
-30,
-30,
-30,
-30,
-30,
-30,
-30,
-29,
-30,
-30,
-29,
-29,
-29,
-30,
-29,
-29,
-29,
-29,
-29,
-28,
-28,
-28,
-28,
-28,
-27,
-28,
-28,
-27,
-27,
-27,
-27,
-27,
-26,
-27,
-26,
-26,
-26,
-26,
-26,
-26,
-26,
-26,
-26,
-26,
-25,
-25,
-26,
-25,
-25,
-24,
-25,
-24,
-25,
-25,
-24,
-25,
-25,
-25,
-24,
-24,
-24,
-24,
-25,
-24,
-24,
-24,
-24,
-24,
-24,
-24,
-23,
-23,
-24,
-24,
-24,
-24,
-24,
-24,
-24,
-24,
-24,
-24,
-24,
-24,
-24,
-24,
-24,
-24,
-25,
-24,
-25,
-24,
-25,
-25,
-25,
-24,
-25,
-24,
-25,
-25,
-25,
-25,
-25,
-25,
-25,
-26,
-25,
-25,
-26,
-26,
-26,
-26,
-26,
-26,
-26,
-26,
-26,
-26,
-26,
-27,
-27,
-27,
-27,
-27,
-27,
-27,
-27,
-27,
-27,
-28,
-27,
-27,
-28,
-28,
-27,
-27,
-27,
-28,
-28,
-27,
-28,
-28,
-28,
-28,
-28,
-27,
-28,
-28,
-28,
-28,
-28,
-29,
-28,
-28,
-28,
-27,
-28,
-27,
-28,
-28,
-28,
-29,
-28,
-28,
-27,
-27,
-27,
-28,
-27,
-27,
-27,
-27,
-28,
-27,
-27,
-27,
-26,
-27,
-27,
-27,
-27,
-26,
-26,
-26,
-27,
-26,
-26,
-26,
-26,
-26,
-26,
-26,
-25,
-26,
-26,
-26,
-26,
-25,
-25,
-26,
-26,
-25,
-25,
-25,
-25,
-25,
-25,
-25,
-25,
-26,
-25,
-25,
-25,
-25,
-24,
-24,
-24,
-24,
-24,
-24,
-24,
-24,
-24,
-24,
-24,
-24,
-24,
-24,
-24,
-24,
-24,
-24,
-23,
-24,
-24,
-24,
-24,
-23,
-24,
-24,
-24,
-24,
-24,
-25,
-24,
-25,
-24,
-24,
-24,
-25,
-24,
-24,
-25,
-25,
-24,
-24,
-25,
-25,
-25,
-25,
-25,
-24,
-25,
-25,
-25,
-25,
-25,
-25,
-25,
-25,
-25,
-25,
-25,
-26,
-26,
-26,
-25,
-26,
-26,
-26,
-26,
-26,
-26,
-26,
-26,
-26,
-26,
-26,
-26,
-26,
-26,
-26,
-26,
-26,
-26,
-26,
-26,
-26,
-26,
-26,
-26,
-26,
-26,
-26,
-26,
-26,
-26,
-26,
-26,
-26,
-26,
-26,
-26,
-26,
-26,
-26,
-26,
-26,
-26,
-26,
-26,
-26,
-26,
-26,
-26,
-26,
-26,
-26,
-26,
-26,
-26,
-26,
-26,
-26,
-26,
-26,
-25,
-25,
-26,
-26,
-25,
-25,
-25,
-25,
-25,
-25,
-25,
-26,
-25,
-25,
-25,
-25,
-25,
-25,
-25,
-25,
-25,
-25,
-25,
-25,
-25,
-25,
-25,
-25,
-24,
-25,
-25,
-25,
-24,
-25,
-25,
-25,
-24,
-25,
-24,
-25,
-25,
-24,
-24,
-24,
-25,
-24,
-24,
-24,
-25,
-24,
-24,
-24,
-24,
-24,
-24,
-25,
-24,
-24,
-24,
-24,
-24,
-24,
-24,
-24,
-24,
-24,
-24,
-24,
-24,
-24,
-24,
-24,
-25,
-24,
-25,
-24,
-24,
-24,
-24,
-25,
-24,
-24,
-24,
-24,
-24,
-24,
-24,
-24,
-24,
-24,
-25,
-24,
-24,
-24,
-24,
-25,
-24,
-24,
-25,
-25,
-25,
-25,
-25,
-25,
-25,
-25,
-25,
-25,
-25,
-25,
-25,
-25,
-25,
-25,
-25,
-25,
-24,
-25,
-25,
-25,
-25,
-25,
-25,
-25,
-25,
-25,
-25,
-25,
-25,
-25,
-25,
-25,
-25,
-25,
-25,
-25,
-25,
-25,
-25,
-25,
-25,
-25,
-25,
-25,
-25,
-25,
-25,
-25,
-25,
-25,
-25,
-26,
-25,
-25,
-25,
-24,
-25,
-25,
-25,
-25,
-25,
-24,
-25,
-25,
-25,
-25,
-25,
-25,
-25,
-25,
-25,
-24,
-25,
-25,
-25,
-25,
-24,
-25,
-25,
-25,
-25,
-24,
-24,
-24,
-25,
-25,
-24,
-25,
-24,
-24,
-24,
-24,
-24,
-24,
-24,
-24,
-24,
-24,
-24,
-24,
-25,
-24,
-24,
-24,
-24,
-24,
-24,
-24,
-24,
-24,
-24,
-24,
-24,
-24,
-24,
-24,
-24,
-24,
-24,
-23,
-24,
-24,
-25,
-24,
-24,
-24,
-24,
-24,
-24,
-24,
-24,
-24,
-24,
-24,
-24,
-24,
-24,
-24,
-24,
-24,
-24,
-24,
-24,
-24,
-24,
-24,
-23,
-24,
-24,
-24,
-23,
-24,
-24,
-23,
-24,
-23,
-24,
-24,
-24,
-24,
-23,
-24,
-24,
-24,
-24,
-23,
-23,
-23,
-24,
-24,
-24,
-23,
-24,
-24,
-24,
-24,
-23,
-24,
-24,
-24,
-25,
-24,
-24,
-24,
-24,
-24,
-24,
-24,
-24,
-24,
-24,
-24,
-24,
-24,
-24,
-24,
-24,
-24,
-24,
-24,
-24,
-23,
-24,
-24,
-24,
-24,
-24,
-24,
-24,
-24,
-24,
-24,
-24,
-23,
-24,
-25,
-24,
-24,
-24,
-24,
-24,
-24,
-24,
-24,
-24,
-24,
-24,
-24,
-24,
-24,
-24,
-24,
-24,
-24,
-24,
-23,
-24,
-24,
-24,
-24,
-24,
-23,
-22,
-23,
-22,
-22,
-21,
-20,
-19,
-19,
-17,
-17,
-16,
-14,
-14,
-12,
-11,
-9,
-7,
-6,
-4,
-2,
-1,
0,
2,
3,
6,
7,
9,
11,
13,
14,
16,
18,
20,
22,
24,
27,
29,
30,
32,
34,
37,
37,
39,
41,
42,
44,
46,
47,
48,
50,
52,
54,
54,
55,
57,
58,
59,
60,
61,
62,
63,
63,
64,
65,
66,
66,
67,
66,
67,
67,
67,
67,
67,
67,
67,
67,
67,
66,
66,
66,
66,
65,
64,
64,
63,
62,
62,
61,
60,
59,
58,
57,
56,
54,
54,
52,
51,
49,
48,
47,
46,
45,
43,
42,
41,
40,
38,
37,
35,
34,
32,
31,
30,
29,
27,
26,
25,
23,
22,
21,
19,
18,
17,
16,
15,
14,
13,
12,
11,
10,
10,
9,
8,
7,
6,
6,
6,
5,
4,
4,
3,
2,
3,
2,
2,
2,
2,
2,
2,
2,
2,
2,
2,
3,
2,
2,
3,
3,
3,
4,
5,
5,
6,
7,
7,
8,
8,
10,
10,
11,
11,
12,
12,
13,
15,
15,
16,
17,
17,
18,
19,
21,
22,
23,
24,
24,
25,
26,
27,
28,
29,
30,
30,
31,
32,
33,
34,
34,
35,
37,
37,
38,
38,
39,
40,
40,
40,
41,
41,
42,
42,
42,
43,
44,
44,
44,
44,
45,
45,
46,
45,
46,
46,
46,
46,
46,
46,
46,
46,
46,
46,
46,
45,
45,
45,
45,
44,
44,
44,
43,
42,
42,
42,
42,
42,
41,
41,
41,
39,
39,
38,
38,
38,
37,
37,
37,
35,
35,
34,
34,
33,
32,
32,
31,
31,
30,
30,
29,
29,
28,
28,
27,
26,
27,
26,
26,
25,
25,
24,
24,
23,
24,
23,
22,
22,
22,
22,
21,
21,
20,
20,
21,
20,
19,
20,
19,
19,
19,
19,
19,
19,
19,
19,
19,
19,
19,
19,
19,
19,
19,
19,
19,
20,
19,
20,
20,
21,
20,
21,
20,
21,
22,
22,
22,
22,
22,
22,
23,
23,
23,
24,
24,
25,
24,
25,
25,
25,
25,
26,
26,
26,
26,
26,
27,
27,
27,
28,
28,
28,
28,
29,
29,
30,
29,
30,
30,
30,
30,
30,
31,
30,
30,
31,
32,
31,
32,
31,
32,
31,
32,
32,
32,
32,
32,
32,
33,
32,
32,
33,
33,
32,
32,
32,
33,
33,
33,
33,
33,
33,
33,
32,
33,
33,
33,
33,
32,
32,
32,
33,
32,
33,
32,
32,
32,
32,
32,
32,
31,
32,
32,
31,
31,
31,
31,
31,
31,
30,
30,
30,
30,
30,
30,
30,
30,
30,
30,
30,
30,
30,
30,
30,
30,
30,
29,
29,
29,
29,
29,
29,
29,
29,
29,
29,
29,
29,
28,
29,
29,
28,
28,
28,
29,
28,
28,
29,
28,
28,
28,
28,
27,
27,
28,
27,
28,
28,
28,
27,
27,
28,
27,
27,
27,
27,
27,
27,
27,
27,
27,
27,
27,
26,
27,
27,
26,
26,
27,
26,
26,
27,
26,
26,
26,
26,
26,
26,
26,
26,
26,
26,
26,
26,
26,
26,
26,
26,
25,
26,
25,
26,
26,
26,
26,
26,
26,
26,
25,
26,
26,
26,
26,
26,
26,
26,
26,
26,
26,
26,
26,
26,
26,
26,
26,
26,
26,
26,
26,
26,
26,
27,
26,
27,
26,
27,
27,
27,
27,
27,
27,
27,
27,
28,
28,
28,
28,
28,
28,
28,
28,
28,
28,
29,
29,
30,
29,
29,
30,
30,
30,
30,
30,
30,
30,
30,
30,
31,
30,
30,
31,
31,
31,
31,
31,
31,
32,
31,
32,
31,
32,
32,
31,
32,
31,
31,
32,
31,
32,
32,
32,
32,
32,
32,
32,
32,
31,
31,
31,
32,
31,
32,
32,
31,
31,
31,
31,
31,
31,
31,
30,
30,
30,
31,
30,
30,
30,
30,
30,
29,
29,
29,
29,
29,
29,
29,
28,
28,
28,
28,
28,
28,
28,
27,
27,
27,
27,
26,
26,
26,
27,
26,
26,
26,
25,
26,
26,
26,
25,
25,
25,
25,
24,
26,
24,
25,
24,
25,
24,
24,
24,
24,
24,
23,
24,
23,
24,
24,
24,
23,
23,
24,
24,
23,
24,
24,
24,
24,
25,
24,
23,
24,
24,
24,
24,
25,
25,
25,
25,
25,
25,
25,
26,
25,
26,
26,
26,
26,
26,
26,
26,
26,
26,
27,
27,
27,
27,
27,
28,
27,
28,
28,
29,
29,
29,
29,
29,
29,
29,
29,
30,
29,
30,
30,
30,
30,
30,
30,
31,
30,
30,
31,
31,
31,
31,
31,
31,
31,
31,
32,
31,
32,
31,
31,
31,
31,
32,
32,
31,
32,
32,
32,
33,
31,
32,
31,
32,
31,
31,
31,
31,
31,
31,
31,
30,
31,
30,
30,
30,
30,
30,
30,
30,
29,
30,
29,
29,
29,
29,
28,
28,
28,
28,
28,
28,
28,
28,
27,
27,
27,
26,
27,
26,
26,
26,
26,
26,
26,
26,
26,
26,
26,
25,
25,
25,
25,
25,
25,
24,
25,
24,
24,
24,
24,
24,
24,
24,
24,
23,
23,
23,
24,
23,
23,
23,
24,
23,
24,
24,
24,
23,
23,
24,
24,
23,
24,
24,
24,
24,
24,
24,
24,
24,
25,
24,
24,
25,
25,
25,
25,
26,
25,
26,
25,
26,
26,
25,
26,
26,
26,
26,
26,
26,
27,
27,
26,
27,
27,
27,
27,
27,
27,
27,
28,
28,
28,
29,
29,
29,
29,
29,
29,
29,
29,
29,
29,
30,
30,
30,
30,
30,
30,
30,
29,
30,
30,
30,
30,
30,
30,
30,
30,
30,
30,
30,
30,
30,
30,
30,
29,
30,
30,
30,
30,
30,
30,
30,
29,
29,
30,
29,
29,
29,
29,
29,
29,
29,
28,
29,
29,
29,
28,
28,
28,
28,
27,
27,
28,
27,
27,
27,
27,
27,
27,
27,
27,
27,
26,
26,
26,
26,
26,
26,
26,
26,
26,
25,
25,
25,
25,
25,
25,
24,
25,
25,
25,
24,
25,
24,
25,
24,
24,
24,
24,
24,
25,
24,
24,
24,
24,
24,
24,
24,
24,
24,
24,
24,
24,
24,
24,
24,
24,
24,
24,
24,
24,
24,
24,
24,
24,
24,
25,
24,
25,
25,
25,
25,
25,
25,
25,
26,
26,
25,
26,
26,
26,
26,
26,
26,
26,
26,
26,
27,
26,
26,
26,
26,
27,
26,
27,
26,
27,
27,
27,
27,
27,
28,
27,
27,
27,
28,
27,
27,
27,
27,
28,
28,
28,
27,
28,
28,
28,
29,
28,
28,
28,
28,
28,
28,
28,
28,
28,
28,
28,
28,
28,
28,
28,
28,
28,
28,
28,
27,
27,
28,
27,
28,
28,
28,
27,
27,
28,
27,
27,
27,
27,
27,
27,
27,
27,
27,
26,
27,
26,
26,
27,
26,
26,
26,
26,
26,
26,
26,
26,
26,
26,
26,
26,
26,
26,
26,
26,
25,
25,
25,
25,
25,
25,
24,
25,
25,
26,
26,
25,
25,
25,
25,
25,
24,
25,
24,
25,
24,
24,
24,
24,
24,
25,
24,
25,
24,
24,
25,
24,
24,
24,
24,
25,
25,
24,
24,
25,
24,
24,
24,
25,
25,
25,
24,
24,
25,
24,
25,
25,
25,
25,
25,
25,
25,
25,
25,
26,
25,
25,
25,
25,
25,
26,
25,
26,
26,
26,
26,
26,
26,
26,
26,
26,
26,
26,
25,
26,
26,
26,
26,
26,
26,
26,
26,
26,
26,
26,
26,
26,
26,
26,
26,
26,
27,
26,
26,
26,
26,
26,
26,
26,
26,
26,
26,
26,
26,
26,
26,
26,
27,
26,
27,
26,
26,
26,
27,
27,
26,
26,
26,
26,
26,
26,
26,
26,
26,
26,
26,
26,
26,
26,
26,
26,
26,
26,
26,
26,
26,
26,
25,
26,
26,
26,
26,
26,
26,
25,
26,
25,
26,
25,
25,
26,
25,
25,
25,
25,
26,
26,
25,
24,
25,
25,
25,
25,
25,
25,
25,
25,
25,
25,
25,
24,
25,
25,
25,
24,
25,
25,
24,
24,
24,
25,
24,
24,
24,
25,
25,
25,
25,
24,
24,
24,
25,
25,
24,
25,
25,
25,
25,
24,
25,
25,
24,
24,
25,
24,
24,
24,
25,
24,
25,
24,
25,
25,
25,
25,
25,
25,
25,
25,
24,
25,
25,
24,
24,
25,
25,
26,
25,
25,
25,
25,
25,
24,
25,
25,
25,
25,
25,
25,
25,
25,
26,
25,
25,
25,
25,
25,
25,
25,
25,
25,
25,
25,
25,
25,
25,
25,
25,
25,
25,
25,
25,
25,
25,
25,
26,
25,
25,
25,
25,
26,
25,
26,
25,
25,
25,
25,
25,
24,
25,
25,
25,
25,
26,
25,
25,
25,
25,
26,
25,
25,
25,
25,
26,
25,
25,
25,
25,
26,
25,
25,
24,
25,
25,
25,
24,
25,
24,
25,
25,
24,
25,
25,
24,
24,
24,
25,
25,
24,
25,
24,
25,
24,
24,
24,
24,
25,
24,
24,
25,
24,
24,
24,
25,
24,
24,
24,
24,
24,
24,
24,
24,
24,
24,
24,
24,
24,
24,
24,
24,
24,
24,
24,
24,
24,
25,
24,
24,
24,
24,
24,
24,
24,
23,
24,
24,
24,
24,
24,
24,
24,
24,
24,
24,
24,
24,
24,
24,
24,
24,
24,
24,
24,
24,
24,
24,
24,
24,
25,
24,
24,
24,
24,
24,
23,
24,
25,
24,
24,
24,
24,
24,
24,
25,
24,
24,
25,
25,
24,
24,
24,
24,
24,
24,
24,
24,
25,
24,
24,
24,
24,
24,
24,
24,
25,
25,
25,
24,
24,
25,
24,
24,
24,
24,
25,
24,
24,
24,
24,
24,
24,
24,
24,
24,
25,
24,
24,
25,
24,
25,
24,
24,
24,
24,
25,
24,
24,
24,
25,
24,
24,
24,
24,
24,
24,
24,
24,
24,
24,
23,
23,
23,
22,
21,
21,
20,
18,
17,
17,
16,
15,
13,
12,
10,
9,
7,
6,
4,
3,
1,
0,
-2,
-4,
-5,
-7,
-9,
-11,
-13,
-15,
-17,
-19,
-21,
-23,
-24,
-26,
-28,
-30,
-33,
-34,
-36,
-38,
-39,
-41,
-42,
-45,
-45,
-48,
-49,
-50,
-52,
-54,
-54,
-56,
-57,
-58,
-59,
-61,
-61,
-62,
-63,
-64,
-64,
-65,
-65,
-66,
-66,
-66,
-67,
-67,
-67,
-68,
-66,
-68,
-67,
-66,
-67,
-66,
-66,
-66,
-65,
-65,
-64,
-63,
-63,
-62,
-61,
-60,
-59,
-58,
-57,
-56,
-55,
-54,
-53,
-52,
-51,
-49,
-48,
-47,
-46,
-44,
-43,
-42,
-40,
-39,
-38,
-36,
-35,
-33,
-32,
-30,
-29,
-29,
-26,
-25,
-24,
-22,
-22,
-21,
-19,
-18,
-17,
-16,
-15,
-14,
-13,
-12,
-11,
-10,
-9,
-8,
-8,
-7,
-6,
-6,
-4,
-4,
-4,
-4,
-3,
-2,
-2,
-2,
-2,
-1,
-2,
-1,
-1,
-2,
-2,
-1,
-2,
-2,
-3,
-3,
-3,
-3,
-3,
-5,
-4,
-5,
-6,
-7,
-7,
-8,
-9,
-9,
-10,
-11,
-11,
-12,
-13,
-14,
-14,
-15,
-17,
-17,
-18,
-19,
-20,
-21,
-22,
-22,
-23,
-24,
-26,
-26,
-27,
-28,
-29,
-30,
-31,
-32,
-33,
-33,
-34,
-34,
-36,
-36,
-37,
-38,
-38,
-39,
-39,
-40,
-40,
-41,
-42,
-42,
-42,
-44,
-43,
-44,
-44,
-45,
-45,
-45,
-46,
-45,
-46,
-46,
-46,
-46,
-46,
-46,
-46,
-46,
-45,
-45,
-46,
-45,
-45,
-45,
-45,
-44,
-45,
-45,
-43,
-43,
-42,
-41,
-42,
-41,
-41,
-40,
-40,
-40,
-39,
-39,
-38,
-38,
-37,
-37,
-36,
-35,
-35,
-35,
-34,
-33,
-33,
-33,
-32,
-31,
-31,
-30,
-30,
-29,
-29,
-29,
-27,
-26,
-26,
-26,
-26,
-26,
-25,
-24,
-24,
-24,
-24,
-23,
-22,
-22,
-22,
-21,
-21,
-21,
-21,
-21,
-20,
-21,
-20,
-19,
-20,
-20,
-19,
-19,
-19,
-19,
-18,
-19,
-20,
-19,
-18,
-19,
-18,
-19,
-19,
-19,
-19,
-19,
-20,
-20,
-20,
-20,
-21,
-21,
-20,
-21,
-21,
-21,
-21,
-22,
-22,
-22,
-22,
-23,
-23,
-23,
-24,
-23,
-25,
-25,
-25,
-25,
-25,
-26,
-26,
-26,
-26,
-26,
-26,
-27,
-26,
-27,
-28,
-28,
-29,
-29,
-29,
-29,
-30,
-29,
-30,
-30,
-30,
-30,
-30,
-31,
-30,
-31,
-31,
-31,
-31,
-32,
-32,
-32,
-31,
-32,
-32,
-32,
-32,
-33,
-33,
-32,
-32,
-32,
-33,
-33,
-33,
-33,
-33,
-33,
-33,
-33,
-33,
-33,
-33,
-33,
-33,
-33,
-33,
-33,
-33,
-32,
-33,
-32,
-32,
-32,
-32,
-32,
-32,
-32,
-32,
