CSVs/DS0005.CSV

Memory Length,4000,
Trigger Level,0.000E+00,
Source,CH2,
Probe,1X,
Vertical Units,V,
Vertical Scale,5.000E-03,
Vertical Position,0.000E+00,
Horizontal Units,s,
Horizontal Scale,1.000E-03,
Horizontal Position,0.000E+00,
Horizontal Mode,Main,
Sampling Period,4.000E-06,
Firmware,V1.13.001,
Time, ,
Mode,Fast,
Waveform Data,
9,
9,
3,
3,
3,
4,
4,
4,
4,
5,
6,
6,
7,
7,
8,
8,
8,
8,
9,
10,
10,
11,
11,
12,
12,
12,
12,
13,
13,
14,
14,
14,
15,
15,
15,
16,
16,
16,
17,
17,
18,
18,
18,
19,
19,
20,
20,
20,
20,
20,
21,
21,
22,
22,
22,
22,
22,
24,
24,
24,
24,
24,
24,
24,
24,
24,
25,
25,
25,
25,
26,
26,
25,
26,
26,
28,
27,
27,
27,
28,
27,
28,
28,
28,
28,
28,
28,
28,
28,
29,
28,
28,
28,
28,
29,
28,
28,
28,
29,
29,
28,
28,
28,
29,
28,
28,
28,
28,
28,
28,
28,
28,
28,
28,
28,
28,
28,
28,
28,
28,
28,
27,
28,
28,
28,
26,
26,
27,
26,
26,
26,
25,
26,
25,
24,
25,
25,
24,
24,
24,
24,
24,
24,
23,
23,
23,
23,
23,
22,
22,
22,
20,
21,
20,
20,
20,
20,
19,
20,
19,
19,
19,
18,
18,
17,
16,
16,
16,
16,
15,
15,
15,
15,
14,
14,
13,
13,
13,
12,
12,
12,
11,
11,
11,
10,
10,
9,
9,
8,
9,
8,
7,
8,
7,
6,
5,
5,
5,
5,
4,
4,
4,
3,
3,
2,
2,
1,
1,
1,
0,
0,
0,
0,
-1,
-3,
-1,
-1,
-2,
-3,
-3,
-4,
-4,
-4,
-4,
-4,
-6,
-7,
-7,
-6,
-7,
-8,
-8,
-8,
-9,
-9,
-9,
-10,
-10,
-11,
-11,
-11,
-11,
-12,
-12,
-12,
-12,
-13,
-13,
-14,
-14,
-14,
-15,
-15,
-16,
-15,
-16,
-16,
-16,
-17,
-17,
-17,
-18,
-17,
-18,
-18,
-19,
-19,
-20,
-19,
-19,
-20,
-20,
-20,
-20,
-20,
-20,
-21,
-21,
-21,
-21,
-21,
-22,
-22,
-22,
-22,
-23,
-23,
-23,
-23,
-23,
-23,
-24,
-23,
-24,
-23,
-24,
-24,
-24,
-24,
-24,
-24,
-25,
-24,
-24,
-24,
-24,
-25,
-25,
-25,
-24,
-25,
-25,
-24,
-25,
-25,
-26,
-25,
-24,
-25,
-24,
-24,
-24,
-24,
-24,
-25,
-25,
-25,
-24,
-24,
-25,
-25,
-24,
-24,
-25,
-24,
-24,
-24,
-24,
-23,
-24,
-24,
-23,
-23,
-23,
-22,
-22,
-22,
-23,
-22,
-22,
-21,
-21,
-21,
-21,
-21,
-20,
-21,
-20,
-20,
-20,
-20,
-20,
-19,
-19,
-20,
-19,
-18,
-18,
-17,
-18,
-17,
-17,
-16,
-16,
-16,
-16,
-16,
-15,
-16,
-16,
-16,
-14,
-14,
-14,
-14,
-13,
-13,
-12,
-12,
-12,
-12,
-12,
-11,
-11,
-10,
-10,
-10,
-10,
-9,
-8,
-8,
-8,
-8,
-8,
-7,
-7,
-7,
-6,
-6,
-5,
-5,
-4,
-4,
-4,
-3,
-3,
-3,
-2,
-2,
-2,
-1,
0,
-1,
0,
0,
0,
0,
0,
0,
1,
2,
2,
2,
3,
2,
3,
3,
4,
4,
4,
4,
5,
6,
5,
6,
6,
6,
8,
7,
8,
8,
8,
8,
9,
9,
10,
10,
9,
11,
11,
11,
11,
11,
12,
12,
12,
13,
13,
13,
13,
14,
14,
14,
15,
14,
15,
15,
16,
16,
16,
16,
16,
16,
17,
17,
17,
17,
17,
17,
18,
18,
18,
18,
19,
19,
19,
19,
20,
20,
20,
20,
20,
20,
20,
20,
20,
21,
20,
20,
20,
22,
21,
21,
22,
22,
21,
21,
22,
22,
22,
23,
22,
22,
22,
22,
23,
22,
22,
22,
22,
22,
22,
22,
23,
22,
22,
22,
22,
23,
22,
23,
22,
22,
22,
22,
23,
22,
22,
22,
22,
22,
22,
22,
22,
21,
21,
22,
21,
21,
21,
20,
21,
20,
20,
20,
20,
20,
20,
20,
20,
20,
20,
19,
20,
20,
19,
19,
18,
19,
18,
18,
18,
18,
18,
17,
17,
17,
17,
16,
17,
16,
16,
16,
16,
15,
14,
15,
14,
14,
14,
13,
13,
12,
12,
12,
12,
12,
12,
11,
12,
12,
12,
11,
11,
10,
10,
10,
10,
9,
8,
8,
8,
8,
8,
7,
8,
6,
6,
6,
7,
4,
5,
5,
6,
4,
4,
4,
4,
3,
4,
4,
3,
3,
2,
2,
2,
2,
1,
1,
0,
0,
0,
0,
-1,
0,
-1,
-1,
-1,
-2,
-2,
-2,
-2,
-3,
-3,
-3,
-4,
-4,
-3,
-4,
-4,
-5,
-4,
-5,
-5,
-6,
-6,
-6,
-7,
-7,
-8,
-7,
-8,
-7,
-8,
-8,
-9,
-8,
-8,
-8,
-9,
-8,
-9,
-9,
-10,
-10,
-11,
-11,
-10,
-11,
-11,
-11,
-11,
-12,
-11,
-12,
-12,
-12,
-12,
-13,
-12,
-13,
-12,
-13,
-13,
-13,
-13,
-14,
-14,
-14,
-14,
-14,
-14,
-14,
-14,
-15,
-16,
-16,
-16,
-15,
-16,
-16,
-16,
-16,
-16,
-16,
-16,
-16,
-16,
-16,
-16,
-16,
-16,
-16,
-16,
-16,
-16,
-16,
-16,
-16,
-16,
-16,
-16,
-16,
-16,
-16,
-17,
-17,
-16,
-16,
-17,
-16,
-16,
-17,
-16,
-16,
-16,
-16,
-16,
-16,
-16,
-16,
-16,
-16,
-16,
-16,
-16,
-16,
-16,
-16,
-16,
-16,
-16,
-16,
-15,
-16,
-16,
-16,
-16,
-15,
-16,
-15,
-15,
-15,
-15,
-14,
-14,
-13,
-13,
-14,
-14,
-13,
-14,
-13,
-13,
-13,
-13,
-13,
-12,
-12,
-12,
-12,
-12,
-12,
-12,
-12,
-11,
-11,
-11,
-10,
-11,
-10,
-11,
-10,
-9,
-9,
-9,
-9,
-8,
-9,
-9,
-8,
-8,
-8,
-8,
-8,
-8,
-7,
-7,
-7,
-6,
-6,
-7,
-6,
-5,
-6,
-6,
-5,
-5,
-4,
-4,
-4,
-4,
-4,
-4,
-3,
-4,
-3,
-3,
-3,
-2,
-2,
-2,
-2,
-1,
-2,
-1,
0,
0,
0,
0,
0,
0,
0,
0,
1,
0,
1,
1,
2,
2,
1,
2,
2,
3,
3,
3,
3,
4,
3,
4,
3,
4,
-123,
-120,
-116,
-113,
-110,
-107,
-104,
-100,
-97,
-94,
-92,
-88,
-85,
-82,
-80,
-76,
-74,
-71,
-69,
-66,
-64,
-62,
-59,
-57,
-55,
-52,
-50,
-49,
-46,
-44,
-43,
-42,
-40,
-38,
-35,
-33,
-32,
-30,
-28,
-26,
-25,
-23,
-22,
-21,
-19,
-18,
-16,
-15,
-13,
-13,
-11,
-10,
-8,
-8,
-7,
-5,
-5,
-3,
-3,
-2,
-1,
0,
1,
2,
3,
4,
4,
5,
7,
7,
8,
8,
9,
10,
11,
12,
12,
12,
13,
14,
15,
16,
16,
16,
17,
17,
19,
18,
19,
20,
20,
20,
20,
21,
21,
21,
21,
22,
22,
23,
22,
23,
24,
24,
24,
24,
24,
25,
24,
24,
25,
25,
26,
25,
25,
25,
26,
25,
25,
26,
26,
26,
26,
26,
26,
26,
25,
26,
26,
26,
24,
26,
25,
26,
25,
25,
24,
24,
25,
24,
24,
24,
24,
24,
24,
24,
24,
24,
23,
23,
23,
22,
21,
21,
21,
21,
21,
21,
20,
20,
20,
20,
20,
19,
18,
19,
18,
18,
17,
17,
17,
16,
16,
16,
16,
15,
15,
14,
14,
13,
13,
12,
12,
12,
11,
11,
11,
11,
10,
10,
9,
8,
8,
8,
7,
8,
7,
6,
5,
5,
4,
4,
4,
4,
3,
4,
2,
2,
1,
1,
0,
0,
0,
-1,
-1,
0,
-2,
-2,
-2,
-3,
-3,
-4,
-4,
-4,
-5,
-6,
-5,
-6,
-7,
-8,
-8,
-8,
-8,
-9,
-9,
-10,
-10,
-11,
-11,
-11,
-12,
-12,
-12,
-13,
-13,
-14,
-14,
-15,
-15,
-16,
-16,
-16,
-16,
-16,
-17,
-17,
-18,
-18,
-18,
-18,
-18,
-20,
-20,
-20,
-20,
-20,
-20,
-20,
-20,
-21,
-21,
-21,
-22,
-22,
-23,
-23,
-23,
-24,
-23,
-24,
-24,
-24,
-24,
-25,
-25,
-25,
-25,
-24,
-25,
-26,
-26,
-26,
-25,
-26,
-27,
-26,
-26,
-26,
-26,
-27,
-27,
-27,
-28,
-28,
-28,
-27,
-27,
-28,
-28,
-28,
-28,
-27,
-28,
-28,
-28,
-28,
-28,
-28,
-28,
-28,
-27,
-27,
-28,
-27,
-27,
-28,
-28,
-27,
-27,
-26,
-27,
-28,
-27,
-26,
-26,
-26,
-26,
-26,
-26,
-26,
-25,
-25,
-24,
-24,
-24,
-24,
-24,
-24,
-24,
-24,
-24,
-23,
-23,
-22,
-22,
-22,
-21,
-22,
-21,
-21,
-21,
-21,
-20,
-20,
-20,
-20,
-20,
-19,
-20,
-18,
-18,
-18,
-18,
-17,
-18,
-16,
-16,
-16,
-16,
-16,
-15,
-15,
-15,
-14,
-14,
-13,
-13,
-13,
-12,
-12,
-12,
-11,
-11,
-11,
-10,
-10,
-9,
-9,
-8,
-8,
-8,
-7,
-7,
-7,
-7,
-6,
-4,
-5,
-4,
-4,
-4,
-3,
-3,
-3,
-3,
-2,
-1,
-2,
-1,
0,
0,
0,
0,
1,
1,
2,
2,
3,
3,
4,
4,
4,
4,
4,
5,
6,
6,
6,
6,
7,
8,
8,
9,
8,
9,
9,
9,
10,
10,
11,
12,
12,
12,
12,
13,
13,
13,
13,
14,
14,
14,
15,
15,
16,
16,
16,
16,
17,
17,
16,
17,
18,
19,
19,
18,
19,
20,
19,
20,
20,
20,
20,
20,
20,
21,
22,
22,
22,
22,
23,
23,
23,
23,
23,
23,
23,
24,
24,
24,
24,
24,
24,
24,
24,
24,
24,
24,
25,
25,
25,
24,
25,
25,
25,
25,
26,
26,
25,
26,
26,
25,
26,
26,
26,
25,
27,
26,
26,
26,
25,
26,
26,
26,
26,
26,
25,
26,
25,
26,
26,
26,
26,
25,
26,
25,
25,
25,
24,
25,
25,
24,
25,
24,
24,
24,
24,
24,
24,
24,
24,
23,
24,
23,
23,
23,
22,
22,
22,
22,
22,
21,
21,
21,
21,
21,
20,
20,
20,
20,
20,
19,
19,
19,
18,
19,
19,
18,
18,
18,
16,
17,
16,
16,
16,
16,
15,
15,
15,
15,
15,
13,
14,
14,
13,
12,
12,
12,
12,
12,
11,
11,
11,
10,
10,
9,
9,
8,
8,
8,
8,
8,
6,
7,
6,
6,
5,
4,
5,
4,
4,
3,
3,
4,
3,
2,
3,
2,
1,
1,
0,
0,
0,
0,
-1,
-1,
-1,
-1,
0,
-2,
-2,
-2,
-3,
-3,
-4,
-4,
-4,
-4,
-4,
-4,
-5,
-6,
-6,
-7,
-7,
-7,
-8,
-8,
-8,
-8,
-8,
-9,
-9,
-10,
-10,
-10,
-10,
-11,
-11,
-11,
-12,
-12,
-12,
-12,
-12,
-12,
-13,
-12,
-14,
-14,
-13,
-15,
-14,
-15,
-15,
-16,
-16,
-16,
-16,
-16,
-16,
-16,
-16,
-16,
-17,
-16,
-16,
-16,
-18,
-18,
-18,
-18,
-18,
-18,
-19,
-18,
-19,
-19,
-19,
-20,
-19,
-20,
-20,
-20,
-20,
-20,
-20,
-20,
-20,
-20,
-20,
-20,
-20,
-20,
-21,
-20,
-21,
-21,
-21,
-20,
-21,
-21,
-21,
-20,
-21,
-20,
-21,
-21,
-20,
-20,
-21,
-20,
-21,
-21,
-20,
-20,
-20,
-20,
-21,
-20,
-20,
-21,
-20,
-21,
-20,
-20,
-20,
-20,
-20,
-20,
-20,
-20,
-20,
-19,
-19,
-19,
-20,
-19,
-19,
-19,
-18,
-19,
-18,
-18,
-18,
-19,
-18,
-17,
-18,
-18,
-17,
-18,
-17,
-16,
-16,
-16,
-16,
-16,
-16,
-16,
-16,
-16,
-16,
-15,
-16,
-14,
-15,
-15,
-14,
-15,
-14,
-13,
-13,
-13,
-13,
-13,
-12,
-12,
-12,
-11,
-11,
-11,
-11,
-10,
-10,
-10,
-10,
-9,
-9,
-10,
-9,
-8,
-8,
-8,
-8,
-7,
-7,
-7,
-7,
-6,
-6,
-6,
-5,
-5,
-4,
-4,
-4,
-4,
-4,
-3,
-4,
-3,
-3,
-2,
-2,
-1,
-1,
-1,
-1,
-1,
-1,
0,
0,
0,
0,
1,
1,
1,
1,
2,
2,
2,
3,
3,
3,
3,
3,
4,
4,
4,
5,
4,
5,
5,
6,
6,
6,
7,
6,
7,
8,
7,
8,
8,
8,
8,
9,
9,
9,
9,
9,
10,
10,
11,
10,
11,
11,
11,
11,
12,
12,
12,
12,
12,
12,
12,
12,
13,
13,
13,
13,
13,
13,
14,
14,
13,
14,
14,
14,
14,
15,
15,
16,
15,
15,
16,
16,
16,
16,
16,
16,
16,
16,
16,
17,
17,
16,
16,
17,
17,
16,
17,
17,
17,
18,
16,
18,
17,
17,
18,
18,
18,
18,
17,
18,
18,
18,
18,
17,
18,
18,
18,
17,
18,
17,
18,
18,
17,
18,
18,
18,
17,
18,
18,
17,
17,
17,
17,
17,
17,
17,
16,
17,
17,
16,
16,
16,
16,
17,
16,
16,
16,
16,
16,
16,
16,
16,
16,
16,
15,
15,
15,
15,
15,
15,
15,
15,
15,
14,
14,
13,
13,
14,
13,
13,
13,
12,
13,
13,
12,
12,
12,
12,
12,
12,
12,
12,
12,
11,
11,
11,
11,
10,
10,
9,
9,
9,
9,
9,
8,
8,
8,
8,
8,
8,
8,
7,
7,
6,
6,
6,
6,
6,
6,
5,
5,
6,
5,
5,
5,
4,
4,
4,
3,
3,
3,
4,
3,
3,
2,
3,
2,
2,
2,
1,
2,
0,
1,
1,
0,
0,
0,
0,
-1,
0,
0,
-1,
-1,
-1,
-1,
-1,
-2,
-2,
-2,
-2,
-3,
-3,
-3,
124,
122,
118,
116,
112,
109,
105,
102,
99,
96,
92,
90,
87,
84,
81,
79,
76,
74,
70,
68,
66,
64,
61,
59,
56,
54,
52,
50,
48,
46,
44,
42,
40,
38,
36,
35,
33,
31,
30,
28,
26,
25,
23,
22,
20,
20,
18,
16,
15,
13,
12,
12,
10,
9,
8,
7,
6,
4,
4,
3,
2,
0,
0,
-2,
-1,
-2,
-4,
-4,
-6,
-6,
-7,
-8,
-8,
-9,
-9,
-11,
-12,
-12,
-12,
-12,
-13,
-14,
-15,
-15,
-16,
-16,
-16,
-17,
-18,
-18,
-18,
-19,
-19,
-19,
-20,
-20,
-20,
-20,
-21,
-21,
-21,
-21,
-22,
-22,
-23,
-24,
-24,
-24,
-23,
-24,
-24,
-24,
-24,
-24,
-24,
-24,
-26,
-24,
-24,
-24,
-24,
-24,
-25,
-24,
-24,
-25,
-24,
-25,
-24,
-24,
-24,
-24,
-24,
-24,
-24,
-24,
-24,
-24,
-24,
-24,
-23,
-23,
-24,
-23,
-23,
-22,
-22,
-22,
-22,
-21,
-21,
-20,
-21,
-20,
-20,
-20,
-20,
-20,
-19,
-20,
-19,
-19,
-18,
-17,
-18,
-18,
-16,
-16,
-16,
-16,
-16,
-15,
-16,
-14,
-14,
-14,
-14,
-13,
-12,
-12,
-12,
-12,
-11,
-11,
-11,
-10,
-9,
-10,
-9,
-8,
-8,
-8,
-8,
-7,
-7,
-6,
-5,
-5,
-4,
-4,
-4,
-3,
-3,
-2,
-2,
-1,
-2,
0,
0,
0,
1,
0,
0,
1,
2,
3,
3,
4,
4,
4,
4,
4,
6,
6,
7,
7,
8,
8,
8,
9,
9,
10,
10,
10,
11,
11,
12,
12,
12,
12,
14,
13,
14,
14,
15,
15,
16,
16,
16,
16,
18,
17,
17,
18,
18,
19,
19,
19,
20,
20,
20,
20,
21,
21,
21,
21,
22,
22,
22,
23,
23,
23,
24,
24,
23,
24,
24,
24,
24,
25,
26,
26,
26,
26,
27,
26,
27,
27,
27,
26,
26,
27,
27,
27,
28,
28,
28,
28,
28,
28,
28,
28,
28,
28,
28,
28,
28,
28,
28,
28,
28,
28,
29,
29,
29,
29,
28,
28,
28,
28,
28,
29,
28,
29,
29,
28,
28,
28,
28,
28,
28,
28,
27,
28,
28,
27,
28,
27,
27,
27,
26,
26,
26,
26,
25,
25,
25,
25,
24,
24,
24,
24,
24,
24,
24,
24,
23,
23,
23,
23,
22,
21,
22,
22,
21,
20,
20,
20,
20,
20,
20,
20,
19,
19,
19,
17,
18,
17,
17,
16,
16,
16,
16,
16,
15,
15,
14,
14,
14,
12,
13,
12,
12,
12,
11,
12,
11,
10,
10,
9,
9,
9,
8,
8,
7,
7,
6,
7,
5,
6,
6,
5,
4,
4,
4,
4,
3,
3,
1,
1,
1,
0,
0,
0,
0,
0,
-1,
-1,
-2,
-2,
-3,
-3,
-4,
-4,
-4,
-4,
-5,
-5,
-6,
-6,
-7,
-7,
-8,
-7,
-8,
-8,
-8,
-9,
-8,
-9,
-9,
-10,
-10,
-11,
-11,
-12,
-12,
-12,
-13,
-13,
-13,
-13,
-14,
-14,
-15,
-15,
-15,
-15,
-16,
-16,
-16,
-16,
-17,
-17,
-18,
-18,
-18,
-18,
-18,
-19,
-19,
-19,
-20,
-20,
-19,
-20,
-20,
-20,
-20,
-21,
-20,
-21,
-21,
-21,
-22,
-22,
-22,
-21,
-22,
-23,
-23,
-23,
-24,
-24,
-24,
-23,
-24,
-24,
-24,
-24,
-24,
-24,
-24,
-24,
-24,
-24,
-24,
-24,
-25,
-24,
-25,
-24,
-25,
-24,
-25,
-25,
-24,
-24,
-25,
-24,
-24,
-24,
-25,
-24,
-24,
-24,
-25,
-25,
-25,
-24,
-25,
-24,
-24,
-24,
-24,
-25,
-24,
-24,
-23,
-24,
-23,
-23,
-24,
-24,
-23,
-22,
-22,
-22,
-22,
-22,
-22,
-21,
-22,
-22,
-22,
-21,
-21,
-20,
-21,
-20,
-20,
-20,
-20,
-20,
-19,
-19,
-19,
-18,
-18,
-18,
-18,
-18,
-17,
-17,
-17,
-16,
-16,
-16,
-16,
-16,
-16,
-15,
-15,
-14,
-14,
-14,
-14,
-13,
-13,
-12,
-12,
-12,
-12,
-11,
-11,
-12,
-11,
-10,
-10,
-9,
-9,
-9,
-8,
-8,
-8,
-8,
-8,
-7,
-7,
-6,
-7,
-6,
-5,
-5,
-4,
-4,
-4,
-4,
-3,
-2,
-2,
-3,
-1,
-2,
-1,
-2,
-1,
0,
0,
0,
0,
0,
0,
2,
2,
2,
2,
3,
3,
3,
4,
5,
4,
4,
4,
5,
6,
6,
6,
7,
6,
7,
8,
8,
9,
8,
9,
9,
10,
10,
11,
11,
11,
11,
11,
12,
12,
12,
12,
12,
12,
13,
13,
14,
14,
14,
15,
15,
15,
15,
16,
16,
16,
16,
17,
17,
17,
17,
17,
18,
19,
18,
19,
19,
18,
19,
19,
19,
19,
19,
20,
20,
20,
20,
20,
20,
20,
21,
21,
21,
22,
21,
21,
21,
21,
21,
22,
22,
22,
22,
22,
22,
22,
22,
23,
22,
22,
23,
22,
23,
22,
22,
23,
23,
23,
22,
23,
22,
23,
22,
23,
22,
22,
23,
22,
22,
22,
23,
22,
22,
22,
22,
22,
22,
22,
22,
21,
21,
22,
21,
21,
21,
21,
22,
20,
20,
21,
21,
20,
20,
20,
20,
20,
20,
20,
20,
19,
19,
19,
20,
19,
19,
18,
19,
18,
18,
17,
18,
17,
17,
16,
17,
16,
16,
16,
16,
16,
15,
15,
15,
15,
15,
14,
14,
14,
14,
13,
13,
12,
13,
12,
12,
12,
12,
12,
11,
11,
11,
11,
10,
10,
9,
9,
9,
8,
8,
8,
8,
8,
8,
6,
6,
6,
6,
5,
6,
5,
5,
4,
5,
4,
4,
4,
3,
3,
3,
2,
3,
2,
2,
1,
0,
1,
0,
0,
0,
0,
0,
-1,
0,
0,
-1,
-2,
-2,
-2,
-2,
-2,
-3,
-3,
-4,
-4,
-4,
-4,
-4,
-4,
-5,
-5,
-6,
-6,
-6,
-6,
-7,
-6,
-7,
-8,
-8,
-8,
-8,
-8,
-8,
-8,
-9,
-9,
-9,
-8,
-10,
-10,
-10,
-10,
-10,
-10,
-11,
-10,
-11,
-11,
-11,
-12,
-12,
-12,
-12,
-12,
-12,
-12,
-13,
-13,
-13,
-13,
-13,
-14,
-14,
-14,
-14,
-14,
-14,
-14,
-14,
-15,
-15,
-15,
-15,
-15,
-15,
-16,
-16,
-16,
-16,
-16,
-16,
-16,
-16,
-16,
-16,
-16,
-16,
-17,
-16,
-16,
-17,
-16,
-16,
-16,
-16,
-17,
-17,
-16,
-16,
-17,
-16,
-16,
-16,
-16,
-16,
-16,
-16,
-16,
-16,
-17,
-17,
-16,
-16,
-16,
-16,
-16,
-16,
-16,
-16,
-16,
-16,
-16,
-16,
-16,
-16,
-16,
-16,
-16,
-16,
-16,
-16,
-16,
-16,
-16,
-16,
-15,
-15,
-15,
-15,
-15,
-14,
-14,
-14,
-14,
-13,
-13,
-13,
-13,
-13,
-13,
-14,
-12,
-13,
-12,
-12,
-12,
-12,
-12,
-12,
-12,
-12,
-12,
-11,
-10,
-10,
-10,
-11,
-10,
-10,
-10,
-10,
-10,
-9,
-9,
-9,
-8,
-8,
-8,
-8,
-8,
-8,
-8,
-8,
-7,
-8,
-7,
-6,
-6,
-6,
-6,
-5,
-6,
-5,
-5,
-5,
-4,
-4,
-4,
-4,
-3,
-4,
-4,
-3,
-3,
-3,
-3,
-2,
-2,
-2,
-1,
-2,
0,
-1,
-2,
-1,
0,
0,
0,
0,
0,
0,
0,
1,
2,
1,
1,
2,
2,
2,
3,
3,
4,
3,
3,
4,
4,
4,
4,
4,
-122,
-122,
-119,
-115,
-112,
-108,
-105,
-102,
-98,
-96,
-92,
-89,
-86,
-83,
-80,
-78,
-76,
-72,
-70,
-68,
-64,
-63,
-60,
-58,
-56,
-53,
-51,
-50,
-47,
-45,
-43,
-41,
-40,
-38,
-36,
-34,
-32,
-32,
-29,
-28,
-25,
-24,
-23,
-21,
-19,
-18,
-17,
-16,
-15,
-13,
-12,
-10,
-10,
-8,
-7,
-5,
-5,
-4,
-3,
-2,
0,
0,
1,
2,
3,
4,
4,
5,
6,
7,
8,
8,
9,
10,
11,
11,
12,
12,
13,
14,
15,
15,
16,
16,
17,
18,
18,
18,
18,
19,
20,
20,
20,
21,
21,
21,
22,
22,
23,
23,
23,
23,
23,
24,
24,
24,
24,
25,
25,
25,
25,
25,
25,
25,
25,
26,
26,
26,
25,
26,
26,
26,
26,
26,
26,
26,
26,
26,
27,
26,
26,
26,
26,
26,
25,
25,
25,
25,
24,
25,
24,
24,
24,
24,
24,
24,
24,
23,
23,
24,
24,
23,
23,
22,
22,
22,
21,
22,
20,
20,
20,
20,
20,
19,
20,
20,
19,
19,
18,
18,
17,
16,
16,
16,
16,
15,
15,
15,
14,
14,
13,
13,
12,
12,
12,
12,
12,
11,
11,
10,
10,
9,
8,
8,
8,
8,
7,
6,
6,
6,
5,
5,
4,
4,
3,
4,
2,
3,
1,
2,
1,
0,
0,
0,
0,
-1,
-2,
-2,
-2,
-3,
-3,
-4,
-4,
-4,
-4,
-5,
-5,
-6,
-6,
-7,
-8,
-7,
-8,
-8,
-9,
-9,
-10,
-10,
-11,
-11,
-11,
-12,
-13,
-12,
-12,
-13,
-13,
-14,
-15,
-15,
-15,
-16,
-16,
-16,
-16,
-17,
-16,
-17,
-18,
-18,
-19,
-19,
-18,
-20,
-20,
-20,
-20,
-20,
-20,
-21,
-21,
-21,
-22,
-21,
-22,
-23,
-23,
-23,
-23,
-24,
-24,
-24,
-24,
-24,
-25,
-24,
-25,
-25,
-25,
-25,
-25,
-25,
-26,
-26,
-26,
-26,
-26,
-26,
-26,
-27,
-26,
-27,
-27,
-26,
-27,
-28,
-28,
-27,
-28,
-28,
-28,
-28,
-28,
-28,
-27,
-27,
-27,
-28,
-28,
-27,
-28,
-27,
-27,
-27,
-28,
-27,
-26,
-28,
-28,
-26,
-27,
-26,
-26,
-27,
-26,
-26,
-25,
-25,
-25,
-25,
-24,
-25,
-24,
-24,
-24,
-24,
-24,
-24,
-23,
-24,
-23,
-23,
-23,
-23,
-22,
-22,
-22,
-22,
-22,
-21,
-21,
-21,
-20,
-20,
-20,
-20,
-20,
-19,
-19,
-18,
-18,
-18,
-17,
-18,
-16,
-16,
-16,
-16,
-16,
-16,
-15,
-15,
-14,
-14,
-13,
-14,
-13,
-12,
-12,
-12,
-12,
-11,
-10,
-10,
-9,
-10,
-9,
-9,
-9,
-8,
-8,
-8,
-7,
-7,
-6,
-5,
-6,
-4,
-4,
-4,
-4,
-3,
-3,
-2,
-3,
-3,
-1,
-1,
0,
0,
0,
0,
0,
1,
2,
2,
2,
3,
4,
4,
4,
4,
4,
6,
4,
6,
6,
7,
6,
8,
7,
8,
8,
8,
9,
9,
10,
10,
11,
12,
12,
12,
12,
12,
12,
13,
13,
14,
14,
15,
14,
15,
15,
16,
16,
16,
16,
17,
17,
17,
18,
18,
19,
19,
20,
20,
20,
19,
20,
20,
20,
21,
21,
22,
21,
22,
22,
22,
22,
22,
23,
22,
23,
24,
24,
23,
24,
24,
24,
24,
24,
25,
24,
25,
26,
24,
25,
25,
25,
24,
26,
25,
25,
26,
26,
26,
25,
26,
26,
26,
26,
26,
26,
27,
26,
27,
27,
27,
27,
27,
27,
26,
26,
27,
27,
26,
26,
26,
26,
26,
26,
25,
26,
26,
26,
25,
25,
26,
25,
25,
25,
25,
24,
24,
24,
24,
24,
24,
24,
24,
24,
23,
23,
24,
23,
23,
22,
23,
23,
22,
22,
22,
21,
21,
21,
21,
21,
20,
20,
20,
20,
20,
19,
19,
19,
18,
19,
18,
18,
17,
17,
17,
17,
16,
16,
16,
15,
16,
15,
15,
14,
14,
13,
14,
12,
12,
12,
12,
12,
11,
11,
11,
11,
10,
10,
9,
9,
8,
8,
8,
8,
7,
7,
6,
6,
5,
6,
6,
4,
4,
4,
4,
4,
4,
3,
3,
2,
2,
2,
1,
1,
0,
0,
0,
0,
0,
-1,
-1,
-1,
-2,
-2,
-3,
-4,
-3,
-4,
-4,
-4,
-4,
-5,
-4,
-6,
-5,
-6,
-6,
-7,
-7,
-8,
-8,
-8,
-8,
-9,
-8,
-8,
-9,
-10,
-10,
-10,
-10,
-11,
-11,
-11,
-12,
-12,
-12,
-12,
-12,
-12,
-13,
-13,
-13,
-13,
-14,
-14,
-14,
-15,
-16,
-15,
-16,
-16,
-16,
-16,
-16,
-16,
-17,
-17,
-17,
-17,
-18,
-17,
-18,
-18,
-18,
-18,
-18,
-19,
-19,
-19,
-19,
-19,
-20,
-19,
-19,
-20,
-20,
-20,
-20,
-20,
-20,
-20,
-20,
-20,
-20,
-20,
-20,
-20,
-20,
-20,
-21,
-20,
-21,
-21,
-21,
-20,
-21,
-20,
-20,
-20,
-21,
-20,
-21,
-20,
-21,
-21,
-21,
-21,
-21,
-21,
-20,
-21,
-21,
-20,
-20,
-20,
-20,
-20,
-20,
-20,
-20,
-20,
-21,
-20,
-20,
-20,
-19,
-19,
-19,
-20,
-19,
-18,
-19,
-19,
-19,
-19,
-19,
-18,
-19,
-18,
-18,
-18,
-17,
-18,
-17,
-17,
-16,
-16,
-16,
-16,
-16,
-16,
-16,
-16,
-15,
-15,
-16,
-15,
-14,
-14,
-14,
-13,
-14,
-13,
-13,
-13,
-12,
-12,
-12,
-12,
-12,
-11,
-11,
-10,
-11,
-11,
-10,
-10,
-9,
-9,
-10,
-9,
-8,
-8,
-8,
-8,
-8,
-7,
-7,
-7,
-6,
-6,
-6,
-6,
-5,
-4,
-6,
-4,
-4,
-4,
-4,
-3,
-3,
-3,
-3,
-2,
-2,
-2,
-1,
-2,
-2,
-1,
0,
0,
0,
0,
0,
0,
0,
2,
1,
2,
1,
3,
3,
3,
3,
3,
3,
4,
4,
4,
5,
5,
5,
6,
6,
7,
6,
6,
6,
7,
7,
6,
8,
8,
8,
8,
