CSVs/DS0047.CSV

Memory Length,4000,
Trigger Level,-4.000E-01,
Source,CH2,
Probe,1X,
Vertical Units,V,
Vertical Scale,1.000E+01,
Vertical Position,0.000E+00,
Horizontal Units,s,
Horizontal Scale,1.000E-03,
Horizontal Position,0.000E+00,
Horizontal Mode,Main,
Sampling Period,4.000E-06,
Firmware,V1.13.001,
Time, ,
Mode,Fast,
Waveform Data,
-30,
-30,
24,
24,
23,
25,
24,
24,
24,
25,
24,
24,
24,
25,
24,
24,
24,
24,
24,
24,
24,
24,
25,
24,
25,
24,
25,
25,
24,
25,
25,
24,
25,
25,
25,
25,
25,
25,
25,
25,
25,
25,
25,
24,
26,
26,
26,
26,
25,
25,
25,
26,
25,
26,
26,
25,
25,
26,
26,
26,
26,
26,
26,
26,
26,
26,
26,
26,
26,
26,
26,
26,
26,
26,
26,
27,
26,
26,
27,
26,
26,
26,
26,
26,
27,
26,
26,
26,
26,
26,
26,
26,
27,
26,
27,
26,
26,
26,
26,
26,
26,
26,
26,
26,
27,
26,
26,
26,
26,
26,
26,
26,
26,
26,
26,
26,
26,
26,
26,
26,
26,
26,
26,
26,
26,
25,
26,
25,
26,
25,
25,
26,
25,
25,
25,
25,
25,
25,
25,
25,
25,
25,
25,
24,
25,
24,
25,
25,
25,
24,
25,
24,
25,
25,
24,
25,
24,
24,
24,
24,
24,
24,
24,
24,
25,
24,
24,
24,
24,
24,
24,
23,
24,
24,
24,
24,
24,
24,
24,
24,
24,
23,
24,
24,
24,
24,
24,
24,
24,
23,
25,
24,
24,
24,
24,
24,
24,
25,
25,
25,
24,
24,
24,
25,
25,
24,
25,
25,
24,
24,
25,
24,
24,
25,
25,
24,
25,
25,
25,
24,
25,
25,
25,
25,
25,
25,
25,
25,
25,
25,
25,
25,
26,
25,
26,
26,
26,
25,
25,
25,
25,
26,
26,
26,
25,
26,
25,
26,
26,
25,
25,
25,
26,
25,
25,
25,
25,
25,
25,
25,
26,
25,
25,
26,
25,
25,
26,
25,
25,
25,
25,
25,
25,
25,
25,
26,
25,
25,
25,
25,
25,
25,
25,
25,
25,
26,
25,
24,
25,
25,
26,
24,
25,
25,
25,
24,
25,
24,
24,
25,
25,
25,
24,
24,
24,
25,
24,
25,
25,
24,
24,
24,
25,
24,
24,
24,
24,
24,
24,
24,
24,
24,
25,
24,
24,
24,
24,
24,
24,
24,
23,
24,
24,
24,
24,
23,
23,
23,
24,
24,
24,
24,
24,
24,
24,
24,
23,
24,
24,
24,
24,
24,
24,
24,
24,
24,
23,
24,
24,
24,
23,
24,
25,
24,
24,
24,
23,
24,
23,
24,
23,
24,
24,
24,
24,
24,
24,
24,
24,
24,
24,
24,
24,
24,
24,
24,
24,
25,
24,
24,
24,
24,
24,
24,
25,
24,
24,
24,
24,
24,
24,
24,
25,
24,
25,
24,
23,
23,
22,
22,
22,
21,
20,
19,
18,
17,
15,
16,
14,
12,
10,
10,
8,
7,
5,
3,
2,
0,
-2,
-4,
-6,
-7,
-9,
-10,
-12,
-15,
-17,
-19,
-20,
-22,
-24,
-26,
-28,
-29,
-32,
-33,
-35,
-37,
-38,
-40,
-42,
-43,
-45,
-47,
-48,
-49,
-51,
-52,
-54,
-55,
-56,
-57,
-58,
-59,
-59,
-61,
-61,
-62,
-63,
-62,
-64,
-65,
-64,
-65,
-65,
-65,
-66,
-65,
-65,
-65,
-65,
-65,
-65,
-65,
-64,
-64,
-62,
-62,
-62,
-61,
-60,
-59,
-58,
-58,
-57,
-56,
-55,
-54,
-53,
-52,
-50,
-50,
-49,
-48,
-46,
-45,
-44,
-42,
-41,
-40,
-39,
-38,
-37,
-36,
-34,
-33,
-31,
-30,
-30,
-28,
-27,
-26,
-25,
-23,
-22,
-22,
-20,
-20,
-18,
-18,
-17,
-16,
-15,
-14,
-14,
-13,
-12,
-12,
-11,
-10,
-10,
-9,
-9,
-8,
-8,
-8,
-8,
-7,
-7,
-7,
-7,
-7,
-7,
-7,
-7,
-6,
-7,
-7,
-7,
-7,
-8,
-8,
-8,
-9,
-9,
-9,
-10,
-10,
-11,
-12,
-12,
-13,
-13,
-13,
-14,
-15,
-16,
-16,
-16,
-17,
-18,
-18,
-19,
-19,
-20,
-21,
-22,
-22,
-22,
-23,
-24,
-25,
-25,
-25,
-26,
-26,
-27,
-28,
-29,
-29,
-30,
-30,
-31,
-30,
-32,
-32,
-32,
-32,
-34,
-34,
-34,
-34,
-35,
-35,
-35,
-35,
-36,
-37,
-36,
-36,
-37,
-37,
-37,
-37,
-37,
-37,
-38,
-38,
-37,
-38,
-37,
-38,
-38,
-38,
-37,
-38,
-37,
-37,
-37,
-37,
-37,
-37,
-37,
-36,
-36,
-36,
-36,
-35,
-36,
-35,
-36,
-35,
-35,
-35,
-35,
-34,
-35,
-34,
-34,
-34,
-34,
-34,
-34,
-34,
-33,
-33,
-33,
-33,
-33,
-32,
-32,
-33,
-33,
-32,
-31,
-32,
-32,
-32,
-31,
-31,
-31,
-30,
-31,
-30,
-30,
-30,
-30,
-30,
-30,
-30,
-30,
-30,
-30,
-30,
-30,
-30,
-30,
-30,
-30,
-30,
-30,
-29,
-29,
-29,
-30,
-29,
-28,
-29,
-29,
-29,
-28,
-28,
-28,
-28,
-28,
-28,
-28,
-28,
-28,
-27,
-28,
-28,
-26,
-27,
-26,
-27,
-26,
-26,
-26,
-27,
-26,
-26,
-26,
-26,
-26,
-25,
-26,
-25,
-25,
-25,
-25,
-24,
-24,
-25,
-25,
-24,
-24,
-24,
-24,
-24,
-23,
-23,
-23,
-23,
-23,
-23,
-22,
-22,
-22,
-22,
-22,
-22,
-22,
-22,
-22,
-22,
-22,
-22,
-22,
-22,
-22,
-22,
-22,
-22,
-22,
-22,
-22,
-22,
-22,
-22,
-22,
-22,
-23,
-22,
-22,
-23,
-23,
-23,
-22,
-24,
-24,
-24,
-24,
-25,
-25,
-25,
-26,
-26,
-25,
-26,
-25,
-26,
-26,
-27,
-27,
-27,
-27,
-28,
-29,
-29,
-29,
-30,
-30,
-30,
-30,
-30,
-31,
-31,
-32,
-32,
-33,
-33,
-34,
-33,
-34,
-34,
-34,
-34,
-35,
-35,
-35,
-35,
-36,
-36,
-36,
-36,
-36,
-37,
-36,
-37,
-37,
-37,
-37,
-37,
-37,
-37,
-37,
-38,
-37,
-38,
-38,
-38,
-38,
-37,
-38,
-38,
-38,
-37,
-37,
-37,
-37,
-37,
-37,
-36,
-36,
-36,
-36,
-35,
-35,
-35,
-35,
-34,
-34,
-34,
-34,
-34,
-33,
-32,
-32,
-32,
-32,
-31,
-30,
-30,
-30,
-29,
-29,
-29,
-27,
-28,
-28,
-26,
-27,
-26,
-26,
-26,
-25,
-25,
-24,
-24,
-24,
-24,
-23,
-23,
-22,
-22,
-22,
-22,
-21,
-21,
-21,
-21,
-21,
-21,
-20,
-20,
-20,
-19,
-20,
-18,
-19,
-19,
-18,
-19,
-19,
-19,
-18,
-18,
-19,
-19,
-19,
-19,
-19,
-19,
-19,
-19,
-20,
-20,
-20,
-21,
-20,
-21,
-21,
-20,
-21,
-21,
-22,
-22,
-22,
-22,
-22,
-22,
-23,
-24,
-24,
-24,
-25,
-25,
-25,
-25,
-26,
-26,
-26,
-27,
-26,
-27,
-28,
-28,
-28,
-30,
-29,
-30,
-30,
-30,
-30,
-32,
-32,
-32,
-32,
-33,
-33,
-33,
-33,
-34,
-34,
-34,
-34,
-34,
-34,
-35,
-35,
-35,
-35,
-35,
-36,
-36,
-35,
-36,
-36,
-36,
-36,
-36,
-36,
-36,
-37,
-36,
-36,
-36,
-36,
-36,
-37,
-35,
-35,
-35,
-36,
-35,
-35,
-36,
-35,
-35,
-34,
-35,
-34,
-34,
-34,
-34,
-34,
-33,
-33,
-33,
-33,
-33,
-32,
-31,
-31,
-31,
-30,
-30,
-30,
-30,
-30,
-29,
-29,
-29,
-28,
-28,
-27,
-27,
-27,
-27,
-27,
-26,
-26,
-25,
-26,
-25,
-25,
-25,
-24,
-24,
-24,
-24,
-23,
-24,
-23,
-23,
-22,
-23,
-22,
-22,
-22,
-22,
-22,
-22,
-22,
-22,
-22,
-22,
-21,
-21,
-21,
-22,
-21,
-21,
-21,
-21,
-22,
-21,
-21,
-22,
-22,
-22,
-22,
-22,
-22,
-22,
-22,
-22,
-22,
-22,
-22,
-22,
-23,
-22,
-23,
-23,
-23,
-24,
-24,
-24,
-24,
-25,
-24,
-25,
-25,
-25,
-25,
-26,
-26,
-25,
-26,
-26,
-26,
-26,
-26,
-27,
-27,
-28,
-28,
-28,
-28,
-29,
-28,
-29,
-29,
-29,
-29,
-29,
-30,
-30,
-31,
-30,
-30,
-30,
-30,
-30,
-31,
-31,
-31,
-31,
-31,
-32,
-31,
-32,
-32,
-31,
-32,
-32,
-32,
-32,
-32,
-32,
-32,
-32,
-33,
-32,
-32,
-32,
-32,
-31,
-32,
-32,
-32,
-32,
-31,
-31,
-31,
-31,
-31,
-32,
-32,
-31,
-31,
-31,
-30,
-31,
-30,
-30,
-30,
-30,
-30,
-30,
-30,
-29,
-30,
-30,
-29,
-29,
-29,
-29,
-28,
-29,
-28,
-28,
-28,
-28,
-28,
-28,
-27,
-27,
-27,
-27,
-27,
-27,
-27,
-27,
-26,
-26,
-27,
-26,
-26,
-26,
-26,
-26,
-25,
-26,
-26,
-26,
-25,
-25,
-25,
-25,
-25,
-25,
-25,
-24,
-25,
-25,
-25,
-24,
-25,
-25,
-25,
-25,
-24,
-24,
-24,
-24,
-24,
-24,
-24,
-24,
-24,
-24,
-24,
-25,
-24,
-24,
-25,
-25,
-25,
-24,
-24,
-25,
-24,
-25,
-25,
-25,
-25,
-25,
-24,
-25,
-25,
-24,
-25,
-25,
-25,
-26,
-25,
-26,
-26,
-25,
-26,
-26,
-26,
-26,
-26,
-26,
-26,
-26,
-26,
-26,
-26,
-26,
-26,
-27,
-26,
-27,
-27,
-26,
-26,
-27,
-27,
-27,
-27,
-27,
-27,
-27,
-28,
-27,
-27,
-27,
-28,
-27,
-27,
-27,
-28,
-28,
-28,
-28,
-28,
-28,
-28,
-28,
-28,
-29,
-29,
-28,
-29,
-28,
-28,
-29,
-28,
-27,
-28,
-28,
-29,
-29,
-29,
-29,
-29,
-28,
-28,
-29,
-29,
-29,
-29,
-29,
-28,
-28,
-29,
-29,
-29,
-28,
-29,
-29,
-29,
-29,
-29,
-29,
-28,
-28,
-28,
-28,
-28,
-28,
-28,
-28,
-27,
-28,
-29,
-27,
-27,
-28,
-28,
-28,
-27,
-27,
-27,
-28,
-26,
-27,
-27,
-26,
-26,
-26,
-26,
-26,
-27,
-27,
-27,
-27,
-26,
-26,
-26,
-26,
-26,
-26,
-26,
-26,
-26,
-26,
-26,
-26,
-25,
-26,
-25,
-25,
-25,
-26,
-25,
-25,
-25,
-25,
-25,
-25,
-25,
-25,
-25,
-25,
-25,
-25,
-24,
-25,
-25,
-25,
-25,
-24,
-24,
-25,
-24,
-24,
-25,
-25,
-24,
-25,
-24,
-24,
-25,
-25,
-25,
-24,
-25,
-24,
-24,
-24,
-24,
-25,
-25,
-25,
-25,
-25,
-24,
-25,
-24,
-25,
-25,
-25,
-24,
-25,
-25,
-25,
-25,
-25,
-25,
-25,
-25,
-25,
-26,
-25,
-25,
-26,
-25,
-26,
-26,
-26,
-26,
-26,
-26,
-26,
-26,
-26,
-26,
-26,
-26,
-26,
-26,
-26,
-26,
-26,
-26,
-27,
-26,
-26,
-26,
-27,
-26,
-27,
-26,
-27,
-26,
-27,
-27,
-27,
-27,
-26,
-28,
-28,
-28,
-27,
-27,
-27,
-27,
-28,
-27,
-27,
-27,
-27,
-27,
-27,
-27,
-28,
-27,
-27,
-27,
-27,
-27,
-27,
-27,
-27,
-27,
-27,
-28,
-27,
-27,
-27,
-27,
-26,
-27,
-27,
-27,
-26,
-26,
-27,
-26,
-26,
-26,
-27,
-27,
-26,
-26,
-26,
-26,
-26,
-26,
-26,
-26,
-26,
-26,
-26,
-26,
-26,
-26,
-26,
-26,
-25,
-25,
-25,
-25,
-25,
-25,
-25,
-26,
-25,
-25,
-25,
-25,
-25,
-24,
-25,
-25,
-25,
-25,
-25,
-24,
-25,
-24,
-24,
-24,
-24,
-24,
-25,
-24,
-24,
-24,
-24,
-24,
-24,
-24,
-24,
-24,
-24,
-24,
-24,
-24,
-24,
-24,
-24,
-24,
-24,
-24,
-24,
-24,
-24,
-24,
-23,
-24,
-24,
-24,
-24,
-25,
-25,
-24,
-24,
-24,
-24,
-24,
-24,
-24,
-25,
-24,
-24,
-25,
-24,
-25,
-25,
-25,
-25,
-25,
-25,
-25,
-25,
-25,
-26,
-25,
-26,
-26,
-25,
-25,
-25,
-25,
-25,
-26,
-26,
-26,
-25,
-26,
-26,
-26,
-26,
-26,
-26,
-26,
-25,
-26,
-26,
-26,
-26,
-26,
-26,
-26,
-26,
-26,
-26,
-26,
-26,
-26,
-26,
-26,
-26,
-26,
-26,
-26,
-26,
-26,
-26,
-26,
-26,
-26,
-26,
-26,
-26,
-26,
-26,
-26,
-26,
-26,
-26,
-26,
-26,
-26,
-26,
-26,
-26,
-26,
-26,
-25,
-25,
-26,
-26,
-26,
-26,
-26,
-25,
-25,
-26,
-26,
-26,
-26,
-26,
-26,
-25,
-25,
-25,
-25,
-25,
-24,
-25,
-25,
-25,
-25,
-24,
-25,
-24,
-25,
-24,
-25,
-25,
-25,
-25,
-25,
-25,
-24,
-24,
-24,
-25,
-24,
-24,
-24,
-24,
-24,
-24,
-24,
-24,
-24,
-24,
-24,
-24,
-24,
-23,
-24,
-24,
-24,
-24,
-25,
-24,
-24,
-24,
-23,
-24,
-24,
-24,
-24,
-23,
-24,
-24,
-24,
-23,
-24,
-24,
-24,
-24,
-24,
-24,
-24,
-24,
-24,
-24,
-24,
-24,
-24,
-24,
-24,
-24,
-24,
-25,
-24,
-24,
-24,
-24,
-24,
-24,
-24,
-24,
-24,
-24,
-25,
-25,
-24,
-24,
-24,
-25,
-24,
-24,
-24,
-25,
-24,
-25,
-24,
-25,
-25,
-25,
-25,
-25,
-25,
-25,
-25,
-25,
-25,
-25,
-25,
-25,
-25,
-25,
-25,
-25,
-25,
-25,
-25,
-25,
-25,
-25,
-24,
-25,
-25,
-26,
-25,
-25,
-25,
-25,
-25,
-25,
-25,
-25,
-25,
-25,
-25,
-24,
-25,
-25,
-25,
-25,
-25,
-26,
-25,
-25,
-24,
-25,
-25,
-25,
-25,
-25,
-25,
-25,
-25,
-25,
-25,
-24,
-25,
-24,
-25,
-24,
-25,
-24,
-25,
-24,
-24,
-25,
-25,
-25,
-24,
-23,
-25,
-24,
-24,
-24,
-24,
-24,
-24,
-24,
-24,
-24,
-24,
-23,
-24,
-24,
-23,
-25,
-24,
-24,
-24,
-24,
-24,
-24,
-24,
-24,
-23,
-24,
-24,
-24,
-23,
-24,
-24,
-24,
-23,
-24,
-24,
-23,
-23,
-23,
-24,
-24,
-24,
-23,
-24,
-23,
-23,
-23,
-24,
-23,
-24,
-24,
-24,
-23,
-23,
-24,
-24,
-23,
-24,
-23,
-23,
-24,
-23,
-24,
-23,
-24,
-24,
-23,
-23,
-23,
-23,
-24,
-24,
-23,
-23,
-24,
-23,
-23,
-23,
-23,
-24,
-24,
-23,
-24,
-23,
-24,
-23,
-24,
-24,
-24,
-24,
-23,
-24,
-23,
-24,
-24,
-24,
-23,
-24,
-24,
-24,
-24,
-24,
-24,
-24,
-24,
-24,
-24,
-24,
-24,
-24,
-24,
-23,
-24,
-23,
-22,
-22,
-21,
-20,
-19,
-19,
-17,
-16,
-15,
-14,
-13,
-11,
-9,
-8,
-6,
-5,
-3,
-2,
0,
1,
2,
5,
7,
8,
10,
11,
14,
16,
17,
19,
22,
23,
25,
27,
29,
31,
32,
34,
36,
38,
40,
41,
43,
45,
46,
47,
49,
50,
52,
53,
55,
55,
57,
58,
59,
59,
60,
61,
62,
62,
63,
64,
64,
65,
65,
65,
65,
66,
66,
65,
66,
65,
65,
64,
64,
64,
64,
63,
63,
62,
61,
61,
60,
59,
58,
57,
56,
55,
54,
54,
53,
51,
51,
49,
47,
47,
46,
44,
43,
42,
41,
40,
38,
38,
36,
34,
34,
33,
30,
30,
28,
28,
27,
26,
24,
23,
22,
21,
20,
18,
18,
17,
16,
15,
15,
14,
13,
13,
12,
12,
10,
10,
9,
10,
9,
9,
8,
8,
7,
7,
8,
7,
7,
7,
6,
7,
7,
7,
8,
8,
8,
8,
8,
8,
8,
9,
9,
10,
10,
11,
10,
12,
12,
13,
13,
14,
14,
15,
15,
16,
16,
18,
18,
19,
19,
20,
21,
21,
22,
22,
24,
23,
25,
25,
26,
26,
26,
27,
28,
28,
28,
30,
30,
31,
30,
31,
32,
33,
33,
34,
34,
33,
34,
34,
34,
35,
36,
36,
36,
37,
37,
37,
37,
37,
38,
37,
37,
38,
37,
38,
38,
38,
38,
38,
38,
38,
38,
38,
37,
38,
38,
37,
37,
38,
37,
37,
37,
36,
36,
36,
36,
36,
35,
35,
35,
35,
35,
34,
34,
34,
34,
34,
34,
34,
34,
33,
33,
32,
33,
32,
33,
33,
31,
31,
32,
31,
32,
31,
31,
31,
31,
31,
30,
30,
31,
30,
30,
30,
30,
30,
30,
30,
30,
29,
30,
30,
30,
30,
29,
29,
30,
30,
30,
29,
30,
29,
29,
29,
29,
29,
28,
29,
28,
28,
28,
28,
28,
28,
28,
28,
28,
28,
27,
27,
27,
27,
27,
27,
27,
26,
27,
27,
26,
26,
26,
26,
26,
26,
26,
26,
25,
25,
25,
25,
25,
25,
25,
24,
24,
24,
24,
24,
23,
24,
23,
23,
23,
23,
23,
22,
22,
22,
22,
22,
22,
23,
22,
22,
22,
22,
22,
22,
22,
22,
22,
22,
22,
22,
22,
22,
22,
22,
22,
22,
23,
23,
23,
23,
24,
23,
24,
24,
25,
24,
24,
25,
25,
25,
25,
26,
26,
26,
27,
26,
26,
27,
28,
27,
28,
28,
29,
29,
29,
29,
30,
30,
30,
30,
31,
31,
32,
32,
33,
33,
33,
33,
34,
34,
34,
35,
34,
35,
35,
35,
35,
35,
36,
37,
37,
37,
37,
38,
38,
37,
37,
38,
38,
38,
38,
37,
38,
38,
38,
38,
38,
38,
38,
38,
37,
37,
38,
37,
36,
37,
36,
36,
37,
36,
36,
35,
35,
35,
34,
34,
34,
33,
33,
33,
32,
32,
32,
31,
32,
31,
30,
29,
30,
29,
29,
28,
28,
27,
28,
27,
27,
26,
26,
25,
25,
25,
24,
24,
24,
23,
23,
23,
22,
22,
22,
22,
20,
21,
22,
21,
20,
20,
20,
20,
19,
19,
19,
19,
19,
19,
19,
19,
19,
18,
19,
19,
19,
19,
18,
18,
19,
19,
19,
20,
20,
19,
20,
20,
20,
20,
21,
20,
22,
21,
22,
22,
22,
23,
23,
23,
23,
24,
24,
24,
24,
25,
25,
26,
26,
26,
26,
27,
27,
27,
28,
29,
28,
30,
30,
30,
30,
30,
31,
31,
31,
32,
32,
32,
33,
33,
33,
34,
34,
34,
34,
35,
35,
35,
35,
35,
35,
36,
36,
36,
36,
37,
37,
36,
37,
37,
36,
37,
36,
37,
36,
37,
36,
37,
36,
36,
37,
36,
35,
35,
35,
35,
35,
35,
34,
34,
35,
34,
34,
34,
34,
33,
33,
33,
33,
32,
31,
32,
31,
31,
31,
31,
30,
30,
29,
29,
30,
29,
28,
28,
28,
28,
27,
27,
26,
26,
26,
26,
26,
25,
25,
25,
24,
24,
24,
24,
24,
24,
23,
23,
23,
23,
23,
22,
22,
22,
22,
22,
22,
22,
22,
22,
22,
22,
21,
22,
22,
22,
22,
22,
22,
22,
22,
22,
22,
22,
22,
22,
22,
23,
22,
22,
22,
23,
23,
22,
22,
23,
24,
24,
23,
24,
24,
24,
25,
25,
25,
25,
25,
26,
26,
26,
26,
26,
27,
27,
27,
27,
27,
28,
28,
27,
28,
28,
29,
28,
29,
29,
29,
30,
29,
30,
30,
30,
30,
30,
30,
30,
30,
30,
31,
31,
31,
31,
31,
32,
31,
32,
32,
32,
31,
32,
32,
32,
32,
31,
31,
31,
32,
32,
32,
31,
33,
31,
32,
31,
32,
32,
31,
32,
31,
31,
31,
31,
31,
31,
31,
31,
30,
30,
30,
30,
30,
30,
30,
30,
30,
30,
30,
30,
28,
28,
29,
29,
29,
28,
29,
28,
28,
28,
27,
27,
28,
27,
27,
27,
27,
27,
27,
26,
26,
26,
26,
26,
26,
26,
26,
26,
26,
25,
25,
26,
25,
25,
25,
25,
25,
25,
25,
25,
25,
25,
25,
25,
25,
25,
24,
25,
24,
24,
25,
24,
25,
24,
24,
24,
25,
24,
24,
25,
24,
24,
25,
24,
24,
24,
25,
24,
25,
25,
25,
25,
25,
25,
25,
25,
25,
26,
25,
26,
26,
26,
25,
26,
26,
26,
26,
26,
27,
26,
26,
26,
26,
27,
26,
26,
26,
27,
26,
27,
26,
26,
27,
27,
27,
26,
27,
28,
27,
27,
27,
27,
27,
27,
28,
28,
28,
27,
28,
28,
28,
28,
28,
29,
28,
28,
28,
29,
28,
28,
28,
28,
28,
28,
29,
29,
29,
29,
29,
29,
28,
29,
29,
28,
29,
29,
28,
29,
29,
29,
29,
29,
29,
29,
29,
29,
29,
29,
28,
29,
28,
28,
29,
28,
29,
28,
28,
28,
28,
28,
28,
27,
28,
28,
27,
28,
28,
27,
28,
28,
27,
27,
27,
28,
28,
27,
27,
27,
27,
27,
27,
27,
27,
27,
27,
27,
26,
27,
26,
26,
26,
26,
27,
26,
26,
26,
26,
26,
26,
26,
26,
26,
26,
26,
26,
25,
25,
26,
25,
25,
25,
25,
25,
25,
25,
25,
25,
25,
25,
25,
25,
24,
25,
24,
25,
25,
24,
24,
25,
25,
24,
25,
25,
25,
25,
25,
25,
25,
25,
25,
25,
25,
25,
25,
25,
25,
25,
25,
26,
25,
26,
25,
25,
25,
25,
26,
26,
26,
26,
25,
26,
25,
26,
26,
26,
26,
26,
26,
26,
26,
26,
26,
26,
26,
26,
26,
26,
26,
26,
26,
26,
26,
27,
26,
27,
27,
27,
27,
27,
27,
27,
27,
27,
27,
27,
27,
27,
27,
27,
27,
28,
27,
28,
27,
28,
28,
27,
27,
28,
27,
28,
27,
28,
28,
27,
27,
28,
27,
28,
27,
27,
27,
27,
27,
27,
28,
28,
27,
27,
27,
27,
27,
28,
27,
27,
27,
27,
26,
27,
27,
27,
27,
27,
26,
27,
26,
26,
26,
26,
26,
26,
26,
26,
26,
26,
26,
26,
26,
26,
26,
26,
26,
26,
26,
25,
25,
25,
25,
26,
25,
26,
25,
25,
25,
25,
25,
25,
24,
24,
25,
24,
24,
25,
24,
25,
24,
24,
24,
24,
25,
24,
24,
24,
25,
24,
24,
25,
25,
24,
24,
24,
24,
24,
24,
24,
25,
24,
24,
24,
24,
24,
24,
24,
24,
25,
24,
25,
24,
25,
25,
25,
24,
25,
25,
25,
25,
25,
25,
25,
24,
25,
25,
26,
25,
25,
25,
25,
25,
26,
25,
26,
26,
26,
26,
26,
26,
26,
26,
26,
26,
26,
26,
26,
26,
26,
26,
27,
26,
26,
26,
26,
26,
27,
26,
26,
26,
26,
26,
27,
27,
26,
26,
26,
26,
26,
27,
27,
26,
26,
26,
26,
27,
26,
26,
26,
27,
26,
26,
26,
26,
26,
26,
27,
26,
26,
26,
26,
27,
26,
26,
26,
26,
26,
26,
26,
26,
26,
26,
26,
26,
26,
26,
26,
26,
26,
26,
26,
25,
25,
25,
25,
25,
25,
25,
25,
25,
25,
25,
25,
25,
25,
25,
25,
25,
25,
25,
25,
25,
25,
24,
25,
24,
24,
24,
25,
24,
24,
24,
24,
24,
24,
24,
25,
24,
24,
24,
24,
24,
24,
24,
24,
24,
24,
24,
24,
24,
24,
24,
24,
24,
24,
24,
24,
24,
24,
24,
24,
24,
25,
24,
24,
24,
24,
24,
24,
24,
24,
24,
24,
24,
24,
24,
25,
24,
24,
25,
24,
25,
24,
25,
24,
25,
24,
24,
25,
25,
24,
25,
25,
25,
25,
25,
25,
25,
25,
25,
25,
25,
25,
24,
26,
25,
25,
25,
25,
26,
25,
25,
26,
25,
26,
25,
25,
25,
25,
25,
25,
26,
26,
25,
25,
25,
26,
25,
26,
25,
25,
25,
25,
25,
26,
25,
25,
25,
25,
26,
25,
25,
26,
25,
25,
25,
25,
25,
25,
25,
25,
25,
25,
26,
25,
25,
25,
25,
25,
25,
26,
25,
24,
25,
25,
24,
25,
24,
24,
25,
25,
25,
24,
24,
24,
24,
24,
24,
25,
24,
24,
24,
24,
24,
25,
24,
24,
24,
24,
24,
25,
24,
24,
23,
24,
24,
24,
24,
24,
24,
24,
24,
24,
24,
24,
23,
24,
24,
24,
24,
24,
24,
24,
24,
24,
23,
24,
24,
23,
23,
24,
24,
24,
24,
24,
23,
23,
24,
23,
24,
24,
24,
24,
24,
24,
23,
23,
24,
24,
24,
23,
24,
24,
24,
24,
24,
24,
24,
24,
24,
23,
24,
24,
24,
24,
24,
24,
25,
24,
25,
24,
24,
24,
24,
24,
24,
24,
24,
24,
24,
24,
24,
24,
24,
24,
24,
23,
23,
22,
22,
21,
21,
19,
18,
18,
17,
15,
14,
13,
12,
10,
9,
7,
6,
3,
2,
1,
-1,
-3,
-4,
-6,
-8,
-10,
-12,
-14,
-16,
-17,
-19,
-21,
-23,
-25,
-26,
-29,
-31,
-32,
-34,
-36,
-38,
-39,
-41,
-42,
-44,
-46,
-47,
-49,
-50,
-51,
-53,
-54,
-55,
-56,
-58,
-58,
-59,
-61,
-61,
-62,
-62,
-63,
-63,
-65,
-64,
-64,
-65,
-65,
-65,
-65,
-65,
-65,
-65,
-65,
-65,
-64,
-65,
-63,
-63,
-62,
-62,
-61,
-61,
-60,
-59,
-58,
-57,
-56,
-55,
-54,
-54,
-52,
-51,
-50,
-50,
-48,
-47,
-46,
-45,
-43,
-42,
-41,
-39,
-38,
-38,
-36,
-35,
-33,
-33,
-31,
-30,
-29,
-28,
-26,
-25,
-24,
-23,
-22,
-21,
-20,
-19,
-18,
-17,
-16,
-16,
-15,
-14,
-14,
-13,
-12,
-11,
-11,
-10,
-10,
-10,
-9,
-8,
-8,
-8,
-7,
-7,
-7,
-7,
-7,
-7,
-7,
-7,
-6,
-7,
-7,
-7,
-7,
-7,
-8,
-8,
-8,
-9,
-10,
-10,
-10,
-10,
-12,
-11,
-12,
-13,
-14,
-14,
-14,
-15,
-15,
-16,
-17,
-17,
-18,
-19,
-19,
-20,
-20,
-21,
-21,
-22,
-22,
-23,
-24,
-24,
-25,
-26,
-26,
-26,
-27,
-28,
-29,
-30,
-30,
-30,
-31,
-31,
-32,
-33,
-33,
-33,
-33,
-34,
-34,
-34,
-35,
-35,
-36,
-35,
-36,
-36,
-36,
-37,
-37,
-37,
-37,
-37,
-37,
-37,
-38,
-37,
-38,
-38,
-37,
-38,
-38,
-37,
-38,
-37,
-38,
-37,
-36,
-37,
-37,
-37,
-37,
-37,
-37,
-36,
-36,
-35,
-36,
-35,
-35,
-35,
-35,
-35,
-35,
-34,
-34,
-34,
-34,
-34,
-33,
-34,
-33,
-33,
-33,
-33,
-33,
-33,
-32,
-33,
-32,
-32,
-32,
-32,
-32,
-31,
-32,
-31,
-32,
-31,
-31,
-31,
-30,
-31,
-30,
-30,
-30,
-30,
-31,
-30,
-30,
-30,
-29,
-30,
-29,
-30,
-30,
-29,
-29,
-29,
-29,
-29,
-29,
-29,
-28,
-29,
-28,
-28,
-29,
-29,
-28,
-29,
-29,
-29,
-28,
-27,
-29,
-26,
-28,
-27,
-27,
-27,
-27,
-27,
-26,
-26,
-27,
-26,
-26,
-26,
-26,
-26,
-26,
-26,
-25,
-25,
-25,
-25,
-25,
-25,
-25,
-24,
-24,
-25,
-24,
-24,
-24,
-24,
-24,
-23,
-24,
-23,
-23,
-24,
-23,
-23,
-22,
-22,
-22,
-22,
-22,
-22,
-22,
-22,
-22,
-22,
-22,
-22,
-22,
-22,
-22,
-22,
-22,
-22,
-22,
-22,
-22,
-22,
-22,
-22,
-22,
-22,
-22,
-22,
-23,
-23,
-23,
-23,
-23,
-23,
-24,
-23,
-24,
-25,
-24,
-25,
-24,
-26,
-26,
-26,
-26,
-26,
-26,
-26,
-27,
-27,
-27,
-28,
-29,
-29,
-29,
